out_regression_20seed/seed_18.log
Reading pref.tcl

# 2021.1

# vsim -c work_regression.lsu_slice_tb_v2 -sv_seed 18 "+SEED=18" "+NUM_OPS=500" -do "run -all; quit -f" 
# Start time: 04:17:13 on Jun 22,2026
# ** Note: (vsim-8009) Loading existing optimized design _opt
# //  Questa Sim-64
# //  Version 2021.1 win64 Jan 19 2021
# //
# //  Copyright 1991-2021 Mentor Graphics Corporation
# //  All Rights Reserved.
# //
# //  QuestaSim and its associated documentation contain trade
# //  secrets and commercial or financial information that are the property of
# //  Mentor Graphics Corporation and are privileged, confidential,
# //  and exempt from disclosure under the Freedom of Information Act,
# //  5 U.S.C. Section 552. Furthermore, this information
# //  is prohibited from disclosure under the Trade Secrets Act,
# //  18 U.S.C. Section 1905.
# //
# Loading sv_std.std
# Loading work.VX_gpu_pkg(fast)
# Loading work.lsu_sequence_item_pkg(fast)
# Loading work.lsu_scoreboard_pkg(fast)
# Loading work.lsu_monitor_pkg(fast)
# Loading work.vx_lsu_slice_tb_v2_sv_unit(fast)
# Loading work.lsu_slice_tb_v2(fast)
# Loading work.VX_lsu_slice(fast)
# Loading work.VX_elastic_buffer(fast__3)
# Loading work.VX_elastic_buffer(fast__4)
# Loading work.VX_stream_arb(fast)
# Loading work.lsu_mem_model_rand_sv_unit(fast)
# Loading work.lsu_mem_model_rand(fast)
# run -all
# [75] [PASS] STORE lane=0 addr=0x100 data=0xdeadbeef op=0xa R:1 W:0
# [215] [PASS] LOAD lane=0 addr=0x100 data=0xdeadbeef exp=0xdeadbeef op=0x2 R:2 W:0
# [225] [PASS] STORE lane=1 addr=0x108 data=0x8001 op=0x9 R:3 W:0
# [295] [PASS] LOAD lane=1 addr=0x108 data=0xffff8001 exp=0xffff8001 op=0x1 R:4 W:0
# [405] [PASS] LOAD lane=1 addr=0x108 data=0x8001 exp=0x8001 op=0x5 R:5 W:0
# [415] [PASS] STORE lane=2 addr=0x10c data=0x80 op=0x8 R:6 W:0
# [485] [PASS] LOAD lane=2 addr=0x10c data=0xffffff80 exp=0xffffff80 op=0x0 R:7 W:0
# [575] [PASS] LOAD lane=2 addr=0x10c data=0x80 exp=0x80 op=0x4 R:8 W:0
# [585] [PASS] STORE lane=3 addr=0x3f8 data=0xa5a5a5a5 op=0xa R:9 W:0
# [655] [PASS] LOAD lane=3 addr=0x3f8 data=0xa5a5a5a5 exp=0xa5a5a5a5 op=0x2 R:10 W:0
# [665] [PASS] STORE lane=0 addr=0x3fc data=0xf00f op=0x9 R:11 W:0
# [755] [PASS] LOAD lane=0 addr=0x3fc data=0xfffff00f exp=0xfffff00f op=0x1 R:12 W:0
# [765] [PASS] STORE lane=1 addr=0x3ff data=0xff op=0x8 R:13 W:0
# [865] [PASS] LOAD lane=1 addr=0x3ff data=0xff exp=0xff op=0x4 R:14 W:0
# [875] [PASS] STORE lane=0 addr=0x500 data=0x11110000 op=0xa R:15 W:0
# [975] [PASS] LOAD lane=0 addr=0x500 data=0x11110000 exp=0x11110000 op=0x2 R:16 W:0
# [985] [PASS] STORE lane=0 addr=0x502 data=0x8080 op=0x9 R:17 W:0
# [1135] [PASS] LOAD lane=0 addr=0x502 data=0xffff8080 exp=0xffff8080 op=0x1 R:18 W:0
# [1265] [PASS] LOAD lane=0 addr=0x502 data=0x8080 exp=0x8080 op=0x5 R:19 W:0
# [1275] [PASS] STORE lane=0 addr=0x501 data=0x80 op=0x8 R:20 W:0
# [1425] [PASS] LOAD lane=0 addr=0x501 data=0xffffff80 exp=0xffffff80 op=0x0 R:21 W:0
# [1535] [PASS] LOAD lane=0 addr=0x501 data=0x80 exp=0x80 op=0x4 R:22 W:0
# [1545] [PASS] STORE lane=1 addr=0x510 data=0x10100101 op=0xa R:23 W:0
# [1655] [PASS] LOAD lane=1 addr=0x510 data=0x10100101 exp=0x10100101 op=0x2 R:24 W:0
# [1665] [PASS] STORE lane=1 addr=0x512 data=0x8081 op=0x9 R:25 W:0
# [1765] [PASS] LOAD lane=1 addr=0x512 data=0xffff8081 exp=0xffff8081 op=0x1 R:26 W:0
# [1865] [PASS] LOAD lane=1 addr=0x512 data=0x8081 exp=0x8081 op=0x5 R:27 W:0
# [1875] [PASS] STORE lane=1 addr=0x511 data=0x81 op=0x8 R:28 W:0
# [1965] [PASS] LOAD lane=1 addr=0x511 data=0xffffff81 exp=0xffffff81 op=0x0 R:29 W:0
# [2115] [PASS] LOAD lane=1 addr=0x511 data=0x81 exp=0x81 op=0x4 R:30 W:0
# [2125] [PASS] STORE lane=2 addr=0x520 data=0x13130202 op=0xa R:31 W:0
# [2265] [PASS] LOAD lane=2 addr=0x520 data=0x13130202 exp=0x13130202 op=0x2 R:32 W:0
# [2275] [PASS] STORE lane=2 addr=0x522 data=0x8082 op=0x9 R:33 W:0
# [2345] [PASS] LOAD lane=2 addr=0x522 data=0xffff8082 exp=0xffff8082 op=0x1 R:34 W:0
# [2415] [PASS] LOAD lane=2 addr=0x522 data=0x8082 exp=0x8082 op=0x5 R:35 W:0
# [2425] [PASS] STORE lane=2 addr=0x521 data=0x82 op=0x8 R:36 W:0
# [2525] [PASS] LOAD lane=2 addr=0x521 data=0xffffff82 exp=0xffffff82 op=0x0 R:37 W:0
# [2605] [PASS] LOAD lane=2 addr=0x521 data=0x82 exp=0x82 op=0x4 R:38 W:0
# [2615] [PASS] STORE lane=3 addr=0x530 data=0x12120303 op=0xa R:39 W:0
# [2735] [PASS] LOAD lane=3 addr=0x530 data=0x12120303 exp=0x12120303 op=0x2 R:40 W:0
# [2745] [PASS] STORE lane=3 addr=0x532 data=0x8083 op=0x9 R:41 W:0
# [2865] [PASS] LOAD lane=3 addr=0x532 data=0xffff8083 exp=0xffff8083 op=0x1 R:42 W:0
# [2985] [PASS] LOAD lane=3 addr=0x532 data=0x8083 exp=0x8083 op=0x5 R:43 W:0
# [2995] [PASS] STORE lane=3 addr=0x531 data=0x83 op=0x8 R:44 W:0
# [3135] [PASS] LOAD lane=3 addr=0x531 data=0xffffff83 exp=0xffffff83 op=0x0 R:45 W:0
# [3275] [PASS] LOAD lane=3 addr=0x531 data=0x83 exp=0x83 op=0x4 R:46 W:0
# [3285] [PASS] STORE lane=0 addr=0x700 data=0xa5000000 op=0xa R:47 W:0
# [3385] [PASS] LOAD lane=0 addr=0x700 data=0xa5000000 exp=0xa5000000 op=0x2 R:48 W:0
# [3395] [PASS] STORE lane=0 addr=0x700 data=0x5a000000 op=0xa R:49 W:0
# [3525] [PASS] LOAD lane=0 addr=0x700 data=0x5a000000 exp=0x5a000000 op=0x2 R:50 W:0
# [3535] [PASS] STORE lane=1 addr=0x708 data=0xa5000001 op=0xa R:51 W:0
# [3765] [PASS] LOAD lane=1 addr=0x708 data=0xa5000001 exp=0xa5000001 op=0x2 R:52 W:0
# [3775] [PASS] STORE lane=1 addr=0x708 data=0x5a000001 op=0xa R:53 W:0
# [3915] [PASS] LOAD lane=1 addr=0x708 data=0x5a000001 exp=0x5a000001 op=0x2 R:54 W:0
# [3925] [PASS] STORE lane=2 addr=0x710 data=0xa5000002 op=0xa R:55 W:0
# [4095] [PASS] LOAD lane=2 addr=0x710 data=0xa5000002 exp=0xa5000002 op=0x2 R:56 W:0
# [4105] [PASS] STORE lane=2 addr=0x710 data=0x5a000002 op=0xa R:57 W:0
# [4305] [PASS] LOAD lane=2 addr=0x710 data=0x5a000002 exp=0x5a000002 op=0x2 R:58 W:0
# [4315] [PASS] STORE lane=3 addr=0x718 data=0xa5000003 op=0xa R:59 W:0
# [4485] [PASS] LOAD lane=3 addr=0x718 data=0xa5000003 exp=0xa5000003 op=0x2 R:60 W:0
# [4495] [PASS] STORE lane=3 addr=0x718 data=0x5a000003 op=0xa R:61 W:0
# [4645] [PASS] LOAD lane=3 addr=0x718 data=0x5a000003 exp=0x5a000003 op=0x2 R:62 W:0
# [4715] [PASS] STORE lane=3 addr=0xa9c data=0x70066afd op=0xa R:63 W:0
# [4805] [PASS] STORE lane=1 addr=0x46 data=0xf97d2fc0 op=0x9 R:64 W:0
# [4815] [PASS] STORE lane=0 addr=0x33e data=0xbe8fa239 op=0x8 R:65 W:0
# [4935] [PASS] LOAD lane=1 addr=0x196 data=0x0 exp=0x0 op=0x1 R:66 W:0
# [4945] [PASS] STORE lane=0 addr=0x5c data=0x2e16c335 op=0x9 R:67 W:0
# [5075] [PASS] LOAD lane=1 addr=0x1b8 data=0x0 exp=0x0 op=0x0 R:68 W:0
# [5185] [PASS] LOAD lane=2 addr=0x1a9 data=0x0 exp=0x0 op=0x0 R:69 W:0
# [5325] [PASS] STORE lane=2 addr=0xb8 data=0xda7c962e op=0x9 R:70 W:0
# [5415] [PASS] LOAD lane=3 addr=0x7e0 data=0x0 exp=0x0 op=0x1 R:71 W:0
# [5565] [PASS] LOAD lane=2 addr=0x390 data=0x0 exp=0x0 op=0x0 R:72 W:0
# [5665] [PASS] LOAD lane=3 addr=0x1ce data=0x0 exp=0x0 op=0x1 R:73 W:0
# [5755] [PASS] LOAD lane=2 addr=0x23f data=0x0 exp=0x0 op=0x4 R:74 W:0
# [5895] [PASS] LOAD lane=2 addr=0xc00 data=0x0 exp=0x0 op=0x2 R:75 W:0
# [6025] [PASS] LOAD lane=3 addr=0x55c data=0x0 exp=0x0 op=0x5 R:76 W:0
# [6095] [PASS] LOAD lane=0 addr=0x379 data=0x0 exp=0x0 op=0x0 R:77 W:0
# [6245] [PASS] LOAD lane=0 addr=0x2c2 data=0x0 exp=0x0 op=0x0 R:78 W:0
# [6255] [PASS] STORE lane=2 addr=0xb6c data=0xfda108ef op=0xa R:79 W:0
# [6265] [PASS] STORE lane=3 addr=0x3a8 data=0x4f375e5f op=0x8 R:80 W:0
# [6275] [PASS] STORE lane=1 addr=0x844 data=0x42a8ff32 op=0xa R:81 W:0
# [6425] [PASS] LOAD lane=3 addr=0x2c8 data=0x0 exp=0x0 op=0x4 R:82 W:0
# [6435] [PASS] STORE lane=1 addr=0xea0 data=0x19579b56 op=0xa R:83 W:0
# [6545] [PASS] STORE lane=2 addr=0x298 data=0x41faa4f7 op=0xa R:84 W:0
# [6555] [PASS] STORE lane=2 addr=0x19a data=0xf8f30c59 op=0x9 R:85 W:0
# [6645] [PASS] LOAD lane=3 addr=0x2f4 data=0x0 exp=0x0 op=0x1 R:86 W:0
# [6725] [PASS] LOAD lane=0 addr=0x57c data=0x0 exp=0x0 op=0x5 R:87 W:0
# [6875] [PASS] LOAD lane=0 addr=0xf7 data=0x0 exp=0x0 op=0x0 R:88 W:0
# [6885] [PASS] STORE lane=3 addr=0x170 data=0xf8ce5faf op=0x9 R:89 W:0
# [6895] [PASS] STORE lane=1 addr=0xe5c data=0x5bc95461 op=0xa R:90 W:0
# [7015] [PASS] LOAD lane=2 addr=0xcf4 data=0x0 exp=0x0 op=0x2 R:91 W:0
# [7135] [PASS] STORE lane=0 addr=0x3e0 data=0x987ee034 op=0x9 R:92 W:0
# [7265] [PASS] LOAD lane=3 addr=0x78a data=0x0 exp=0x0 op=0x5 R:93 W:0
# [7345] [PASS] LOAD lane=0 addr=0xb54 data=0x0 exp=0x0 op=0x2 R:94 W:0
# [7425] [PASS] LOAD lane=3 addr=0x1c0 data=0x0 exp=0x0 op=0x5 R:95 W:0
# [7515] [PASS] LOAD lane=3 addr=0x1d1 data=0x0 exp=0x0 op=0x0 R:96 W:0
# [7645] [PASS] LOAD lane=3 addr=0x1f5 data=0x0 exp=0x0 op=0x0 R:97 W:0
# [7705] [PASS] LOAD lane=1 addr=0x7d8 data=0x0 exp=0x0 op=0x1 R:98 W:0
# [7815] [PASS] LOAD lane=1 addr=0x732 data=0x0 exp=0x0 op=0x1 R:99 W:0
# [7825] [PASS] STORE lane=1 addr=0x6f8 data=0x39e2d587 op=0xa R:100 W:0
# [7915] [PASS] LOAD lane=0 addr=0x6fa data=0x39e2 exp=0x39e2 op=0x1 R:101 W:0
# [7985] [PASS] LOAD lane=3 addr=0x124 data=0x0 exp=0x0 op=0x4 R:102 W:0
# [8105] [PASS] LOAD lane=3 addr=0x1f0 data=0x0 exp=0x0 op=0x2 R:103 W:0
# [8205] [PASS] LOAD lane=2 addr=0x1d0 data=0x0 exp=0x0 op=0x4 R:104 W:0
# [8355] [PASS] LOAD lane=2 addr=0x132 data=0x0 exp=0x0 op=0x5 R:105 W:0
# [8365] [PASS] STORE lane=1 addr=0x26a data=0x757e270a op=0x8 R:106 W:0
# [8495] [PASS] LOAD lane=3 addr=0x166 data=0x0 exp=0x0 op=0x0 R:107 W:0
# [8595] [PASS] LOAD lane=3 addr=0x12b data=0x0 exp=0x0 op=0x0 R:108 W:0
# [8605] [PASS] STORE lane=3 addr=0x8f0 data=0x8992b8f2 op=0xa R:109 W:0
# [8675] [PASS] LOAD lane=0 addr=0x506 data=0x0 exp=0x0 op=0x5 R:110 W:0
# [8785] [PASS] LOAD lane=1 addr=0xb08 data=0x0 exp=0x0 op=0x2 R:111 W:0
# [8975] [PASS] LOAD lane=1 addr=0x16b data=0x0 exp=0x0 op=0x0 R:112 W:0
# [9175] [PASS] LOAD lane=3 addr=0x3c data=0x0 exp=0x0 op=0x5 R:113 W:0
# [9285] [PASS] LOAD lane=2 addr=0x530 data=0x8303 exp=0x8303 op=0x5 R:114 W:0
# [9405] [PASS] LOAD lane=0 addr=0x3d3 data=0x0 exp=0x0 op=0x0 R:115 W:0
# [9475] [PASS] LOAD lane=1 addr=0x43c data=0x0 exp=0x0 op=0x2 R:116 W:0
# [9605] [PASS] LOAD lane=0 addr=0x3e8 data=0x0 exp=0x0 op=0x2 R:117 W:0
# [9685] [PASS] LOAD lane=3 addr=0x144 data=0x0 exp=0x0 op=0x5 R:118 W:0
# [9825] [PASS] LOAD lane=3 addr=0x41c data=0x0 exp=0x0 op=0x2 R:119 W:0
# [9885] [PASS] LOAD lane=0 addr=0x3b3 data=0x0 exp=0x0 op=0x0 R:120 W:0
# [9895] [PASS] STORE lane=2 addr=0x24 data=0x87ec38d op=0x8 R:121 W:0
# [10005] [PASS] LOAD lane=2 addr=0x66e data=0x0 exp=0x0 op=0x5 R:122 W:0
# [10015] [PASS] STORE lane=3 addr=0x57c data=0xf0012cb4 op=0x9 R:123 W:0
# [10025] [PASS] STORE lane=2 addr=0x1c1 data=0xab7d2b92 op=0x8 R:124 W:0
# [10155] [PASS] LOAD lane=3 addr=0x298 data=0xa4f7 exp=0xa4f7 op=0x5 R:125 W:0
# [10245] [PASS] LOAD lane=3 addr=0x608 data=0x0 exp=0x0 op=0x5 R:126 W:0
# [10315] [PASS] LOAD lane=0 addr=0x4b0 data=0x0 exp=0x0 op=0x5 R:127 W:0
# [10325] [PASS] STORE lane=3 addr=0x974 data=0x167e3ca6 op=0xa R:128 W:0
# [10335] [PASS] STORE lane=0 addr=0x25a data=0x3713cb82 op=0x8 R:129 W:0
# [10355] [PASS] STORE lane=3 addr=0xdac data=0x208e5506 op=0xa R:130 W:0
# [10375] [PASS] STORE lane=0 addr=0x474 data=0xbb39f76 op=0x9 R:131 W:0
# [10485] [PASS] LOAD lane=0 addr=0x30a data=0x0 exp=0x0 op=0x0 R:132 W:0
# [10495] [PASS] STORE lane=3 addr=0x30d data=0x9dda533a op=0x8 R:133 W:0
# [10505] [PASS] STORE lane=2 addr=0x3ce data=0x56c71f8f op=0x9 R:134 W:0
# [10595] [PASS] LOAD lane=2 addr=0xcc data=0x0 exp=0x0 op=0x4 R:135 W:0
# [10605] [PASS] STORE lane=0 addr=0x263 data=0x34a1723e op=0x8 R:136 W:0
# [10715] [PASS] LOAD lane=0 addr=0xadc data=0x0 exp=0x0 op=0x2 R:137 W:0
# [10795] [PASS] LOAD lane=2 addr=0x32a data=0x0 exp=0x0 op=0x1 R:138 W:0
# [10805] [PASS] STORE lane=3 addr=0x25 data=0x104fdf6 op=0x8 R:139 W:0
# [11035] [PASS] LOAD lane=3 addr=0x21b data=0x0 exp=0x0 op=0x4 R:140 W:0
# [11185] [PASS] LOAD lane=1 addr=0x14a data=0x0 exp=0x0 op=0x0 R:141 W:0
# [11285] [PASS] LOAD lane=3 addr=0x101 data=0xbe exp=0xbe op=0x4 R:142 W:0
# [11295] [PASS] STORE lane=2 addr=0xf7 data=0x2a02c830 op=0x8 R:143 W:0
# [11435] [PASS] LOAD lane=1 addr=0x1ba data=0x0 exp=0x0 op=0x4 R:144 W:0
# [11445] [PASS] STORE lane=1 addr=0x32e data=0xa444c57c op=0x8 R:145 W:0
# [11605] [PASS] LOAD lane=2 addr=0x9c4 data=0x0 exp=0x0 op=0x2 R:146 W:0
# [11615] [PASS] STORE lane=3 addr=0x28a data=0xd86d6047 op=0x8 R:147 W:0
# [11695] [PASS] LOAD lane=0 addr=0x6ec data=0x0 exp=0x0 op=0x2 R:148 W:0
# [11705] [PASS] STORE lane=0 addr=0x7ac data=0xc1e2287b op=0xa R:149 W:0
# [11775] [PASS] LOAD lane=1 addr=0xed0 data=0x0 exp=0x0 op=0x2 R:150 W:0
# [11835] [PASS] STORE lane=1 addr=0x125 data=0xa8423489 op=0x8 R:151 W:0
# [11845] [PASS] STORE lane=2 addr=0x30a data=0xcdffd243 op=0x8 R:152 W:0
# [11945] [PASS] LOAD lane=1 addr=0x103 data=0xffffffde exp=0xffffffde op=0x0 R:153 W:0
# [12055] [PASS] LOAD lane=3 addr=0x112 data=0x0 exp=0x0 op=0x5 R:154 W:0
# [12065] [PASS] STORE lane=1 addr=0xf88 data=0xbe5c039c op=0xa R:155 W:0
# [12075] [PASS] STORE lane=2 addr=0x33c data=0xfc65c7ec op=0x8 R:156 W:0
# [12215] [PASS] LOAD lane=1 addr=0x26c data=0x0 exp=0x0 op=0x4 R:157 W:0
# [12345] [PASS] LOAD lane=3 addr=0xf64 data=0x0 exp=0x0 op=0x2 R:158 W:0
# [12455] [PASS] LOAD lane=1 addr=0xc0 data=0x0 exp=0x0 op=0x1 R:159 W:0
# [12465] [PASS] STORE lane=1 addr=0x307 data=0xd0436e1 op=0x8 R:160 W:0
# [12475] [PASS] STORE lane=1 addr=0x392 data=0x7676385f op=0x8 R:161 W:0
# [12575] [PASS] LOAD lane=2 addr=0x2c6 data=0x0 exp=0x0 op=0x5 R:162 W:0
# [12585] [PASS] STORE lane=3 addr=0x3c1 data=0xf6862be5 op=0x8 R:163 W:0
# [12675] [PASS] STORE lane=1 addr=0x159 data=0xdeacffc7 op=0x8 R:164 W:0
# [12765] [PASS] LOAD lane=3 addr=0x396 data=0x0 exp=0x0 op=0x5 R:165 W:0
# [12775] [PASS] STORE lane=2 addr=0xba8 data=0xba5db042 op=0xa R:166 W:0
# [12785] [PASS] STORE lane=1 addr=0x396 data=0xdeaa148e op=0x8 R:167 W:0
# [12795] [PASS] STORE lane=1 addr=0x10e data=0x592367c5 op=0x8 R:168 W:0
# [12955] [PASS] LOAD lane=0 addr=0x1a2 data=0x0 exp=0x0 op=0x5 R:169 W:0
# [13015] [PASS] LOAD lane=0 addr=0x13e data=0x0 exp=0x0 op=0x1 R:170 W:0
# [13025] [PASS] STORE lane=1 addr=0x3bb data=0xb37dbbac op=0x8 R:171 W:0
# [13145] [PASS] LOAD lane=0 addr=0x18c data=0x0 exp=0x0 op=0x0 R:172 W:0
# [13235] [PASS] LOAD lane=3 addr=0x2ea data=0x0 exp=0x0 op=0x1 R:173 W:0
# [13335] [PASS] LOAD lane=3 addr=0x3e1 data=0xffffffe0 exp=0xffffffe0 op=0x0 R:174 W:0
# [13345] [PASS] STORE lane=3 addr=0xa50 data=0x8360d4ab op=0xa R:175 W:0
# [13355] [PASS] STORE lane=2 addr=0xe38 data=0x4ec99438 op=0xa R:176 W:0
# [13365] [PASS] STORE lane=2 addr=0x50c data=0xfb93a8ec op=0x9 R:177 W:0
# [13375] [PASS] STORE lane=1 addr=0xf64 data=0xc96474f op=0xa R:178 W:0
# [13505] [PASS] LOAD lane=0 addr=0x600 data=0x0 exp=0x0 op=0x2 R:179 W:0
# [13515] [PASS] STORE lane=2 addr=0x7dc data=0xcaa918d2 op=0x9 R:180 W:0
# [13525] [PASS] STORE lane=0 addr=0xf58 data=0xb88e69e2 op=0xa R:181 W:0
# [13665] [PASS] LOAD lane=1 addr=0x792 data=0x0 exp=0x0 op=0x1 R:182 W:0
# [13675] [PASS] STORE lane=0 addr=0x6f data=0x6cab2f2f op=0x8 R:183 W:0
# [13835] [PASS] LOAD lane=2 addr=0x149 data=0x0 exp=0x0 op=0x0 R:184 W:0
# [13915] [PASS] LOAD lane=0 addr=0x49 data=0x0 exp=0x0 op=0x4 R:185 W:0
# [13985] [PASS] LOAD lane=0 addr=0x16 data=0x0 exp=0x0 op=0x1 R:186 W:0
# [14095] [PASS] LOAD lane=1 addr=0x54e data=0x0 exp=0x0 op=0x5 R:187 W:0
# [14245] [PASS] LOAD lane=3 addr=0xb04 data=0x0 exp=0x0 op=0x2 R:188 W:0
# [14315] [PASS] LOAD lane=1 addr=0x762 data=0x0 exp=0x0 op=0x5 R:189 W:0
# [14585] [PASS] LOAD lane=0 addr=0x1bd data=0x0 exp=0x0 op=0x0 R:190 W:0
# [14595] [PASS] STORE lane=0 addr=0x72a data=0x6460bb43 op=0x9 R:191 W:0
# [14605] [PASS] STORE lane=2 addr=0x278 data=0xce6baf16 op=0x9 R:192 W:0
# [14615] [PASS] STORE lane=2 addr=0x237 data=0x8c11cda7 op=0x8 R:193 W:0
# [14715] [PASS] LOAD lane=3 addr=0x272 data=0x0 exp=0x0 op=0x1 R:194 W:0
# [14835] [PASS] LOAD lane=0 addr=0x28a data=0x47 exp=0x47 op=0x0 R:195 W:0
# [14955] [PASS] LOAD lane=2 addr=0xab0 data=0x0 exp=0x0 op=0x2 R:196 W:0
# [14965] [PASS] STORE lane=0 addr=0x37c data=0xe505acb9 op=0x8 R:197 W:0
# [14975] [PASS] STORE lane=0 addr=0x7ee data=0xbab678ee op=0x9 R:198 W:0
# [15145] [PASS] LOAD lane=3 addr=0x59a data=0x0 exp=0x0 op=0x5 R:199 W:0
# [15155] [PASS] STORE lane=1 addr=0x8 data=0x643bb9ff op=0x9 R:200 W:0
# [15315] [PASS] LOAD lane=2 addr=0x436 data=0x0 exp=0x0 op=0x1 R:201 W:0
# [15445] [PASS] LOAD lane=0 addr=0xd6 data=0x0 exp=0x0 op=0x4 R:202 W:0
# [15505] [PASS] LOAD lane=3 addr=0x758 data=0x0 exp=0x0 op=0x2 R:203 W:0
# [15595] [PASS] LOAD lane=1 addr=0x23c data=0x0 exp=0x0 op=0x0 R:204 W:0
# [15715] [PASS] LOAD lane=3 addr=0x48 data=0x0 exp=0x0 op=0x1 R:205 W:0
# [15725] [PASS] STORE lane=3 addr=0x1a8 data=0x50bda6f5 op=0xa R:206 W:0
# [15735] [PASS] STORE lane=2 addr=0x35c data=0xea711722 op=0xa R:207 W:0
# [15855] [PASS] LOAD lane=1 addr=0x394 data=0x8e0000 exp=0x8e0000 op=0x2 R:208 W:0
# [16055] [PASS] LOAD lane=2 addr=0x266 data=0x0 exp=0x0 op=0x0 R:209 W:0
# [16165] [PASS] LOAD lane=1 addr=0x402 data=0x0 exp=0x0 op=0x5 R:210 W:0
# [16225] [PASS] LOAD lane=3 addr=0x328 data=0x0 exp=0x0 op=0x0 R:211 W:0
# [16235] [PASS] STORE lane=1 addr=0x274 data=0x8b8f7936 op=0x9 R:212 W:0
# [16465] [PASS] LOAD lane=0 addr=0x30c data=0x3a00 exp=0x3a00 op=0x5 R:213 W:0
# [16475] [PASS] STORE lane=0 addr=0x2d2 data=0x4aca137f op=0x8 R:214 W:0
# [16615] [PASS] LOAD lane=2 addr=0x1e5 data=0x0 exp=0x0 op=0x0 R:215 W:0
# [16625] [PASS] STORE lane=1 addr=0xf8 data=0x6c22bc07 op=0x8 R:216 W:0
# [16635] [PASS] STORE lane=0 addr=0x756 data=0x7cc1f6e0 op=0x9 R:217 W:0
# [16825] [PASS] LOAD lane=1 addr=0x38e data=0x0 exp=0x0 op=0x5 R:218 W:0
# [16935] [PASS] LOAD lane=2 addr=0xc28 data=0x0 exp=0x0 op=0x2 R:219 W:0
# [17055] [PASS] LOAD lane=3 addr=0x376 data=0x0 exp=0x0 op=0x1 R:220 W:0
# [17175] [PASS] LOAD lane=2 addr=0xdec data=0x0 exp=0x0 op=0x2 R:221 W:0
# [17185] [PASS] STORE lane=3 addr=0x3ee data=0x26053d5f op=0x8 R:222 W:0
# [17315] [PASS] LOAD lane=1 addr=0x26d data=0x0 exp=0x0 op=0x4 R:223 W:0
# [17325] [PASS] STORE lane=1 addr=0x3ea data=0x5e5519ce op=0x9 R:224 W:0
# [17335] [PASS] STORE lane=0 addr=0x3d8 data=0xd2ecfd8f op=0xa R:225 W:0
# [17355] [PASS] STORE lane=3 addr=0xf4c data=0xdcba5c9f op=0xa R:226 W:0
# [17365] [PASS] STORE lane=0 addr=0x200 data=0x1ed79a0f op=0xa R:227 W:0
# [17375] [PASS] STORE lane=2 addr=0x9e8 data=0xcd9285fd op=0xa R:228 W:0
# [17515] [PASS] LOAD lane=2 addr=0x414 data=0x0 exp=0x0 op=0x1 R:229 W:0
# [17525] [PASS] STORE lane=1 addr=0x2e3 data=0xb59d05c op=0x8 R:230 W:0
# [17685] [PASS] LOAD lane=2 addr=0x17b data=0x0 exp=0x0 op=0x4 R:231 W:0
# [17785] [PASS] LOAD lane=1 addr=0x372 data=0x0 exp=0x0 op=0x1 R:232 W:0
# [17795] [PASS] STORE lane=2 addr=0xbfc data=0x35b11627 op=0xa R:233 W:0
# [17925] [PASS] LOAD lane=1 addr=0x2f0 data=0x0 exp=0x0 op=0x2 R:234 W:0
# [18035] [PASS] LOAD lane=3 addr=0xc1c data=0x0 exp=0x0 op=0x2 R:235 W:0
# [18095] [PASS] LOAD lane=1 addr=0x357 data=0x0 exp=0x0 op=0x0 R:236 W:0
# [18105] [PASS] STORE lane=2 addr=0x3a8 data=0xa7721cd9 op=0x8 R:237 W:0
# [18235] [PASS] LOAD lane=1 addr=0x2f6 data=0x0 exp=0x0 op=0x5 R:238 W:0
# [18245] [PASS] STORE lane=3 addr=0x2a8 data=0xc661933d op=0x8 R:239 W:0
# [18255] [PASS] STORE lane=3 addr=0x1da data=0x69126e01 op=0x9 R:240 W:0
# [18265] [PASS] STORE lane=0 addr=0x3cc data=0x27755b1a op=0x9 R:241 W:0
# [18365] [PASS] LOAD lane=1 addr=0x3a3 data=0x0 exp=0x0 op=0x4 R:242 W:0
# [18375] [PASS] STORE lane=2 addr=0x434 data=0x49e9bd51 op=0x9 R:243 W:0
# [18435] [PASS] LOAD lane=3 addr=0x2c2 data=0x0 exp=0x0 op=0x5 R:244 W:0
# [18535] [PASS] LOAD lane=3 addr=0x492 data=0x0 exp=0x0 op=0x5 R:245 W:0
# [18545] [PASS] STORE lane=0 addr=0x4fa data=0x1ccecd5d op=0x9 R:246 W:0
# [18635] [PASS] LOAD lane=2 addr=0x306 data=0x0 exp=0x0 op=0x4 R:247 W:0
# [18735] [PASS] LOAD lane=3 addr=0x283 data=0x0 exp=0x0 op=0x4 R:248 W:0
# [18835] [PASS] LOAD lane=0 addr=0x1c6 data=0x0 exp=0x0 op=0x4 R:249 W:0
# [18845] [PASS] STORE lane=3 addr=0x6d6 data=0xf44fd5eb op=0x9 R:250 W:0
# [18945] [PASS] LOAD lane=0 addr=0x5da data=0x0 exp=0x0 op=0x5 R:251 W:0
# [18955] [PASS] STORE lane=0 addr=0x84c data=0x4209e50 op=0xa R:252 W:0
# [18965] [PASS] STORE lane=0 addr=0x5b0 data=0xf51c5929 op=0xa R:253 W:0
# [18995] [PASS] STORE lane=1 addr=0xa3c data=0xb7484199 op=0xa R:254 W:0
# [19005] [PASS] STORE lane=1 addr=0xba8 data=0xe9c3d646 op=0xa R:255 W:0
# [19015] [PASS] STORE lane=1 addr=0x66 data=0x5afbe485 op=0x8 R:256 W:0
# [19035] [PASS] STORE lane=3 addr=0x4dc data=0x715c8e07 op=0xa R:257 W:0
# [19055] [PASS] STORE lane=0 addr=0x788 data=0x5c074aed op=0x9 R:258 W:0
# [19215] [PASS] LOAD lane=1 addr=0xa1 data=0x0 exp=0x0 op=0x4 R:259 W:0
# [19225] [PASS] STORE lane=0 addr=0x4c6 data=0x3d0e015e op=0x9 R:260 W:0
# [19235] [PASS] STORE lane=0 addr=0x168 data=0x4c6f7405 op=0x8 R:261 W:0
# [19245] [PASS] STORE lane=2 addr=0x77a data=0x3ce132be op=0x9 R:262 W:0
# [19405] [PASS] LOAD lane=3 addr=0x1c0 data=0xffff9200 exp=0xffff9200 op=0x1 R:263 W:0
# [19415] [PASS] STORE lane=1 addr=0x2ed data=0xd1cb3ee9 op=0x8 R:264 W:0
# [19535] [PASS] LOAD lane=1 addr=0x346 data=0x0 exp=0x0 op=0x5 R:265 W:0
# [19545] [PASS] STORE lane=0 addr=0x3b0 data=0x40cce671 op=0x9 R:266 W:0
# [19655] [PASS] LOAD lane=1 addr=0x2c2 data=0x0 exp=0x0 op=0x5 R:267 W:0
# [19805] [PASS] LOAD lane=1 addr=0x15e data=0x0 exp=0x0 op=0x1 R:268 W:0
# [19815] [PASS] STORE lane=0 addr=0x55e data=0x2648bca7 op=0x9 R:269 W:0
# [19825] [PASS] STORE lane=0 addr=0x15d data=0x9a464165 op=0x8 R:270 W:0
# [19915] [PASS] LOAD lane=1 addr=0x78 data=0x0 exp=0x0 op=0x5 R:271 W:0
# [20015] [PASS] LOAD lane=3 addr=0x676 data=0x0 exp=0x0 op=0x1 R:272 W:0
# [20025] [PASS] STORE lane=2 addr=0x235 data=0xf43539c4 op=0x8 R:273 W:0
# [20035] [PASS] STORE lane=3 addr=0x27a data=0xb334c1d1 op=0x9 R:274 W:0
