out_regression_20seed/seed_14.log
Reading pref.tcl

# 2021.1

# vsim -c work_regression.lsu_slice_tb_v2 -sv_seed 14 "+SEED=14" "+NUM_OPS=500" -do "run -all; quit -f" 
# Start time: 04:15:15 on Jun 22,2026
# ** Note: (vsim-8009) Loading existing optimized design _opt
# //  Questa Sim-64
# //  Version 2021.1 win64 Jan 19 2021
# //
# //  Copyright 1991-2021 Mentor Graphics Corporation
# //  All Rights Reserved.
# //
# //  QuestaSim and its associated documentation contain trade
# //  secrets and commercial or financial information that are the property of
# //  Mentor Graphics Corporation and are privileged, confidential,
# //  and exempt from disclosure under the Freedom of Information Act,
# //  5 U.S.C. Section 552. Furthermore, this information
# //  is prohibited from disclosure under the Trade Secrets Act,
# //  18 U.S.C. Section 1905.
# //
# Loading sv_std.std
# Loading work.VX_gpu_pkg(fast)
# Loading work.lsu_sequence_item_pkg(fast)
# Loading work.lsu_scoreboard_pkg(fast)
# Loading work.lsu_monitor_pkg(fast)
# Loading work.vx_lsu_slice_tb_v2_sv_unit(fast)
# Loading work.lsu_slice_tb_v2(fast)
# Loading work.VX_lsu_slice(fast)
# Loading work.VX_elastic_buffer(fast__3)
# Loading work.VX_elastic_buffer(fast__4)
# Loading work.VX_stream_arb(fast)
# Loading work.lsu_mem_model_rand_sv_unit(fast)
# Loading work.lsu_mem_model_rand(fast)
# run -all
# [75] [PASS] STORE lane=0 addr=0x100 data=0xdeadbeef op=0xa R:1 W:0
# [195] [PASS] LOAD lane=0 addr=0x100 data=0xdeadbeef exp=0xdeadbeef op=0x2 R:2 W:0
# [205] [PASS] STORE lane=1 addr=0x108 data=0x8001 op=0x9 R:3 W:0
# [325] [PASS] LOAD lane=1 addr=0x108 data=0xffff8001 exp=0xffff8001 op=0x1 R:4 W:0
# [395] [PASS] LOAD lane=1 addr=0x108 data=0x8001 exp=0x8001 op=0x5 R:5 W:0
# [405] [PASS] STORE lane=2 addr=0x10c data=0x80 op=0x8 R:6 W:0
# [545] [PASS] LOAD lane=2 addr=0x10c data=0xffffff80 exp=0xffffff80 op=0x0 R:7 W:0
# [635] [PASS] LOAD lane=2 addr=0x10c data=0x80 exp=0x80 op=0x4 R:8 W:0
# [645] [PASS] STORE lane=3 addr=0x3f8 data=0xa5a5a5a5 op=0xa R:9 W:0
# [705] [PASS] LOAD lane=3 addr=0x3f8 data=0xa5a5a5a5 exp=0xa5a5a5a5 op=0x2 R:10 W:0
# [715] [PASS] STORE lane=0 addr=0x3fc data=0xf00f op=0x9 R:11 W:0
# [775] [PASS] LOAD lane=0 addr=0x3fc data=0xfffff00f exp=0xfffff00f op=0x1 R:12 W:0
# [785] [PASS] STORE lane=1 addr=0x3ff data=0xff op=0x8 R:13 W:0
# [915] [PASS] LOAD lane=1 addr=0x3ff data=0xff exp=0xff op=0x4 R:14 W:0
# [925] [PASS] STORE lane=0 addr=0x500 data=0x11110000 op=0xa R:15 W:0
# [1085] [PASS] LOAD lane=0 addr=0x500 data=0x11110000 exp=0x11110000 op=0x2 R:16 W:0
# [1095] [PASS] STORE lane=0 addr=0x502 data=0x8080 op=0x9 R:17 W:0
# [1225] [PASS] LOAD lane=0 addr=0x502 data=0xffff8080 exp=0xffff8080 op=0x1 R:18 W:0
# [1375] [PASS] LOAD lane=0 addr=0x502 data=0x8080 exp=0x8080 op=0x5 R:19 W:0
# [1385] [PASS] STORE lane=0 addr=0x501 data=0x80 op=0x8 R:20 W:0
# [1445] [PASS] LOAD lane=0 addr=0x501 data=0xffffff80 exp=0xffffff80 op=0x0 R:21 W:0
# [1505] [PASS] LOAD lane=0 addr=0x501 data=0x80 exp=0x80 op=0x4 R:22 W:0
# [1515] [PASS] STORE lane=1 addr=0x510 data=0x10100101 op=0xa R:23 W:0
# [1645] [PASS] LOAD lane=1 addr=0x510 data=0x10100101 exp=0x10100101 op=0x2 R:24 W:0
# [1655] [PASS] STORE lane=1 addr=0x512 data=0x8081 op=0x9 R:25 W:0
# [1735] [PASS] LOAD lane=1 addr=0x512 data=0xffff8081 exp=0xffff8081 op=0x1 R:26 W:0
# [1845] [PASS] LOAD lane=1 addr=0x512 data=0x8081 exp=0x8081 op=0x5 R:27 W:0
# [1855] [PASS] STORE lane=1 addr=0x511 data=0x81 op=0x8 R:28 W:0
# [1945] [PASS] LOAD lane=1 addr=0x511 data=0xffffff81 exp=0xffffff81 op=0x0 R:29 W:0
# [2015] [PASS] LOAD lane=1 addr=0x511 data=0x81 exp=0x81 op=0x4 R:30 W:0
# [2025] [PASS] STORE lane=2 addr=0x520 data=0x13130202 op=0xa R:31 W:0
# [2095] [PASS] LOAD lane=2 addr=0x520 data=0x13130202 exp=0x13130202 op=0x2 R:32 W:0
# [2105] [PASS] STORE lane=2 addr=0x522 data=0x8082 op=0x9 R:33 W:0
# [2185] [PASS] LOAD lane=2 addr=0x522 data=0xffff8082 exp=0xffff8082 op=0x1 R:34 W:0
# [2325] [PASS] LOAD lane=2 addr=0x522 data=0x8082 exp=0x8082 op=0x5 R:35 W:0
# [2335] [PASS] STORE lane=2 addr=0x521 data=0x82 op=0x8 R:36 W:0
# [2405] [PASS] LOAD lane=2 addr=0x521 data=0xffffff82 exp=0xffffff82 op=0x0 R:37 W:0
# [2525] [PASS] LOAD lane=2 addr=0x521 data=0x82 exp=0x82 op=0x4 R:38 W:0
# [2535] [PASS] STORE lane=3 addr=0x530 data=0x12120303 op=0xa R:39 W:0
# [2685] [PASS] LOAD lane=3 addr=0x530 data=0x12120303 exp=0x12120303 op=0x2 R:40 W:0
# [2695] [PASS] STORE lane=3 addr=0x532 data=0x8083 op=0x9 R:41 W:0
# [2815] [PASS] LOAD lane=3 addr=0x532 data=0xffff8083 exp=0xffff8083 op=0x1 R:42 W:0
# [2915] [PASS] LOAD lane=3 addr=0x532 data=0x8083 exp=0x8083 op=0x5 R:43 W:0
# [2925] [PASS] STORE lane=3 addr=0x531 data=0x83 op=0x8 R:44 W:0
# [3085] [PASS] LOAD lane=3 addr=0x531 data=0xffffff83 exp=0xffffff83 op=0x0 R:45 W:0
# [3165] [PASS] LOAD lane=3 addr=0x531 data=0x83 exp=0x83 op=0x4 R:46 W:0
# [3175] [PASS] STORE lane=0 addr=0x700 data=0xa5000000 op=0xa R:47 W:0
# [3335] [PASS] LOAD lane=0 addr=0x700 data=0xa5000000 exp=0xa5000000 op=0x2 R:48 W:0
# [3345] [PASS] STORE lane=0 addr=0x700 data=0x5a000000 op=0xa R:49 W:0
# [3575] [PASS] LOAD lane=0 addr=0x700 data=0x5a000000 exp=0x5a000000 op=0x2 R:50 W:0
# [3585] [PASS] STORE lane=1 addr=0x708 data=0xa5000001 op=0xa R:51 W:0
# [3775] [PASS] LOAD lane=1 addr=0x708 data=0xa5000001 exp=0xa5000001 op=0x2 R:52 W:0
# [3785] [PASS] STORE lane=1 addr=0x708 data=0x5a000001 op=0xa R:53 W:0
# [3995] [PASS] LOAD lane=1 addr=0x708 data=0x5a000001 exp=0x5a000001 op=0x2 R:54 W:0
# [4005] [PASS] STORE lane=2 addr=0x710 data=0xa5000002 op=0xa R:55 W:0
# [4115] [PASS] LOAD lane=2 addr=0x710 data=0xa5000002 exp=0xa5000002 op=0x2 R:56 W:0
# [4125] [PASS] STORE lane=2 addr=0x710 data=0x5a000002 op=0xa R:57 W:0
# [4325] [PASS] LOAD lane=2 addr=0x710 data=0x5a000002 exp=0x5a000002 op=0x2 R:58 W:0
# [4335] [PASS] STORE lane=3 addr=0x718 data=0xa5000003 op=0xa R:59 W:0
# [4495] [PASS] LOAD lane=3 addr=0x718 data=0xa5000003 exp=0xa5000003 op=0x2 R:60 W:0
# [4505] [PASS] STORE lane=3 addr=0x718 data=0x5a000003 op=0xa R:61 W:0
# [4635] [PASS] LOAD lane=3 addr=0x718 data=0x5a000003 exp=0x5a000003 op=0x2 R:62 W:0
# [4735] [PASS] LOAD lane=0 addr=0x94 data=0x0 exp=0x0 op=0x1 R:63 W:0
# [4805] [PASS] LOAD lane=0 addr=0x158 data=0x0 exp=0x0 op=0x0 R:64 W:0
# [4815] [PASS] STORE lane=0 addr=0x292 data=0x2204350b op=0x8 R:65 W:0
# [4825] [PASS] STORE lane=2 addr=0x7f4 data=0x281501e6 op=0xa R:66 W:0
# [4835] [PASS] STORE lane=3 addr=0xce data=0x4577e2e5 op=0x8 R:67 W:0
# [4845] [PASS] STORE lane=0 addr=0x6d0 data=0xd99de1e3 op=0x9 R:68 W:0
# [4995] [PASS] LOAD lane=3 addr=0x57e data=0x0 exp=0x0 op=0x1 R:69 W:0
# [5155] [PASS] LOAD lane=1 addr=0x5fa data=0x0 exp=0x0 op=0x5 R:70 W:0
# [5285] [PASS] LOAD lane=1 addr=0xe00 data=0x0 exp=0x0 op=0x2 R:71 W:0
# [5425] [PASS] LOAD lane=2 addr=0x106 data=0x0 exp=0x0 op=0x4 R:72 W:0
# [5485] [PASS] LOAD lane=0 addr=0x84 data=0x0 exp=0x0 op=0x2 R:73 W:0
# [5495] [PASS] STORE lane=0 addr=0x7e0 data=0x37695228 op=0xa R:74 W:0
# [5585] [PASS] LOAD lane=3 addr=0x50 data=0x0 exp=0x0 op=0x1 R:75 W:0
# [5595] [PASS] STORE lane=1 addr=0xcdc data=0xa1c1a5c6 op=0xa R:76 W:0
# [5705] [PASS] LOAD lane=1 addr=0x33a data=0x0 exp=0x0 op=0x5 R:77 W:0
# [5715] [PASS] STORE lane=3 addr=0x9b4 data=0x81d213f op=0xa R:78 W:0
# [5725] [PASS] STORE lane=2 addr=0x79a data=0xdf94d440 op=0x9 R:79 W:0
# [5735] [PASS] STORE lane=3 addr=0xefc data=0x2b496a6d op=0xa R:80 W:0
# [5835] [PASS] LOAD lane=2 addr=0x716 data=0x0 exp=0x0 op=0x5 R:81 W:0
# [5965] [PASS] LOAD lane=1 addr=0xf0 data=0x0 exp=0x0 op=0x5 R:82 W:0
# [6075] [PASS] LOAD lane=2 addr=0x700 data=0x0 exp=0x0 op=0x5 R:83 W:0
# [6225] [PASS] LOAD lane=3 addr=0x297 data=0x0 exp=0x0 op=0x4 R:84 W:0
# [6235] [PASS] STORE lane=2 addr=0x3e5 data=0xd33ab74d op=0x8 R:85 W:0
# [6245] [PASS] STORE lane=3 addr=0x22a data=0x837234e9 op=0x9 R:86 W:0
# [6255] [PASS] STORE lane=1 addr=0x1f0 data=0x64871abe op=0xa R:87 W:0
# [6265] [PASS] STORE lane=0 addr=0x84 data=0xccb3c9d9 op=0x8 R:88 W:0
# [6395] [PASS] LOAD lane=1 addr=0x13c data=0x0 exp=0x0 op=0x1 R:89 W:0
# [6465] [PASS] LOAD lane=2 addr=0x43 data=0x0 exp=0x0 op=0x0 R:90 W:0
# [6575] [PASS] LOAD lane=3 addr=0x3c0 data=0x0 exp=0x0 op=0x0 R:91 W:0
# [6585] [PASS] STORE lane=2 addr=0xf5 data=0x1ceec8a1 op=0x8 R:92 W:0
# [6725] [PASS] LOAD lane=1 addr=0x642 data=0x0 exp=0x0 op=0x1 R:93 W:0
# [6735] [PASS] STORE lane=3 addr=0x678 data=0xcfd8fc66 op=0xa R:94 W:0
# [6875] [PASS] LOAD lane=0 addr=0x344 data=0x0 exp=0x0 op=0x2 R:95 W:0
# [6985] [PASS] LOAD lane=3 addr=0x263 data=0x0 exp=0x0 op=0x0 R:96 W:0
# [7105] [PASS] LOAD lane=2 addr=0xf0 data=0x0 exp=0x0 op=0x5 R:97 W:0
# [7115] [PASS] STORE lane=3 addr=0x722 data=0xc6be383f op=0x9 R:98 W:0
# [7205] [PASS] LOAD lane=2 addr=0x58c data=0x0 exp=0x0 op=0x5 R:99 W:0
# [7265] [PASS] LOAD lane=0 addr=0x9c data=0x0 exp=0x0 op=0x2 R:100 W:0
# [7275] [PASS] STORE lane=0 addr=0xfbc data=0xe25ca283 op=0xa R:101 W:0
# [7345] [PASS] LOAD lane=2 addr=0x2c0 data=0x0 exp=0x0 op=0x5 R:102 W:0
# [7485] [PASS] LOAD lane=0 addr=0xc68 data=0x0 exp=0x0 op=0x2 R:103 W:0
# [7595] [PASS] LOAD lane=1 addr=0x8d4 data=0x0 exp=0x0 op=0x2 R:104 W:0
# [7675] [PASS] LOAD lane=0 addr=0x394 data=0x0 exp=0x0 op=0x0 R:105 W:0
# [7745] [PASS] STORE lane=1 addr=0x162 data=0xbd9ace34 op=0x9 R:106 W:0
# [7885] [PASS] LOAD lane=1 addr=0x318 data=0x0 exp=0x0 op=0x4 R:107 W:0
# [8015] [PASS] LOAD lane=1 addr=0x4a data=0x0 exp=0x0 op=0x5 R:108 W:0
# [8025] [PASS] STORE lane=0 addr=0x4d data=0xcfaaebf8 op=0x8 R:109 W:0
# [8155] [PASS] LOAD lane=3 addr=0x44a data=0x0 exp=0x0 op=0x1 R:110 W:0
# [8165] [PASS] STORE lane=2 addr=0xd88 data=0x61311eeb op=0xa R:111 W:0
# [8235] [PASS] LOAD lane=1 addr=0xd18 data=0x0 exp=0x0 op=0x2 R:112 W:0
# [8325] [PASS] LOAD lane=0 addr=0x3cd data=0x0 exp=0x0 op=0x0 R:113 W:0
# [8335] [PASS] STORE lane=2 addr=0x2a6 data=0x149578e op=0x9 R:114 W:0
# [8345] [PASS] STORE lane=2 addr=0x52e data=0x309ab7 op=0x9 R:115 W:0
# [8355] [PASS] STORE lane=0 addr=0x31d data=0x63d930fe op=0x8 R:116 W:0
# [8365] [PASS] STORE lane=1 addr=0x1f8 data=0xc9a7499 op=0x8 R:117 W:0
# [8375] [PASS] STORE lane=2 addr=0x508 data=0x3eb57819 op=0xa R:118 W:0
# [8385] [PASS] STORE lane=3 addr=0x12d data=0xa37a6f02 op=0x8 R:119 W:0
# [8395] [PASS] STORE lane=3 addr=0x634 data=0xbd77be8e op=0xa R:120 W:0
# [8405] [PASS] STORE lane=3 addr=0x12 data=0x33e50658 op=0x9 R:121 W:0
# [8585] [PASS] LOAD lane=3 addr=0x10e data=0x0 exp=0x0 op=0x4 R:122 W:0
# [8705] [PASS] LOAD lane=2 addr=0x52c data=0x0 exp=0x0 op=0x5 R:123 W:0
# [8785] [PASS] LOAD lane=3 addr=0xd0 data=0x0 exp=0x0 op=0x4 R:124 W:0
# [8925] [PASS] LOAD lane=2 addr=0x3dc data=0x0 exp=0x0 op=0x5 R:125 W:0
# [9055] [PASS] LOAD lane=0 addr=0x116 data=0x0 exp=0x0 op=0x1 R:126 W:0
# [9065] [PASS] STORE lane=1 addr=0x96 data=0x53015a58 op=0x8 R:127 W:0
# [9205] [PASS] LOAD lane=1 addr=0x5d data=0x0 exp=0x0 op=0x4 R:128 W:0
# [9215] [PASS] STORE lane=1 addr=0x3e8 data=0xc579f906 op=0x9 R:129 W:0
# [9465] [PASS] LOAD lane=3 addr=0x4d2 data=0x0 exp=0x0 op=0x1 R:130 W:0
# [9475] [PASS] STORE lane=1 addr=0xe70 data=0xa31710f9 op=0xa R:131 W:0
# [9485] [PASS] STORE lane=0 addr=0x644 data=0x313207c0 op=0xa R:132 W:0
# [9565] [PASS] LOAD lane=2 addr=0x23a data=0x0 exp=0x0 op=0x0 R:133 W:0
# [9665] [PASS] LOAD lane=3 addr=0x163 data=0xce exp=0xce op=0x4 R:134 W:0
# [9675] [PASS] STORE lane=2 addr=0x2a8 data=0xa5cb5f5f op=0x9 R:135 W:0
# [9785] [PASS] LOAD lane=1 addr=0x62 data=0x0 exp=0x0 op=0x1 R:136 W:0
# [9925] [PASS] LOAD lane=2 addr=0xa0 data=0x0 exp=0x0 op=0x5 R:137 W:0
# [9935] [PASS] STORE lane=3 addr=0x23c data=0x55b40636 op=0x8 R:138 W:0
# [9945] [PASS] STORE lane=1 addr=0x2d2 data=0xcd91cdae op=0x8 R:139 W:0
# [9965] [PASS] STORE lane=1 addr=0x34 data=0x58b294c op=0x8 R:140 W:0
# [10075] [PASS] LOAD lane=0 addr=0x76c data=0x0 exp=0x0 op=0x1 R:141 W:0
# [10085] [PASS] STORE lane=1 addr=0x1b0 data=0xdb676762 op=0xa R:142 W:0
# [10195] [PASS] LOAD lane=0 addr=0x70c data=0x0 exp=0x0 op=0x1 R:143 W:0
# [10205] [PASS] STORE lane=0 addr=0xb50 data=0xc35604ba op=0xa R:144 W:0
# [10265] [PASS] LOAD lane=3 addr=0x2ac data=0x0 exp=0x0 op=0x0 R:145 W:0
# [10275] [PASS] STORE lane=2 addr=0xd4 data=0xa9bb33f3 op=0x8 R:146 W:0
# [10425] [PASS] LOAD lane=0 addr=0x5c0 data=0x0 exp=0x0 op=0x5 R:147 W:0
# [10545] [PASS] STORE lane=0 addr=0x74a data=0xdb9c32a8 op=0x9 R:148 W:0
# [10555] [PASS] STORE lane=1 addr=0x25 data=0xc0802155 op=0x8 R:149 W:0
# [10635] [PASS] LOAD lane=1 addr=0x924 data=0x0 exp=0x0 op=0x2 R:150 W:0
# [10645] [PASS] STORE lane=3 addr=0x6e4 data=0x6f8be816 op=0x9 R:151 W:0
# [10725] [PASS] LOAD lane=2 addr=0x598 data=0x0 exp=0x0 op=0x1 R:152 W:0
# [10735] [PASS] STORE lane=0 addr=0x1e6 data=0x2d126977 op=0x8 R:153 W:0
# [10885] [PASS] LOAD lane=2 addr=0x266 data=0x0 exp=0x0 op=0x4 R:154 W:0
# [10895] [PASS] STORE lane=1 addr=0xe14 data=0x40fdb817 op=0xa R:155 W:0
# [10955] [PASS] LOAD lane=1 addr=0x702 data=0x5a00 exp=0x5a00 op=0x5 R:156 W:0
# [10965] [PASS] STORE lane=3 addr=0x151 data=0xc1b87d71 op=0x8 R:157 W:0
# [10975] [PASS] STORE lane=2 addr=0x39 data=0xf19823f2 op=0x8 R:158 W:0
# [10985] [PASS] STORE lane=0 addr=0x389 data=0xd7f83940 op=0x8 R:159 W:0
# [11005] [PASS] STORE lane=1 addr=0x300 data=0xcff9b292 op=0x8 R:160 W:0
# [11145] [PASS] LOAD lane=2 addr=0x512 data=0x8081 exp=0x8081 op=0x5 R:161 W:0
# [11155] [PASS] STORE lane=2 addr=0x958 data=0xbe6fb0d9 op=0xa R:162 W:0
# [11315] [PASS] LOAD lane=0 addr=0x265 data=0x0 exp=0x0 op=0x4 R:163 W:0
# [11385] [PASS] LOAD lane=0 addr=0xe0 data=0x0 exp=0x0 op=0x0 R:164 W:0
# [11465] [PASS] LOAD lane=2 addr=0x4da data=0x0 exp=0x0 op=0x1 R:165 W:0
# [11475] [PASS] STORE lane=2 addr=0x5e8 data=0xe694253c op=0xa R:166 W:0
# [11485] [PASS] STORE lane=0 addr=0x130 data=0xc096a792 op=0x9 R:167 W:0
# [11495] [PASS] STORE lane=0 addr=0x24d data=0x2aa86b6c op=0x8 R:168 W:0
# [11505] [PASS] STORE lane=2 addr=0x265 data=0xbf693e41 op=0x8 R:169 W:0
# [11575] [PASS] LOAD lane=3 addr=0x22 data=0x0 exp=0x0 op=0x1 R:170 W:0
# [11705] [PASS] STORE lane=1 addr=0x1e2 data=0xc73eef27 op=0x8 R:171 W:0
# [11855] [PASS] LOAD lane=1 addr=0x2f0 data=0x0 exp=0x0 op=0x5 R:172 W:0
# [11865] [PASS] STORE lane=0 addr=0x90c data=0x1b9eaa1f op=0xa R:173 W:0
# [11875] [PASS] STORE lane=2 addr=0x482 data=0xa35d1bc op=0x9 R:174 W:0
# [11895] [PASS] STORE lane=0 addr=0x230 data=0xbd7a9a85 op=0xa R:175 W:0
# [11905] [PASS] STORE lane=2 addr=0xd88 data=0x406e9e0a op=0xa R:176 W:0
# [12045] [PASS] LOAD lane=1 addr=0x9e data=0x0 exp=0x0 op=0x4 R:177 W:0
# [12055] [PASS] STORE lane=1 addr=0xf90 data=0x38ff33a2 op=0xa R:178 W:0
# [12185] [PASS] LOAD lane=0 addr=0x5f8 data=0x0 exp=0x0 op=0x1 R:179 W:0
# [12195] [PASS] STORE lane=3 addr=0x828 data=0xec190d65 op=0xa R:180 W:0
# [12205] [PASS] STORE lane=2 addr=0x788 data=0xdcc8d2e4 op=0x9 R:181 W:0
# [12295] [PASS] LOAD lane=0 addr=0x744 data=0x0 exp=0x0 op=0x5 R:182 W:0
# [12395] [PASS] LOAD lane=2 addr=0x6d8 data=0x0 exp=0x0 op=0x5 R:183 W:0
# [12535] [PASS] LOAD lane=2 addr=0xd5 data=0x0 exp=0x0 op=0x0 R:184 W:0
# [12545] [PASS] STORE lane=0 addr=0x664 data=0xb82775b1 op=0x9 R:185 W:0
# [12715] [PASS] LOAD lane=1 addr=0x214 data=0x0 exp=0x0 op=0x1 R:186 W:0
# [12845] [PASS] LOAD lane=1 addr=0x3f4 data=0x0 exp=0x0 op=0x1 R:187 W:0
# [12855] [PASS] STORE lane=2 addr=0x252 data=0x1fcbd24f op=0x9 R:188 W:0
# [12865] [PASS] STORE lane=0 addr=0x27e data=0x8a5e246 op=0x9 R:189 W:0
# [12915] [PASS] STORE lane=0 addr=0x1b5 data=0xc98bb1b8 op=0x8 R:190 W:0
# [13025] [PASS] LOAD lane=2 addr=0x4d8 data=0x0 exp=0x0 op=0x2 R:191 W:0
# [13125] [PASS] LOAD lane=2 addr=0x2e3 data=0x0 exp=0x0 op=0x0 R:192 W:0
# [13135] [PASS] STORE lane=1 addr=0x18 data=0x87d66df4 op=0xa R:193 W:0
# [13145] [PASS] STORE lane=2 addr=0x93c data=0x4352a60b op=0xa R:194 W:0
# [13235] [PASS] LOAD lane=3 addr=0x980 data=0x0 exp=0x0 op=0x2 R:195 W:0
# [13345] [PASS] LOAD lane=1 addr=0x2d0 data=0x0 exp=0x0 op=0x0 R:196 W:0
# [13355] [PASS] STORE lane=0 addr=0x3ec data=0x6f9cb8c op=0x9 R:197 W:0
# [13365] [PASS] STORE lane=1 addr=0x662 data=0xfad2c360 op=0x9 R:198 W:0
# [13495] [PASS] LOAD lane=3 addr=0x25e data=0x0 exp=0x0 op=0x5 R:199 W:0
# [13505] [PASS] STORE lane=2 addr=0x588 data=0x4f768b1f op=0xa R:200 W:0
# [13515] [PASS] STORE lane=1 addr=0x2f4 data=0x6b9327de op=0x8 R:201 W:0
# [13605] [PASS] LOAD lane=0 addr=0x5a data=0x0 exp=0x0 op=0x1 R:202 W:0
# [13715] [PASS] LOAD lane=0 addr=0xc70 data=0x0 exp=0x0 op=0x2 R:203 W:0
# [13725] [PASS] STORE lane=1 addr=0x70e data=0x5a5cb663 op=0x9 R:204 W:0
# [13735] [PASS] STORE lane=2 addr=0x180 data=0x21f81fe9 op=0x8 R:205 W:0
# [13745] [PASS] STORE lane=0 addr=0xa18 data=0x721c0629 op=0xa R:206 W:0
# [13875] [PASS] LOAD lane=2 addr=0x4d2 data=0x0 exp=0x0 op=0x5 R:207 W:0
# [14015] [PASS] LOAD lane=2 addr=0x129 data=0x0 exp=0x0 op=0x0 R:208 W:0
# [14105] [PASS] LOAD lane=0 addr=0x196 data=0x0 exp=0x0 op=0x5 R:209 W:0
# [14115] [PASS] STORE lane=3 addr=0x5d0 data=0x321316c3 op=0x9 R:210 W:0
# [14195] [PASS] LOAD lane=1 addr=0x48e data=0x0 exp=0x0 op=0x1 R:211 W:0
# [14345] [PASS] LOAD lane=3 addr=0xef data=0x0 exp=0x0 op=0x4 R:212 W:0
# [14355] [PASS] STORE lane=0 addr=0x123 data=0xdb0fad93 op=0x8 R:213 W:0
# [14475] [PASS] LOAD lane=3 addr=0x500 data=0x8000 exp=0x8000 op=0x5 R:214 W:0
# [14585] [PASS] LOAD lane=2 addr=0x28e data=0x0 exp=0x0 op=0x5 R:215 W:0
# [14665] [PASS] LOAD lane=2 addr=0x349 data=0x0 exp=0x0 op=0x4 R:216 W:0
# [14675] [PASS] STORE lane=1 addr=0x72 data=0x5546e52d op=0x8 R:217 W:0
# [14815] [PASS] LOAD lane=2 addr=0x284 data=0x0 exp=0x0 op=0x0 R:218 W:0
# [14965] [PASS] LOAD lane=0 addr=0x5e4 data=0x0 exp=0x0 op=0x5 R:219 W:0
# [15035] [PASS] LOAD lane=1 addr=0x134 data=0x0 exp=0x0 op=0x2 R:220 W:0
# [15165] [PASS] LOAD lane=0 addr=0x6b2 data=0x0 exp=0x0 op=0x5 R:221 W:0
# [15175] [PASS] STORE lane=3 addr=0x4b0 data=0xd631bd9 op=0x9 R:222 W:0
# [15245] [PASS] LOAD lane=3 addr=0x6e2 data=0x0 exp=0x0 op=0x1 R:223 W:0
# [15385] [PASS] LOAD lane=0 addr=0x9b0 data=0x0 exp=0x0 op=0x2 R:224 W:0
# [15395] [PASS] STORE lane=1 addr=0x27e data=0xf783b95c op=0x8 R:225 W:0
# [15525] [PASS] LOAD lane=1 addr=0x162 data=0xce34 exp=0xce34 op=0x5 R:226 W:0
# [15535] [PASS] STORE lane=2 addr=0xaa4 data=0xbc0cd589 op=0xa R:227 W:0
# [15545] [PASS] STORE lane=1 addr=0x366 data=0xe42fd69f op=0x8 R:228 W:0
# [15665] [PASS] LOAD lane=0 addr=0x21f data=0x0 exp=0x0 op=0x4 R:229 W:0
# [15785] [PASS] LOAD lane=1 addr=0x38f data=0x0 exp=0x0 op=0x0 R:230 W:0
# [15795] [PASS] STORE lane=0 addr=0x2cc data=0xd243f78c op=0x9 R:231 W:0
# [15805] [PASS] STORE lane=3 addr=0x444 data=0xf1857209 op=0xa R:232 W:0
# [15915] [PASS] LOAD lane=2 addr=0x702 data=0x5a00 exp=0x5a00 op=0x1 R:233 W:0
# [15925] [PASS] STORE lane=2 addr=0x254 data=0x8d75dd69 op=0x8 R:234 W:0
# [15935] [PASS] STORE lane=2 addr=0x84c data=0xbecd7ad2 op=0xa R:235 W:0
# [15945] [PASS] STORE lane=2 addr=0x88c data=0x79d5cc5a op=0xa R:236 W:0
# [16045] [PASS] LOAD lane=3 addr=0x4f6 data=0x0 exp=0x0 op=0x1 R:237 W:0
# [16265] [PASS] LOAD lane=2 addr=0xdd data=0x0 exp=0x0 op=0x4 R:238 W:0
# [16385] [PASS] LOAD lane=1 addr=0x640 data=0x0 exp=0x0 op=0x2 R:239 W:0
# [16485] [PASS] LOAD lane=1 addr=0x324 data=0x0 exp=0x0 op=0x0 R:240 W:0
# [16495] [PASS] STORE lane=2 addr=0x197 data=0xb1c63410 op=0x8 R:241 W:0
# [16695] [PASS] LOAD lane=1 addr=0x34e data=0x0 exp=0x0 op=0x0 R:242 W:0
# [16795] [PASS] LOAD lane=1 addr=0x1d0 data=0x0 exp=0x0 op=0x2 R:243 W:0
# [16805] [PASS] STORE lane=2 addr=0x362 data=0x95ff1c41 op=0x8 R:244 W:0
# [16815] [PASS] STORE lane=0 addr=0xdc data=0x4a3697ca op=0x9 R:245 W:0
# [16825] [PASS] STORE lane=0 addr=0x1fc data=0xa6109b94 op=0x8 R:246 W:0
# [16935] [PASS] LOAD lane=1 addr=0x7f0 data=0x0 exp=0x0 op=0x1 R:247 W:0
# [17075] [PASS] LOAD lane=2 addr=0xf54 data=0x0 exp=0x0 op=0x2 R:248 W:0
# [17195] [PASS] LOAD lane=1 addr=0xf1 data=0x0 exp=0x0 op=0x4 R:249 W:0
# [17335] [PASS] LOAD lane=2 addr=0x1d1 data=0x0 exp=0x0 op=0x0 R:250 W:0
# [17415] [PASS] LOAD lane=1 addr=0x19d data=0x0 exp=0x0 op=0x4 R:251 W:0
# [17425] [PASS] STORE lane=2 addr=0x4ac data=0xad69ba80 op=0xa R:252 W:0
# [17435] [PASS] STORE lane=0 addr=0x2c5 data=0x616c055c op=0x8 R:253 W:0
# [17445] [PASS] STORE lane=0 addr=0x11e data=0x488c978 op=0x8 R:254 W:0
# [17585] [PASS] LOAD lane=0 addr=0x128 data=0x0 exp=0x0 op=0x1 R:255 W:0
# [17595] [PASS] STORE lane=2 addr=0x194 data=0x5407a7bd op=0xa R:256 W:0
# [17605] [PASS] STORE lane=1 addr=0x257 data=0x719e94a7 op=0x8 R:257 W:0
# [17735] [PASS] LOAD lane=0 addr=0x4b2 data=0x0 exp=0x0 op=0x1 R:258 W:0
# [17745] [PASS] STORE lane=3 addr=0x7c2 data=0x9de80ef4 op=0x9 R:259 W:0
# [17755] [PASS] STORE lane=1 addr=0x333 data=0xa23d50c7 op=0x8 R:260 W:0
# [17905] [PASS] LOAD lane=1 addr=0x2ec data=0x0 exp=0x0 op=0x1 R:261 W:0
# [18025] [PASS] LOAD lane=0 addr=0x33a data=0x0 exp=0x0 op=0x4 R:262 W:0
# [18155] [PASS] LOAD lane=0 addr=0x4dc data=0x0 exp=0x0 op=0x1 R:263 W:0
# [18295] [PASS] LOAD lane=0 addr=0x40 data=0x0 exp=0x0 op=0x5 R:264 W:0
# [18395] [PASS] LOAD lane=0 addr=0x5de data=0x0 exp=0x0 op=0x5 R:265 W:0
# [18405] [PASS] STORE lane=1 addr=0x370 data=0x6a1549b5 op=0xa R:266 W:0
# [18415] [PASS] STORE lane=2 addr=0x774 data=0xa68cff0c op=0xa R:267 W:0
# [18425] [PASS] STORE lane=0 addr=0x357 data=0x51ccf1cd op=0x8 R:268 W:0
# [18435] [PASS] STORE lane=2 addr=0xcd data=0x7fcf26c5 op=0x8 R:269 W:0
# [18445] [PASS] STORE lane=1 addr=0x3fa data=0x19287f40 op=0x9 R:270 W:0
# [18605] [PASS] LOAD lane=1 addr=0x236 data=0x0 exp=0x0 op=0x5 R:271 W:0
# [18615] [PASS] STORE lane=3 addr=0xf64 data=0xa3426ea op=0xa R:272 W:0
# [18625] [PASS] STORE lane=3 addr=0x340 data=0xd6d96b13 op=0xa R:273 W:0
# [18705] [PASS] LOAD lane=0 addr=0x2d8 data=0x0 exp=0x0 op=0x1 R:274 W:0
# [18715] [PASS] STORE lane=2 addr=0x328 data=0x88e4c511 op=0x8 R:275 W:0
# [18845] [PASS] LOAD lane=1 addr=0xbec data=0x0 exp=0x0 op=0x2 R:276 W:0
