out_regression_20seed/seed_9.log
Reading pref.tcl

# 2021.1

# vsim -c work_regression.lsu_slice_tb_v2 -sv_seed 9 "+SEED=9" "+NUM_OPS=500" -do "run -all; quit -f" 
# Start time: 04:12:39 on Jun 22,2026
# ** Note: (vsim-8009) Loading existing optimized design _opt
# //  Questa Sim-64
# //  Version 2021.1 win64 Jan 19 2021
# //
# //  Copyright 1991-2021 Mentor Graphics Corporation
# //  All Rights Reserved.
# //
# //  QuestaSim and its associated documentation contain trade
# //  secrets and commercial or financial information that are the property of
# //  Mentor Graphics Corporation and are privileged, confidential,
# //  and exempt from disclosure under the Freedom of Information Act,
# //  5 U.S.C. Section 552. Furthermore, this information
# //  is prohibited from disclosure under the Trade Secrets Act,
# //  18 U.S.C. Section 1905.
# //
# Loading sv_std.std
# Loading work.VX_gpu_pkg(fast)
# Loading work.lsu_sequence_item_pkg(fast)
# Loading work.lsu_scoreboard_pkg(fast)
# Loading work.lsu_monitor_pkg(fast)
# Loading work.vx_lsu_slice_tb_v2_sv_unit(fast)
# Loading work.lsu_slice_tb_v2(fast)
# Loading work.VX_lsu_slice(fast)
# Loading work.VX_elastic_buffer(fast__3)
# Loading work.VX_elastic_buffer(fast__4)
# Loading work.VX_stream_arb(fast)
# Loading work.lsu_mem_model_rand_sv_unit(fast)
# Loading work.lsu_mem_model_rand(fast)
# run -all
# [75] [PASS] STORE lane=0 addr=0x100 data=0xdeadbeef op=0xa R:1 W:0
# [225] [PASS] LOAD lane=0 addr=0x100 data=0xdeadbeef exp=0xdeadbeef op=0x2 R:2 W:0
# [235] [PASS] STORE lane=1 addr=0x108 data=0x8001 op=0x9 R:3 W:0
# [315] [PASS] LOAD lane=1 addr=0x108 data=0xffff8001 exp=0xffff8001 op=0x1 R:4 W:0
# [435] [PASS] LOAD lane=1 addr=0x108 data=0x8001 exp=0x8001 op=0x5 R:5 W:0
# [445] [PASS] STORE lane=2 addr=0x10c data=0x80 op=0x8 R:6 W:0
# [535] [PASS] LOAD lane=2 addr=0x10c data=0xffffff80 exp=0xffffff80 op=0x0 R:7 W:0
# [595] [PASS] LOAD lane=2 addr=0x10c data=0x80 exp=0x80 op=0x4 R:8 W:0
# [605] [PASS] STORE lane=3 addr=0x3f8 data=0xa5a5a5a5 op=0xa R:9 W:0
# [765] [PASS] LOAD lane=3 addr=0x3f8 data=0xa5a5a5a5 exp=0xa5a5a5a5 op=0x2 R:10 W:0
# [775] [PASS] STORE lane=0 addr=0x3fc data=0xf00f op=0x9 R:11 W:0
# [835] [PASS] LOAD lane=0 addr=0x3fc data=0xfffff00f exp=0xfffff00f op=0x1 R:12 W:0
# [845] [PASS] STORE lane=1 addr=0x3ff data=0xff op=0x8 R:13 W:0
# [945] [PASS] LOAD lane=1 addr=0x3ff data=0xff exp=0xff op=0x4 R:14 W:0
# [955] [PASS] STORE lane=0 addr=0x500 data=0x11110000 op=0xa R:15 W:0
# [1105] [PASS] LOAD lane=0 addr=0x500 data=0x11110000 exp=0x11110000 op=0x2 R:16 W:0
# [1115] [PASS] STORE lane=0 addr=0x502 data=0x8080 op=0x9 R:17 W:0
# [1255] [PASS] LOAD lane=0 addr=0x502 data=0xffff8080 exp=0xffff8080 op=0x1 R:18 W:0
# [1355] [PASS] LOAD lane=0 addr=0x502 data=0x8080 exp=0x8080 op=0x5 R:19 W:0
# [1365] [PASS] STORE lane=0 addr=0x501 data=0x80 op=0x8 R:20 W:0
# [1505] [PASS] LOAD lane=0 addr=0x501 data=0xffffff80 exp=0xffffff80 op=0x0 R:21 W:0
# [1645] [PASS] LOAD lane=0 addr=0x501 data=0x80 exp=0x80 op=0x4 R:22 W:0
# [1655] [PASS] STORE lane=1 addr=0x510 data=0x10100101 op=0xa R:23 W:0
# [1775] [PASS] LOAD lane=1 addr=0x510 data=0x10100101 exp=0x10100101 op=0x2 R:24 W:0
# [1785] [PASS] STORE lane=1 addr=0x512 data=0x8081 op=0x9 R:25 W:0
# [1915] [PASS] LOAD lane=1 addr=0x512 data=0xffff8081 exp=0xffff8081 op=0x1 R:26 W:0
# [2035] [PASS] LOAD lane=1 addr=0x512 data=0x8081 exp=0x8081 op=0x5 R:27 W:0
# [2045] [PASS] STORE lane=1 addr=0x511 data=0x81 op=0x8 R:28 W:0
# [2205] [PASS] LOAD lane=1 addr=0x511 data=0xffffff81 exp=0xffffff81 op=0x0 R:29 W:0
# [2355] [PASS] LOAD lane=1 addr=0x511 data=0x81 exp=0x81 op=0x4 R:30 W:0
# [2365] [PASS] STORE lane=2 addr=0x520 data=0x13130202 op=0xa R:31 W:0
# [2485] [PASS] LOAD lane=2 addr=0x520 data=0x13130202 exp=0x13130202 op=0x2 R:32 W:0
# [2495] [PASS] STORE lane=2 addr=0x522 data=0x8082 op=0x9 R:33 W:0
# [2555] [PASS] LOAD lane=2 addr=0x522 data=0xffff8082 exp=0xffff8082 op=0x1 R:34 W:0
# [2715] [PASS] LOAD lane=2 addr=0x522 data=0x8082 exp=0x8082 op=0x5 R:35 W:0
# [2725] [PASS] STORE lane=2 addr=0x521 data=0x82 op=0x8 R:36 W:0
# [2865] [PASS] LOAD lane=2 addr=0x521 data=0xffffff82 exp=0xffffff82 op=0x0 R:37 W:0
# [2925] [PASS] LOAD lane=2 addr=0x521 data=0x82 exp=0x82 op=0x4 R:38 W:0
# [2935] [PASS] STORE lane=3 addr=0x530 data=0x12120303 op=0xa R:39 W:0
# [3055] [PASS] LOAD lane=3 addr=0x530 data=0x12120303 exp=0x12120303 op=0x2 R:40 W:0
# [3065] [PASS] STORE lane=3 addr=0x532 data=0x8083 op=0x9 R:41 W:0
# [3205] [PASS] LOAD lane=3 addr=0x532 data=0xffff8083 exp=0xffff8083 op=0x1 R:42 W:0
# [3305] [PASS] LOAD lane=3 addr=0x532 data=0x8083 exp=0x8083 op=0x5 R:43 W:0
# [3315] [PASS] STORE lane=3 addr=0x531 data=0x83 op=0x8 R:44 W:0
# [3435] [PASS] LOAD lane=3 addr=0x531 data=0xffffff83 exp=0xffffff83 op=0x0 R:45 W:0
# [3555] [PASS] LOAD lane=3 addr=0x531 data=0x83 exp=0x83 op=0x4 R:46 W:0
# [3565] [PASS] STORE lane=0 addr=0x700 data=0xa5000000 op=0xa R:47 W:0
# [3785] [PASS] LOAD lane=0 addr=0x700 data=0xa5000000 exp=0xa5000000 op=0x2 R:48 W:0
# [3795] [PASS] STORE lane=0 addr=0x700 data=0x5a000000 op=0xa R:49 W:0
# [3955] [PASS] LOAD lane=0 addr=0x700 data=0x5a000000 exp=0x5a000000 op=0x2 R:50 W:0
# [3965] [PASS] STORE lane=1 addr=0x708 data=0xa5000001 op=0xa R:51 W:0
# [4165] [PASS] LOAD lane=1 addr=0x708 data=0xa5000001 exp=0xa5000001 op=0x2 R:52 W:0
# [4175] [PASS] STORE lane=1 addr=0x708 data=0x5a000001 op=0xa R:53 W:0
# [4325] [PASS] LOAD lane=1 addr=0x708 data=0x5a000001 exp=0x5a000001 op=0x2 R:54 W:0
# [4335] [PASS] STORE lane=2 addr=0x710 data=0xa5000002 op=0xa R:55 W:0
# [4475] [PASS] LOAD lane=2 addr=0x710 data=0xa5000002 exp=0xa5000002 op=0x2 R:56 W:0
# [4485] [PASS] STORE lane=2 addr=0x710 data=0x5a000002 op=0xa R:57 W:0
# [4655] [PASS] LOAD lane=2 addr=0x710 data=0x5a000002 exp=0x5a000002 op=0x2 R:58 W:0
# [4665] [PASS] STORE lane=3 addr=0x718 data=0xa5000003 op=0xa R:59 W:0
# [4855] [PASS] LOAD lane=3 addr=0x718 data=0xa5000003 exp=0xa5000003 op=0x2 R:60 W:0
# [4865] [PASS] STORE lane=3 addr=0x718 data=0x5a000003 op=0xa R:61 W:0
# [5005] [PASS] LOAD lane=3 addr=0x718 data=0x5a000003 exp=0x5a000003 op=0x2 R:62 W:0
# [5015] [PASS] STORE lane=0 addr=0x2fc data=0xa5bcd3ce op=0x9 R:63 W:0
# [5025] [PASS] STORE lane=1 addr=0x7a0 data=0xef8d0bea op=0x9 R:64 W:0
# [5135] [PASS] LOAD lane=3 addr=0xb0 data=0x0 exp=0x0 op=0x0 R:65 W:0
# [5145] [PASS] STORE lane=2 addr=0x130 data=0xd5d320d7 op=0x8 R:66 W:0
# [5155] [PASS] STORE lane=3 addr=0x256 data=0xf73daf13 op=0x8 R:67 W:0
# [5295] [PASS] LOAD lane=1 addr=0x3e3 data=0x0 exp=0x0 op=0x4 R:68 W:0
# [5305] [PASS] STORE lane=0 addr=0x2f4 data=0xa95e090d op=0x8 R:69 W:0
# [5315] [PASS] STORE lane=1 addr=0x32c data=0xd5518b8 op=0x8 R:70 W:0
# [5445] [PASS] LOAD lane=2 addr=0x15a data=0x0 exp=0x0 op=0x1 R:71 W:0
# [5455] [PASS] STORE lane=0 addr=0x12e data=0xefd46e0a op=0x9 R:72 W:0
# [5525] [PASS] LOAD lane=1 addr=0x72c data=0x0 exp=0x0 op=0x5 R:73 W:0
# [5535] [PASS] STORE lane=1 addr=0xa80 data=0xd8118df9 op=0xa R:74 W:0
# [5615] [PASS] LOAD lane=0 addr=0x2f0 data=0x0 exp=0x0 op=0x2 R:75 W:0
# [5725] [PASS] LOAD lane=1 addr=0x3d5 data=0x0 exp=0x0 op=0x4 R:76 W:0
# [5735] [PASS] STORE lane=3 addr=0x7e0 data=0xc5fc8475 op=0x9 R:77 W:0
# [5745] [PASS] STORE lane=1 addr=0x6d4 data=0x876612da op=0x9 R:78 W:0
# [5755] [PASS] STORE lane=1 addr=0x7e4 data=0x587f8f op=0xa R:79 W:0
# [5765] [PASS] STORE lane=0 addr=0x398 data=0x4fb133ae op=0x9 R:80 W:0
# [5775] [PASS] STORE lane=2 addr=0x2a data=0x833ebc27 op=0x9 R:81 W:0
# [5945] [PASS] LOAD lane=0 addr=0x135 data=0x0 exp=0x0 op=0x4 R:82 W:0
# [6065] [PASS] LOAD lane=1 addr=0x20 data=0x0 exp=0x0 op=0x0 R:83 W:0
# [6215] [PASS] LOAD lane=1 addr=0x1d5 data=0x0 exp=0x0 op=0x4 R:84 W:0
# [6225] [PASS] STORE lane=1 addr=0x145 data=0xa7388ff3 op=0x8 R:85 W:0
# [6375] [PASS] LOAD lane=1 addr=0x6a data=0x0 exp=0x0 op=0x1 R:86 W:0
# [6505] [PASS] LOAD lane=1 addr=0xad0 data=0x0 exp=0x0 op=0x2 R:87 W:0
# [6515] [PASS] STORE lane=2 addr=0x708 data=0xde1aefae op=0x9 R:88 W:0
# [6675] [PASS] LOAD lane=2 addr=0x1b8 data=0x0 exp=0x0 op=0x1 R:89 W:0
# [6685] [PASS] STORE lane=3 addr=0x5cc data=0x2b1389ba op=0xa R:90 W:0
# [6835] [PASS] LOAD lane=3 addr=0xb2 data=0x0 exp=0x0 op=0x1 R:91 W:0
# [6845] [PASS] STORE lane=3 addr=0x10f data=0x69a22274 op=0x8 R:92 W:0
# [6855] [PASS] STORE lane=3 addr=0x3b4 data=0xd21f951b op=0x9 R:93 W:0
# [6865] [PASS] STORE lane=1 addr=0x4c4 data=0x70e62d5e op=0x9 R:94 W:0
# [6985] [PASS] LOAD lane=1 addr=0xc0 data=0x0 exp=0x0 op=0x1 R:95 W:0
# [7085] [PASS] LOAD lane=1 addr=0x1d6 data=0x0 exp=0x0 op=0x0 R:96 W:0
# [7205] [PASS] LOAD lane=2 addr=0x116 data=0x0 exp=0x0 op=0x4 R:97 W:0
# [7215] [PASS] STORE lane=2 addr=0xb48 data=0x789201a1 op=0xa R:98 W:0
# [7375] [PASS] LOAD lane=1 addr=0x2b5 data=0x0 exp=0x0 op=0x0 R:99 W:0
# [7475] [PASS] LOAD lane=1 addr=0x6ec data=0x0 exp=0x0 op=0x2 R:100 W:0
# [7595] [PASS] LOAD lane=1 addr=0x363 data=0x0 exp=0x0 op=0x0 R:101 W:0
# [7695] [PASS] LOAD lane=1 addr=0x4a0 data=0x0 exp=0x0 op=0x1 R:102 W:0
# [7845] [PASS] LOAD lane=1 addr=0x40 data=0x0 exp=0x0 op=0x2 R:103 W:0
# [7955] [PASS] LOAD lane=1 addr=0x646 data=0x0 exp=0x0 op=0x1 R:104 W:0
# [7965] [PASS] STORE lane=1 addr=0x1ef data=0x47b6d0f5 op=0x8 R:105 W:0
# [8075] [PASS] LOAD lane=2 addr=0x2d8 data=0x0 exp=0x0 op=0x0 R:106 W:0
# [8195] [PASS] LOAD lane=0 addr=0x239 data=0x0 exp=0x0 op=0x4 R:107 W:0
# [8315] [PASS] LOAD lane=2 addr=0x58 data=0x0 exp=0x0 op=0x4 R:108 W:0
# [8425] [PASS] LOAD lane=3 addr=0x3c0 data=0x0 exp=0x0 op=0x2 R:109 W:0
# [8435] [PASS] STORE lane=2 addr=0x2f5 data=0x9e81e41c op=0x8 R:110 W:0
# [8685] [PASS] LOAD lane=1 addr=0x3ac data=0x0 exp=0x0 op=0x1 R:111 W:0
# [8975] [PASS] LOAD lane=3 addr=0xa8 data=0x0 exp=0x0 op=0x2 R:112 W:0
# [8985] [PASS] STORE lane=2 addr=0x18c data=0x4d3a3b2 op=0x8 R:113 W:0
# [9065] [PASS] LOAD lane=3 addr=0xe94 data=0x0 exp=0x0 op=0x2 R:114 W:0
# [9215] [PASS] LOAD lane=3 addr=0x5f4 data=0x0 exp=0x0 op=0x5 R:115 W:0
# [9225] [PASS] STORE lane=3 addr=0x700 data=0x108eea0a op=0xa R:116 W:0
# [9285] [PASS] LOAD lane=1 addr=0x150 data=0x0 exp=0x0 op=0x2 R:117 W:0
# [9375] [PASS] LOAD lane=3 addr=0x158 data=0x0 exp=0x0 op=0x0 R:118 W:0
# [9385] [PASS] STORE lane=2 addr=0x578 data=0x8dcada74 op=0x9 R:119 W:0
# [9495] [PASS] LOAD lane=3 addr=0x418 data=0x0 exp=0x0 op=0x2 R:120 W:0
# [9625] [PASS] LOAD lane=0 addr=0x49c data=0x0 exp=0x0 op=0x2 R:121 W:0
# [9685] [PASS] LOAD lane=1 addr=0x2d2 data=0x0 exp=0x0 op=0x4 R:122 W:0
# [9695] [PASS] STORE lane=2 addr=0xfc0 data=0xac3b9d1d op=0xa R:123 W:0
# [9765] [PASS] LOAD lane=1 addr=0x2e1 data=0x0 exp=0x0 op=0x4 R:124 W:0
# [9895] [PASS] LOAD lane=2 addr=0x2d8 data=0x0 exp=0x0 op=0x4 R:125 W:0
# [9995] [PASS] LOAD lane=2 addr=0x367 data=0x0 exp=0x0 op=0x4 R:126 W:0
# [10075] [PASS] LOAD lane=2 addr=0x6e4 data=0x0 exp=0x0 op=0x1 R:127 W:0
# [10175] [PASS] LOAD lane=2 addr=0xd0 data=0x0 exp=0x0 op=0x1 R:128 W:0
# [10185] [PASS] STORE lane=3 addr=0xd64 data=0x578939ec op=0xa R:129 W:0
# [10245] [PASS] LOAD lane=1 addr=0x2d4 data=0x0 exp=0x0 op=0x0 R:130 W:0
# [10355] [PASS] LOAD lane=0 addr=0x542 data=0x0 exp=0x0 op=0x1 R:131 W:0
# [10485] [PASS] STORE lane=3 addr=0x134 data=0xf830d97d op=0x9 R:132 W:0
# [10555] [PASS] LOAD lane=3 addr=0x22b data=0x0 exp=0x0 op=0x4 R:133 W:0
# [10565] [PASS] STORE lane=1 addr=0xd2 data=0xa96fccbe op=0x8 R:134 W:0
# [10575] [PASS] STORE lane=3 addr=0x324 data=0x1b7d7b61 op=0xa R:135 W:0
# [10685] [PASS] LOAD lane=2 addr=0x5c0 data=0x0 exp=0x0 op=0x5 R:136 W:0
# [10695] [PASS] STORE lane=3 addr=0x64 data=0xc2c461b3 op=0x8 R:137 W:0
# [10705] [PASS] STORE lane=3 addr=0x3f8 data=0x3c2f4ab7 op=0xa R:138 W:0
# [10975] [PASS] LOAD lane=2 addr=0x1a8 data=0x0 exp=0x0 op=0x0 R:139 W:0
# [10985] [PASS] STORE lane=2 addr=0x8d0 data=0x8ea0c3cd op=0xa R:140 W:0
# [11155] [PASS] LOAD lane=1 addr=0x436 data=0x0 exp=0x0 op=0x1 R:141 W:0
# [11165] [PASS] STORE lane=0 addr=0x154 data=0x141cadeb op=0xa R:142 W:0
# [11285] [PASS] LOAD lane=2 addr=0x22a data=0x0 exp=0x0 op=0x5 R:143 W:0
# [11385] [PASS] LOAD lane=2 addr=0x62c data=0x0 exp=0x0 op=0x2 R:144 W:0
# [11395] [PASS] STORE lane=3 addr=0x176 data=0x62a367e2 op=0x8 R:145 W:0
# [11545] [PASS] LOAD lane=1 addr=0x268 data=0x0 exp=0x0 op=0x4 R:146 W:0
# [11555] [PASS] STORE lane=2 addr=0x370 data=0xe5931300 op=0x8 R:147 W:0
# [11565] [PASS] STORE lane=1 addr=0xd44 data=0xc20ce915 op=0xa R:148 W:0
# [11655] [PASS] LOAD lane=1 addr=0x2bd data=0x0 exp=0x0 op=0x0 R:149 W:0
# [11765] [PASS] LOAD lane=3 addr=0x630 data=0x0 exp=0x0 op=0x5 R:150 W:0
# [11775] [PASS] STORE lane=0 addr=0x4d4 data=0xac04497f op=0xa R:151 W:0
# [11915] [PASS] LOAD lane=3 addr=0x67c data=0x0 exp=0x0 op=0x1 R:152 W:0
# [12015] [PASS] LOAD lane=3 addr=0x7ca data=0x0 exp=0x0 op=0x5 R:153 W:0
# [12025] [PASS] STORE lane=0 addr=0x1ff data=0xc53b10a op=0x8 R:154 W:0
# [12035] [PASS] STORE lane=3 addr=0xbf0 data=0xfa3103e5 op=0xa R:155 W:0
# [12215] [PASS] LOAD lane=2 addr=0x2c1 data=0x0 exp=0x0 op=0x0 R:156 W:0
# [12355] [PASS] LOAD lane=0 addr=0x1ff data=0xa exp=0xa op=0x4 R:157 W:0
# [12475] [PASS] LOAD lane=2 addr=0x77a data=0x0 exp=0x0 op=0x1 R:158 W:0
# [12555] [PASS] LOAD lane=1 addr=0x22d data=0x0 exp=0x0 op=0x0 R:159 W:0
# [12705] [PASS] LOAD lane=0 addr=0x9cc data=0x0 exp=0x0 op=0x2 R:160 W:0
# [12715] [PASS] STORE lane=0 addr=0xa44 data=0x839b3d01 op=0xa R:161 W:0
# [12855] [PASS] LOAD lane=0 addr=0x460 data=0x0 exp=0x0 op=0x2 R:162 W:0
# [12955] [PASS] LOAD lane=1 addr=0x2c3 data=0x0 exp=0x0 op=0x4 R:163 W:0
# [12965] [PASS] STORE lane=2 addr=0x108 data=0xd220fab0 op=0xa R:164 W:0
# [12975] [PASS] STORE lane=2 addr=0x98c data=0xea473648 op=0xa R:165 W:0
# [13075] [PASS] LOAD lane=2 addr=0x1e2 data=0x0 exp=0x0 op=0x4 R:166 W:0
# [13175] [PASS] LOAD lane=0 addr=0x6ac data=0x0 exp=0x0 op=0x5 R:167 W:0
# [13185] [PASS] STORE lane=0 addr=0x1c5 data=0x3a9e4deb op=0x8 R:168 W:0
# [13195] [PASS] STORE lane=3 addr=0x758 data=0x36302848 op=0xa R:169 W:0
# [13435] [PASS] LOAD lane=1 addr=0x55 data=0x0 exp=0x0 op=0x4 R:170 W:0
# [13525] [PASS] LOAD lane=0 addr=0x44 data=0x0 exp=0x0 op=0x0 R:171 W:0
# [13535] [PASS] STORE lane=0 addr=0x7ec data=0xb25c4488 op=0x9 R:172 W:0
# [13545] [PASS] STORE lane=1 addr=0x22d data=0xcc7d5506 op=0x8 R:173 W:0
# [13675] [PASS] STORE lane=3 addr=0xe8c data=0xba7bebee op=0xa R:174 W:0
# [13805] [PASS] LOAD lane=0 addr=0x246 data=0x0 exp=0x0 op=0x1 R:175 W:0
# [13815] [PASS] STORE lane=1 addr=0x313 data=0x35193bd1 op=0x8 R:176 W:0
# [13965] [PASS] LOAD lane=3 addr=0x7ca data=0x0 exp=0x0 op=0x1 R:177 W:0
# [14035] [PASS] LOAD lane=2 addr=0x40c data=0x0 exp=0x0 op=0x5 R:178 W:0
# [14045] [PASS] STORE lane=2 addr=0xe30 data=0x8ca50ca4 op=0xa R:179 W:0
# [14165] [PASS] LOAD lane=0 addr=0x4c2 data=0x0 exp=0x0 op=0x5 R:180 W:0
# [14255] [PASS] LOAD lane=3 addr=0x140 data=0x0 exp=0x0 op=0x1 R:181 W:0
# [14315] [PASS] LOAD lane=2 addr=0x44c data=0x0 exp=0x0 op=0x1 R:182 W:0
# [14375] [PASS] LOAD lane=0 addr=0xdfc data=0x0 exp=0x0 op=0x2 R:183 W:0
# [14525] [PASS] LOAD lane=0 addr=0x808 data=0x0 exp=0x0 op=0x2 R:184 W:0
# [14535] [PASS] STORE lane=2 addr=0x94 data=0xf853cda6 op=0xa R:185 W:0
# [14705] [PASS] LOAD lane=1 addr=0x2ed data=0x0 exp=0x0 op=0x4 R:186 W:0
# [14845] [PASS] LOAD lane=1 addr=0x2fa data=0x0 exp=0x0 op=0x0 R:187 W:0
# [14855] [PASS] STORE lane=1 addr=0xe6c data=0x3a7d40cc op=0xa R:188 W:0
# [14935] [PASS] STORE lane=0 addr=0x3e4 data=0xe66483cd op=0x8 R:189 W:0
# [15095] [PASS] LOAD lane=2 addr=0x750 data=0x0 exp=0x0 op=0x2 R:190 W:0
# [15185] [PASS] LOAD lane=3 addr=0x33a data=0x0 exp=0x0 op=0x0 R:191 W:0
# [15195] [PASS] STORE lane=2 addr=0x8e8 data=0x81603316 op=0xa R:192 W:0
# [15205] [PASS] STORE lane=3 addr=0x678 data=0x60cf8161 op=0xa R:193 W:0
# [15385] [PASS] LOAD lane=3 addr=0x65c data=0x0 exp=0x0 op=0x5 R:194 W:0
# [15395] [PASS] STORE lane=1 addr=0x592 data=0x2ef04497 op=0x9 R:195 W:0
# [15405] [PASS] STORE lane=2 addr=0x75c data=0xbfe3600b op=0xa R:196 W:0
# [15415] [PASS] STORE lane=3 addr=0x17 data=0xf58957ab op=0x8 R:197 W:0
# [15495] [PASS] STORE lane=1 addr=0x20a data=0xd7c898c7 op=0x8 R:198 W:0
# [15505] [PASS] STORE lane=0 addr=0x15a data=0xb6644c62 op=0x9 R:199 W:0
# [15515] [PASS] STORE lane=2 addr=0x358 data=0xdcbd8754 op=0x9 R:200 W:0
# [15535] [PASS] STORE lane=3 addr=0x39a data=0x54c6edb6 op=0x8 R:201 W:0
# [15645] [PASS] LOAD lane=2 addr=0x32e data=0x0 exp=0x0 op=0x4 R:202 W:0
# [15655] [PASS] STORE lane=2 addr=0x257 data=0x306b27 op=0x8 R:203 W:0
# [15665] [PASS] STORE lane=3 addr=0xf60 data=0xbdd3c38b op=0xa R:204 W:0
# [15805] [PASS] LOAD lane=1 addr=0xbfc data=0x0 exp=0x0 op=0x2 R:205 W:0
# [15925] [PASS] LOAD lane=3 addr=0xd8 data=0x0 exp=0x0 op=0x1 R:206 W:0
# [16035] [PASS] LOAD lane=3 addr=0x6b2 data=0x0 exp=0x0 op=0x5 R:207 W:0
# [16155] [PASS] LOAD lane=3 addr=0x222 data=0x0 exp=0x0 op=0x1 R:208 W:0
# [16225] [PASS] LOAD lane=3 addr=0x274 data=0x0 exp=0x0 op=0x4 R:209 W:0
# [16235] [PASS] STORE lane=0 addr=0x5c0 data=0x2d0785fb op=0x9 R:210 W:0
# [16355] [PASS] LOAD lane=2 addr=0x5d data=0x0 exp=0x0 op=0x4 R:211 W:0
# [16365] [PASS] STORE lane=0 addr=0xfe8 data=0xc79f4e66 op=0xa R:212 W:0
# [16425] [PASS] LOAD lane=2 addr=0x226 data=0x0 exp=0x0 op=0x0 R:213 W:0
# [16525] [PASS] LOAD lane=3 addr=0x310 data=0x0 exp=0x0 op=0x5 R:214 W:0
# [16535] [PASS] STORE lane=3 addr=0x14c data=0xcdc16946 op=0xa R:215 W:0
# [16655] [PASS] LOAD lane=1 addr=0x37b data=0x0 exp=0x0 op=0x0 R:216 W:0
# [16735] [PASS] LOAD lane=2 addr=0x1be data=0x0 exp=0x0 op=0x4 R:217 W:0
# [16845] [PASS] LOAD lane=1 addr=0x1c4 data=0x0 exp=0x0 op=0x0 R:218 W:0
# [16995] [PASS] LOAD lane=1 addr=0xd8 data=0x0 exp=0x0 op=0x1 R:219 W:0
# [17005] [PASS] STORE lane=2 addr=0x1f8 data=0x7d53b312 op=0x8 R:220 W:0
# [17015] [PASS] STORE lane=2 addr=0x252 data=0xd14fe6ad op=0x9 R:221 W:0
# [17125] [PASS] LOAD lane=0 addr=0x718 data=0x5a000003 exp=0x5a000003 op=0x2 R:222 W:0
# [17205] [PASS] LOAD lane=2 addr=0x194 data=0x0 exp=0x0 op=0x2 R:223 W:0
# [17215] [PASS] STORE lane=2 addr=0x2f8 data=0x1101ee52 op=0xa R:224 W:0
# [17345] [PASS] LOAD lane=2 addr=0xf58 data=0x0 exp=0x0 op=0x2 R:225 W:0
# [17475] [PASS] LOAD lane=0 addr=0x175 data=0x0 exp=0x0 op=0x0 R:226 W:0
# [17565] [PASS] LOAD lane=1 addr=0x1ba data=0x0 exp=0x0 op=0x4 R:227 W:0
# [17575] [PASS] STORE lane=1 addr=0x22c data=0xbbbb15f0 op=0xa R:228 W:0
# [17585] [PASS] STORE lane=3 addr=0x85c data=0x61755e8d op=0xa R:229 W:0
# [17605] [PASS] STORE lane=0 addr=0x652 data=0xc235aaf op=0x9 R:230 W:0
# [17685] [PASS] LOAD lane=1 addr=0x1e4 data=0x0 exp=0x0 op=0x1 R:231 W:0
# [17695] [PASS] STORE lane=1 addr=0x4d4 data=0x694c4488 op=0xa R:232 W:0
# [17835] [PASS] LOAD lane=1 addr=0x221 data=0x0 exp=0x0 op=0x4 R:233 W:0
# [17885] [PASS] STORE lane=2 addr=0x1b7 data=0xe5f4dc00 op=0x8 R:234 W:0
# [17895] [PASS] STORE lane=1 addr=0xd0 data=0x6f0be44a op=0x8 R:235 W:0
# [17905] [PASS] STORE lane=1 addr=0x9c data=0x615ec82c op=0x8 R:236 W:0
# [18045] [PASS] LOAD lane=0 addr=0xc0 data=0x0 exp=0x0 op=0x1 R:237 W:0
# [18165] [PASS] LOAD lane=1 addr=0x1fe data=0x0 exp=0x0 op=0x4 R:238 W:0
# [18175] [PASS] STORE lane=3 addr=0x974 data=0x74d453dd op=0xa R:239 W:0
# [18185] [PASS] STORE lane=3 addr=0x10b data=0xa3a6e134 op=0x8 R:240 W:0
# [18195] [PASS] STORE lane=1 addr=0x664 data=0x76f359b0 op=0x9 R:241 W:0
# [18205] [PASS] STORE lane=3 addr=0x3de data=0xb8b51c1d op=0x9 R:242 W:0
# [18325] [PASS] LOAD lane=2 addr=0x240 data=0x0 exp=0x0 op=0x4 R:243 W:0
# [18335] [PASS] STORE lane=3 addr=0x72c data=0xd60a5e92 op=0xa R:244 W:0
# [18455] [PASS] STORE lane=1 addr=0x212 data=0xcfaa11ce op=0x8 R:245 W:0
# [18465] [PASS] STORE lane=0 addr=0x5b0 data=0x43369ab op=0x9 R:246 W:0
# [18535] [PASS] LOAD lane=2 addr=0xffc data=0x0 exp=0x0 op=0x2 R:247 W:0
# [18685] [PASS] LOAD lane=0 addr=0x17c data=0x0 exp=0x0 op=0x4 R:248 W:0
# [18815] [PASS] LOAD lane=2 addr=0x2a6 data=0x0 exp=0x0 op=0x4 R:249 W:0
# [18825] [PASS] STORE lane=2 addr=0xbb0 data=0x1bbeb480 op=0xa R:250 W:0
# [18955] [PASS] LOAD lane=0 addr=0xb6 data=0x0 exp=0x0 op=0x4 R:251 W:0
# [19105] [PASS] LOAD lane=0 addr=0x540 data=0x0 exp=0x0 op=0x2 R:252 W:0
# [19115] [PASS] STORE lane=0 addr=0x730 data=0x68e97400 op=0x9 R:253 W:0
# [19195] [PASS] LOAD lane=0 addr=0x6dc data=0x0 exp=0x0 op=0x2 R:254 W:0
# [19325] [PASS] STORE lane=0 addr=0xe08 data=0xd033a29 op=0xa R:255 W:0
# [19335] [PASS] STORE lane=3 addr=0xdf8 data=0x28283aef op=0xa R:256 W:0
# [19395] [PASS] LOAD lane=2 addr=0x7d0 data=0x0 exp=0x0 op=0x5 R:257 W:0
# [19505] [PASS] LOAD lane=3 addr=0x1f7 data=0x0 exp=0x0 op=0x0 R:258 W:0
# [19605] [PASS] STORE lane=2 addr=0x2bd data=0x12260b1 op=0x8 R:259 W:0
# [19705] [PASS] LOAD lane=3 addr=0xfb data=0x0 exp=0x0 op=0x0 R:260 W:0
# [19795] [PASS] LOAD lane=2 addr=0x604 data=0x0 exp=0x0 op=0x5 R:261 W:0
# [19805] [PASS] STORE lane=3 addr=0x242 data=0xa9105b3b op=0x9 R:262 W:0
# [19815] [PASS] STORE lane=2 addr=0x0 data=0x8369c201 op=0x9 R:263 W:0
# [19945] [PASS] LOAD lane=3 addr=0x2a2 data=0x0 exp=0x0 op=0x0 R:264 W:0
# [19955] [PASS] STORE lane=0 addr=0x6a0 data=0xa07f271a op=0x9 R:265 W:0
# [19965] [PASS] STORE lane=3 addr=0xed data=0x5c644580 op=0x8 R:266 W:0
# [19975] [PASS] STORE lane=1 addr=0x702 data=0xcb58780 op=0x9 R:267 W:0
# [20085] [PASS] LOAD lane=3 addr=0x7dc data=0x0 exp=0x0 op=0x1 R:268 W:0
# [20195] [PASS] LOAD lane=1 addr=0x5ee data=0x0 exp=0x0 op=0x1 R:269 W:0
# [20375] [PASS] LOAD lane=1 addr=0x3a9 data=0x0 exp=0x0 op=0x4 R:270 W:0
# [20385] [PASS] STORE lane=3 addr=0xa2 data=0x20992d73 op=0x8 R:271 W:0
# [20635] [PASS] LOAD lane=3 addr=0x202 data=0x0 exp=0x0 op=0x0 R:272 W:0
# [20785] [PASS] LOAD lane=3 addr=0x1c6 data=0x0 exp=0x0 op=0x0 R:273 W:0
# [20795] [PASS] STORE lane=1 addr=0x480 data=0x1125a355 op=0xa R:274 W:0
# [20805] [PASS] STORE lane=1 addr=0x36e data=0x75532519 op=0x8 R:275 W:0
