out_regression_20seed/seed_7.log
Reading pref.tcl

# 2021.1

# vsim -c work_regression.lsu_slice_tb_v2 -sv_seed 7 "+SEED=7" "+NUM_OPS=500" -do "run -all; quit -f" 
# Start time: 04:11:37 on Jun 22,2026
# ** Note: (vsim-8009) Loading existing optimized design _opt
# //  Questa Sim-64
# //  Version 2021.1 win64 Jan 19 2021
# //
# //  Copyright 1991-2021 Mentor Graphics Corporation
# //  All Rights Reserved.
# //
# //  QuestaSim and its associated documentation contain trade
# //  secrets and commercial or financial information that are the property of
# //  Mentor Graphics Corporation and are privileged, confidential,
# //  and exempt from disclosure under the Freedom of Information Act,
# //  5 U.S.C. Section 552. Furthermore, this information
# //  is prohibited from disclosure under the Trade Secrets Act,
# //  18 U.S.C. Section 1905.
# //
# Loading sv_std.std
# Loading work.VX_gpu_pkg(fast)
# Loading work.lsu_sequence_item_pkg(fast)
# Loading work.lsu_scoreboard_pkg(fast)
# Loading work.lsu_monitor_pkg(fast)
# Loading work.vx_lsu_slice_tb_v2_sv_unit(fast)
# Loading work.lsu_slice_tb_v2(fast)
# Loading work.VX_lsu_slice(fast)
# Loading work.VX_elastic_buffer(fast__3)
# Loading work.VX_elastic_buffer(fast__4)
# Loading work.VX_stream_arb(fast)
# Loading work.lsu_mem_model_rand_sv_unit(fast)
# Loading work.lsu_mem_model_rand(fast)
# run -all
# [75] [PASS] STORE lane=0 addr=0x100 data=0xdeadbeef op=0xa R:1 W:0
# [155] [PASS] LOAD lane=0 addr=0x100 data=0xdeadbeef exp=0xdeadbeef op=0x2 R:2 W:0
# [165] [PASS] STORE lane=1 addr=0x108 data=0x8001 op=0x9 R:3 W:0
# [265] [PASS] LOAD lane=1 addr=0x108 data=0xffff8001 exp=0xffff8001 op=0x1 R:4 W:0
# [345] [PASS] LOAD lane=1 addr=0x108 data=0x8001 exp=0x8001 op=0x5 R:5 W:0
# [355] [PASS] STORE lane=2 addr=0x10c data=0x80 op=0x8 R:6 W:0
# [445] [PASS] LOAD lane=2 addr=0x10c data=0xffffff80 exp=0xffffff80 op=0x0 R:7 W:0
# [505] [PASS] LOAD lane=2 addr=0x10c data=0x80 exp=0x80 op=0x4 R:8 W:0
# [515] [PASS] STORE lane=3 addr=0x3f8 data=0xa5a5a5a5 op=0xa R:9 W:0
# [675] [PASS] LOAD lane=3 addr=0x3f8 data=0xa5a5a5a5 exp=0xa5a5a5a5 op=0x2 R:10 W:0
# [685] [PASS] STORE lane=0 addr=0x3fc data=0xf00f op=0x9 R:11 W:0
# [825] [PASS] LOAD lane=0 addr=0x3fc data=0xfffff00f exp=0xfffff00f op=0x1 R:12 W:0
# [835] [PASS] STORE lane=1 addr=0x3ff data=0xff op=0x8 R:13 W:0
# [915] [PASS] LOAD lane=1 addr=0x3ff data=0xff exp=0xff op=0x4 R:14 W:0
# [925] [PASS] STORE lane=0 addr=0x500 data=0x11110000 op=0xa R:15 W:0
# [1075] [PASS] LOAD lane=0 addr=0x500 data=0x11110000 exp=0x11110000 op=0x2 R:16 W:0
# [1085] [PASS] STORE lane=0 addr=0x502 data=0x8080 op=0x9 R:17 W:0
# [1225] [PASS] LOAD lane=0 addr=0x502 data=0xffff8080 exp=0xffff8080 op=0x1 R:18 W:0
# [1325] [PASS] LOAD lane=0 addr=0x502 data=0x8080 exp=0x8080 op=0x5 R:19 W:0
# [1335] [PASS] STORE lane=0 addr=0x501 data=0x80 op=0x8 R:20 W:0
# [1445] [PASS] LOAD lane=0 addr=0x501 data=0xffffff80 exp=0xffffff80 op=0x0 R:21 W:0
# [1505] [PASS] LOAD lane=0 addr=0x501 data=0x80 exp=0x80 op=0x4 R:22 W:0
# [1515] [PASS] STORE lane=1 addr=0x510 data=0x10100101 op=0xa R:23 W:0
# [1655] [PASS] LOAD lane=1 addr=0x510 data=0x10100101 exp=0x10100101 op=0x2 R:24 W:0
# [1665] [PASS] STORE lane=1 addr=0x512 data=0x8081 op=0x9 R:25 W:0
# [1735] [PASS] LOAD lane=1 addr=0x512 data=0xffff8081 exp=0xffff8081 op=0x1 R:26 W:0
# [1865] [PASS] LOAD lane=1 addr=0x512 data=0x8081 exp=0x8081 op=0x5 R:27 W:0
# [1875] [PASS] STORE lane=1 addr=0x511 data=0x81 op=0x8 R:28 W:0
# [1985] [PASS] LOAD lane=1 addr=0x511 data=0xffffff81 exp=0xffffff81 op=0x0 R:29 W:0
# [2045] [PASS] LOAD lane=1 addr=0x511 data=0x81 exp=0x81 op=0x4 R:30 W:0
# [2055] [PASS] STORE lane=2 addr=0x520 data=0x13130202 op=0xa R:31 W:0
# [2195] [PASS] LOAD lane=2 addr=0x520 data=0x13130202 exp=0x13130202 op=0x2 R:32 W:0
# [2205] [PASS] STORE lane=2 addr=0x522 data=0x8082 op=0x9 R:33 W:0
# [2335] [PASS] LOAD lane=2 addr=0x522 data=0xffff8082 exp=0xffff8082 op=0x1 R:34 W:0
# [2455] [PASS] LOAD lane=2 addr=0x522 data=0x8082 exp=0x8082 op=0x5 R:35 W:0
# [2465] [PASS] STORE lane=2 addr=0x521 data=0x82 op=0x8 R:36 W:0
# [2585] [PASS] LOAD lane=2 addr=0x521 data=0xffffff82 exp=0xffffff82 op=0x0 R:37 W:0
# [2735] [PASS] LOAD lane=2 addr=0x521 data=0x82 exp=0x82 op=0x4 R:38 W:0
# [2745] [PASS] STORE lane=3 addr=0x530 data=0x12120303 op=0xa R:39 W:0
# [2875] [PASS] LOAD lane=3 addr=0x530 data=0x12120303 exp=0x12120303 op=0x2 R:40 W:0
# [2885] [PASS] STORE lane=3 addr=0x532 data=0x8083 op=0x9 R:41 W:0
# [2975] [PASS] LOAD lane=3 addr=0x532 data=0xffff8083 exp=0xffff8083 op=0x1 R:42 W:0
# [3035] [PASS] LOAD lane=3 addr=0x532 data=0x8083 exp=0x8083 op=0x5 R:43 W:0
# [3045] [PASS] STORE lane=3 addr=0x531 data=0x83 op=0x8 R:44 W:0
# [3195] [PASS] LOAD lane=3 addr=0x531 data=0xffffff83 exp=0xffffff83 op=0x0 R:45 W:0
# [3295] [PASS] LOAD lane=3 addr=0x531 data=0x83 exp=0x83 op=0x4 R:46 W:0
# [3305] [PASS] STORE lane=0 addr=0x700 data=0xa5000000 op=0xa R:47 W:0
# [3415] [PASS] LOAD lane=0 addr=0x700 data=0xa5000000 exp=0xa5000000 op=0x2 R:48 W:0
# [3425] [PASS] STORE lane=0 addr=0x700 data=0x5a000000 op=0xa R:49 W:0
# [3655] [PASS] LOAD lane=0 addr=0x700 data=0x5a000000 exp=0x5a000000 op=0x2 R:50 W:0
# [3665] [PASS] STORE lane=1 addr=0x708 data=0xa5000001 op=0xa R:51 W:0
# [3815] [PASS] LOAD lane=1 addr=0x708 data=0xa5000001 exp=0xa5000001 op=0x2 R:52 W:0
# [3825] [PASS] STORE lane=1 addr=0x708 data=0x5a000001 op=0xa R:53 W:0
# [3975] [PASS] LOAD lane=1 addr=0x708 data=0x5a000001 exp=0x5a000001 op=0x2 R:54 W:0
# [3985] [PASS] STORE lane=2 addr=0x710 data=0xa5000002 op=0xa R:55 W:0
# [4105] [PASS] LOAD lane=2 addr=0x710 data=0xa5000002 exp=0xa5000002 op=0x2 R:56 W:0
# [4115] [PASS] STORE lane=2 addr=0x710 data=0x5a000002 op=0xa R:57 W:0
# [4335] [PASS] LOAD lane=2 addr=0x710 data=0x5a000002 exp=0x5a000002 op=0x2 R:58 W:0
# [4345] [PASS] STORE lane=3 addr=0x718 data=0xa5000003 op=0xa R:59 W:0
# [4585] [PASS] LOAD lane=3 addr=0x718 data=0xa5000003 exp=0xa5000003 op=0x2 R:60 W:0
# [4595] [PASS] STORE lane=3 addr=0x718 data=0x5a000003 op=0xa R:61 W:0
# [4755] [PASS] LOAD lane=3 addr=0x718 data=0x5a000003 exp=0x5a000003 op=0x2 R:62 W:0
# [4905] [PASS] LOAD lane=1 addr=0x344 data=0x0 exp=0x0 op=0x2 R:63 W:0
# [4915] [PASS] STORE lane=1 addr=0x6bc data=0x46fafe58 op=0xa R:64 W:0
# [4925] [PASS] STORE lane=2 addr=0x1dc data=0xe04ee521 op=0x8 R:65 W:0
# [5015] [PASS] LOAD lane=1 addr=0x10e data=0x0 exp=0x0 op=0x0 R:66 W:0
# [5025] [PASS] STORE lane=0 addr=0x258 data=0x5b76d5cd op=0xa R:67 W:0
# [5165] [PASS] LOAD lane=1 addr=0x71c data=0x0 exp=0x0 op=0x5 R:68 W:0
# [5175] [PASS] STORE lane=3 addr=0x524 data=0x2a3e0a5d op=0x9 R:69 W:0
# [5185] [PASS] STORE lane=2 addr=0x914 data=0x48a9c1e4 op=0xa R:70 W:0
# [5195] [PASS] STORE lane=1 addr=0x1a0 data=0xb1806c5d op=0x9 R:71 W:0
# [5205] [PASS] STORE lane=0 addr=0x2e0 data=0x68dd0949 op=0xa R:72 W:0
# [5215] [PASS] STORE lane=0 addr=0x1de data=0x54ca04a4 op=0x8 R:73 W:0
# [5385] [PASS] LOAD lane=2 addr=0x3ee data=0x0 exp=0x0 op=0x0 R:74 W:0
# [5445] [PASS] LOAD lane=3 addr=0x2ce data=0x0 exp=0x0 op=0x4 R:75 W:0
# [5575] [PASS] LOAD lane=3 addr=0x8 data=0x0 exp=0x0 op=0x1 R:76 W:0
# [5585] [PASS] STORE lane=3 addr=0x8b data=0xc82b127e op=0x8 R:77 W:0
# [5745] [PASS] LOAD lane=0 addr=0xbc data=0x0 exp=0x0 op=0x4 R:78 W:0
# [5755] [PASS] STORE lane=2 addr=0x397 data=0x35a5dd57 op=0x8 R:79 W:0
# [5905] [PASS] LOAD lane=0 addr=0x690 data=0x0 exp=0x0 op=0x1 R:80 W:0
# [6045] [PASS] LOAD lane=3 addr=0x304 data=0x0 exp=0x0 op=0x1 R:81 W:0
# [6145] [PASS] LOAD lane=1 addr=0x54 data=0x0 exp=0x0 op=0x4 R:82 W:0
# [6155] [PASS] STORE lane=0 addr=0x79c data=0x717f568c op=0x9 R:83 W:0
# [6275] [PASS] LOAD lane=2 addr=0x238 data=0x0 exp=0x0 op=0x0 R:84 W:0
# [6415] [PASS] LOAD lane=1 addr=0x391 data=0x0 exp=0x0 op=0x4 R:85 W:0
# [6565] [PASS] LOAD lane=2 addr=0x3a6 data=0x0 exp=0x0 op=0x1 R:86 W:0
# [6675] [PASS] LOAD lane=2 addr=0x183 data=0x0 exp=0x0 op=0x4 R:87 W:0
# [6815] [PASS] LOAD lane=1 addr=0x1e9 data=0x0 exp=0x0 op=0x4 R:88 W:0
# [6825] [PASS] STORE lane=0 addr=0x30c data=0xdf3110fd op=0xa R:89 W:0
# [6835] [PASS] STORE lane=1 addr=0x290 data=0xb1233a26 op=0xa R:90 W:0
# [7005] [PASS] LOAD lane=0 addr=0x454 data=0x0 exp=0x0 op=0x5 R:91 W:0
# [7115] [PASS] LOAD lane=0 addr=0x31a data=0x0 exp=0x0 op=0x5 R:92 W:0
# [7255] [PASS] STORE lane=0 addr=0x5bc data=0xcc4e86a8 op=0xa R:93 W:0
# [7405] [PASS] LOAD lane=0 addr=0xf8 data=0x0 exp=0x0 op=0x1 R:94 W:0
# [7545] [PASS] LOAD lane=1 addr=0xc data=0x0 exp=0x0 op=0x5 R:95 W:0
# [7675] [PASS] LOAD lane=1 addr=0x197 data=0x0 exp=0x0 op=0x0 R:96 W:0
# [7685] [PASS] STORE lane=3 addr=0x207 data=0xb00cda76 op=0x8 R:97 W:0
# [7925] [PASS] LOAD lane=1 addr=0x2f8 data=0x0 exp=0x0 op=0x1 R:98 W:0
# [8045] [PASS] LOAD lane=1 addr=0x50 data=0x0 exp=0x0 op=0x4 R:99 W:0
# [8055] [PASS] STORE lane=2 addr=0x31a data=0xc5cb36a8 op=0x9 R:100 W:0
# [8065] [PASS] STORE lane=2 addr=0x588 data=0xf8978da7 op=0xa R:101 W:0
# [8225] [PASS] LOAD lane=1 addr=0x2bf data=0x0 exp=0x0 op=0x0 R:102 W:0
# [8365] [PASS] LOAD lane=0 addr=0xa8 data=0x0 exp=0x0 op=0x1 R:103 W:0
# [8375] [PASS] STORE lane=0 addr=0x364 data=0xcc5c76b op=0xa R:104 W:0
# [8385] [PASS] STORE lane=1 addr=0x36f data=0xd995e589 op=0x8 R:105 W:0
# [8395] [PASS] STORE lane=3 addr=0x201 data=0x67330011 op=0x8 R:106 W:0
# [8515] [PASS] LOAD lane=3 addr=0x460 data=0x0 exp=0x0 op=0x5 R:107 W:0
# [8655] [PASS] LOAD lane=1 addr=0x274 data=0x0 exp=0x0 op=0x1 R:108 W:0
# [8665] [PASS] STORE lane=1 addr=0x1a0 data=0x2597004a op=0xa R:109 W:0
# [8675] [PASS] STORE lane=2 addr=0x79e data=0x92f1eeac op=0x9 R:110 W:0
# [8775] [PASS] LOAD lane=2 addr=0x628 data=0x0 exp=0x0 op=0x5 R:111 W:0
# [8865] [PASS] LOAD lane=2 addr=0xcd data=0x0 exp=0x0 op=0x0 R:112 W:0
# [9005] [PASS] LOAD lane=3 addr=0x2e8 data=0x0 exp=0x0 op=0x0 R:113 W:0
# [9065] [PASS] LOAD lane=2 addr=0x3ad data=0x0 exp=0x0 op=0x4 R:114 W:0
# [9075] [PASS] STORE lane=2 addr=0x2a2 data=0x6d5343b1 op=0x8 R:115 W:0
# [9235] [PASS] LOAD lane=0 addr=0x17b data=0x0 exp=0x0 op=0x0 R:116 W:0
# [9335] [PASS] LOAD lane=3 addr=0x5fe data=0x0 exp=0x0 op=0x5 R:117 W:0
# [9345] [PASS] STORE lane=3 addr=0x8a data=0x54037f35 op=0x8 R:118 W:0
# [9455] [PASS] LOAD lane=2 addr=0x6b2 data=0x0 exp=0x0 op=0x5 R:119 W:0
# [9465] [PASS] STORE lane=3 addr=0x2f4 data=0xef00424f op=0x9 R:120 W:0
# [9475] [PASS] STORE lane=3 addr=0x66e data=0xef8bc045 op=0x9 R:121 W:0
# [9495] [PASS] STORE lane=1 addr=0xfb4 data=0x75de5e8a op=0xa R:122 W:0
# [9645] [PASS] LOAD lane=0 addr=0x68 data=0x0 exp=0x0 op=0x4 R:123 W:0
# [9705] [PASS] LOAD lane=1 addr=0xf8c data=0x0 exp=0x0 op=0x2 R:124 W:0
# [9715] [PASS] STORE lane=3 addr=0x1b9 data=0x44ef719d op=0x8 R:125 W:0
# [9795] [PASS] LOAD lane=1 addr=0x47 data=0x0 exp=0x0 op=0x0 R:126 W:0
# [9885] [PASS] STORE lane=3 addr=0xeb0 data=0xb3e89865 op=0xa R:127 W:0
# [10025] [PASS] LOAD lane=1 addr=0x252 data=0x0 exp=0x0 op=0x0 R:128 W:0
# [10035] [PASS] STORE lane=3 addr=0x1b2 data=0xae56d185 op=0x9 R:129 W:0
# [10145] [PASS] LOAD lane=3 addr=0xda data=0x0 exp=0x0 op=0x1 R:130 W:0
# [10155] [PASS] STORE lane=0 addr=0x838 data=0xe224d889 op=0xa R:131 W:0
# [10305] [PASS] LOAD lane=2 addr=0x134 data=0x0 exp=0x0 op=0x4 R:132 W:0
# [10425] [PASS] LOAD lane=2 addr=0x364 data=0xc76b exp=0xc76b op=0x5 R:133 W:0
# [10435] [PASS] STORE lane=2 addr=0xc7 data=0xecd17e39 op=0x8 R:134 W:0
# [10445] [PASS] STORE lane=2 addr=0x73 data=0x55fa319c op=0x8 R:135 W:0
# [10615] [PASS] LOAD lane=1 addr=0x11c data=0x0 exp=0x0 op=0x2 R:136 W:0
# [10735] [PASS] LOAD lane=2 addr=0x492 data=0x0 exp=0x0 op=0x5 R:137 W:0
# [10745] [PASS] STORE lane=1 addr=0x810 data=0x6d4ef6d4 op=0xa R:138 W:0
# [10805] [PASS] LOAD lane=0 addr=0x28c data=0x0 exp=0x0 op=0x5 R:139 W:0
# [10935] [PASS] LOAD lane=0 addr=0x3dd data=0x0 exp=0x0 op=0x4 R:140 W:0
# [10945] [PASS] STORE lane=1 addr=0x264 data=0xd4a68328 op=0x9 R:141 W:0
# [10955] [PASS] STORE lane=0 addr=0xc9c data=0x63190af0 op=0xa R:142 W:0
# [11065] [PASS] LOAD lane=3 addr=0x3aa data=0x0 exp=0x0 op=0x5 R:143 W:0
# [11195] [PASS] LOAD lane=3 addr=0x2fa data=0x0 exp=0x0 op=0x4 R:144 W:0
# [11255] [PASS] LOAD lane=0 addr=0x2e4 data=0x0 exp=0x0 op=0x5 R:145 W:0
# [11365] [PASS] LOAD lane=1 addr=0xd8 data=0x0 exp=0x0 op=0x0 R:146 W:0
# [11495] [PASS] LOAD lane=3 addr=0x3a1 data=0x0 exp=0x0 op=0x0 R:147 W:0
# [11505] [PASS] STORE lane=2 addr=0x404 data=0xe01fa0fd op=0x9 R:148 W:0
# [11655] [PASS] LOAD lane=2 addr=0x341 data=0x0 exp=0x0 op=0x0 R:149 W:0
# [11665] [PASS] STORE lane=1 addr=0xc58 data=0xd59304ed op=0xa R:150 W:0
# [11775] [PASS] LOAD lane=0 addr=0x398 data=0x0 exp=0x0 op=0x2 R:151 W:0
# [11785] [PASS] STORE lane=1 addr=0x143 data=0xe9232768 op=0x8 R:152 W:0
# [11895] [PASS] LOAD lane=0 addr=0x360 data=0x0 exp=0x0 op=0x1 R:153 W:0
# [11905] [PASS] STORE lane=3 addr=0x2e8 data=0xd6543d0b op=0x8 R:154 W:0
# [11985] [PASS] LOAD lane=2 addr=0x305 data=0x0 exp=0x0 op=0x0 R:155 W:0
# [11995] [PASS] STORE lane=0 addr=0x17b data=0x25445a74 op=0x8 R:156 W:0
# [12125] [PASS] LOAD lane=1 addr=0x3b7 data=0x0 exp=0x0 op=0x4 R:157 W:0
# [12185] [PASS] LOAD lane=2 addr=0xb0 data=0x0 exp=0x0 op=0x5 R:158 W:0
# [12195] [PASS] STORE lane=3 addr=0x331 data=0xfe506a4a op=0x8 R:159 W:0
# [12295] [PASS] LOAD lane=3 addr=0x63a data=0x0 exp=0x0 op=0x1 R:160 W:0
# [12385] [PASS] LOAD lane=3 addr=0x8f data=0x0 exp=0x0 op=0x4 R:161 W:0
# [12445] [PASS] LOAD lane=0 addr=0x160 data=0x0 exp=0x0 op=0x0 R:162 W:0
# [12585] [PASS] LOAD lane=3 addr=0x22f data=0x0 exp=0x0 op=0x0 R:163 W:0
# [12725] [PASS] LOAD lane=1 addr=0x332 data=0x0 exp=0x0 op=0x1 R:164 W:0
# [12865] [PASS] LOAD lane=1 addr=0xfe data=0x0 exp=0x0 op=0x1 R:165 W:0
# [12965] [PASS] LOAD lane=1 addr=0x3f4 data=0x0 exp=0x0 op=0x5 R:166 W:0
# [13025] [PASS] LOAD lane=0 addr=0x27f data=0x0 exp=0x0 op=0x0 R:167 W:0
# [13245] [PASS] LOAD lane=2 addr=0xfa0 data=0x0 exp=0x0 op=0x2 R:168 W:0
# [13335] [PASS] LOAD lane=3 addr=0x3ce data=0x0 exp=0x0 op=0x1 R:169 W:0
# [13455] [PASS] LOAD lane=1 addr=0x554 data=0x0 exp=0x0 op=0x2 R:170 W:0
# [13605] [PASS] LOAD lane=3 addr=0x172 data=0x0 exp=0x0 op=0x1 R:171 W:0
# [13705] [PASS] LOAD lane=1 addr=0x6da data=0x0 exp=0x0 op=0x1 R:172 W:0
# [13715] [PASS] STORE lane=0 addr=0x283 data=0x313dea71 op=0x8 R:173 W:0
# [13725] [PASS] STORE lane=3 addr=0x3aa data=0x2eb7fa66 op=0x9 R:174 W:0
# [13805] [PASS] LOAD lane=3 addr=0x7a data=0x0 exp=0x0 op=0x1 R:175 W:0
# [13815] [PASS] STORE lane=0 addr=0xa4 data=0xca2e8a42 op=0xa R:176 W:0
# [13935] [PASS] LOAD lane=2 addr=0x5a2 data=0x0 exp=0x0 op=0x1 R:177 W:0
# [14035] [PASS] LOAD lane=0 addr=0x49a data=0x0 exp=0x0 op=0x1 R:178 W:0
# [14135] [PASS] LOAD lane=1 addr=0x296 data=0x0 exp=0x0 op=0x0 R:179 W:0
# [14145] [PASS] STORE lane=1 addr=0x2b9 data=0x64f1f4a9 op=0x8 R:180 W:0
# [14305] [PASS] STORE lane=1 addr=0x55 data=0x452f8063 op=0x8 R:181 W:0
# [14315] [PASS] STORE lane=0 addr=0x1dd data=0x18e83881 op=0x8 R:182 W:0
# [14325] [PASS] STORE lane=0 addr=0x3f7 data=0x31040cb op=0x8 R:183 W:0
# [14445] [PASS] LOAD lane=3 addr=0x6fa data=0x0 exp=0x0 op=0x5 R:184 W:0
# [14455] [PASS] STORE lane=3 addr=0x27c data=0x915a749c op=0x9 R:185 W:0
# [14575] [PASS] LOAD lane=0 addr=0x134 data=0x0 exp=0x0 op=0x5 R:186 W:0
# [14585] [PASS] STORE lane=2 addr=0x260 data=0x4f489530 op=0xa R:187 W:0
# [14685] [PASS] LOAD lane=0 addr=0x226 data=0x0 exp=0x0 op=0x0 R:188 W:0
# [14695] [PASS] STORE lane=1 addr=0x7a4 data=0xb4d808f4 op=0x9 R:189 W:0
# [14815] [PASS] LOAD lane=2 addr=0x9c data=0x0 exp=0x0 op=0x1 R:190 W:0
# [14895] [PASS] LOAD lane=2 addr=0xd9c data=0x0 exp=0x0 op=0x2 R:191 W:0
# [15005] [PASS] LOAD lane=0 addr=0x152 data=0x0 exp=0x0 op=0x1 R:192 W:0
# [15015] [PASS] STORE lane=0 addr=0xbc data=0xe00d9a5c op=0x9 R:193 W:0
# [15025] [PASS] STORE lane=3 addr=0x64e data=0xa35f0ce8 op=0x9 R:194 W:0
# [15185] [PASS] LOAD lane=0 addr=0x10c data=0xffffff80 exp=0xffffff80 op=0x0 R:195 W:0
# [15195] [PASS] STORE lane=0 addr=0x208 data=0x3f1c0d3a op=0x8 R:196 W:0
# [15205] [PASS] STORE lane=3 addr=0x16c data=0xc68b6f20 op=0xa R:197 W:0
# [15215] [PASS] STORE lane=2 addr=0x27f data=0x93060a88 op=0x8 R:198 W:0
# [15355] [PASS] LOAD lane=1 addr=0x386 data=0x0 exp=0x0 op=0x5 R:199 W:0
# [15485] [PASS] LOAD lane=0 addr=0x23e data=0x0 exp=0x0 op=0x1 R:200 W:0
# [15645] [PASS] LOAD lane=1 addr=0x54c data=0x0 exp=0x0 op=0x1 R:201 W:0
# [15655] [PASS] STORE lane=0 addr=0x18c data=0x93b96197 op=0x9 R:202 W:0
# [15665] [PASS] STORE lane=2 addr=0x1a5 data=0xd398e3ea op=0x8 R:203 W:0
# [15765] [PASS] LOAD lane=3 addr=0x98 data=0x0 exp=0x0 op=0x0 R:204 W:0
# [15775] [PASS] STORE lane=3 addr=0xfe4 data=0x7e4d1361 op=0xa R:205 W:0
# [15785] [PASS] STORE lane=3 addr=0x118 data=0xd5e0eef6 op=0xa R:206 W:0
# [15935] [PASS] LOAD lane=0 addr=0x7be data=0x0 exp=0x0 op=0x1 R:207 W:0
# [16075] [PASS] LOAD lane=0 addr=0x180 data=0x0 exp=0x0 op=0x0 R:208 W:0
# [16175] [PASS] LOAD lane=3 addr=0x612 data=0x0 exp=0x0 op=0x1 R:209 W:0
# [16265] [PASS] LOAD lane=2 addr=0xee data=0x0 exp=0x0 op=0x0 R:210 W:0
# [16355] [PASS] LOAD lane=2 addr=0x254 data=0x0 exp=0x0 op=0x4 R:211 W:0
# [16365] [PASS] STORE lane=3 addr=0x4a0 data=0x79475b52 op=0xa R:212 W:0
# [16375] [PASS] STORE lane=2 addr=0x2f0 data=0xb4dedfaa op=0x9 R:213 W:0
# [16505] [PASS] LOAD lane=2 addr=0xe3 data=0x0 exp=0x0 op=0x0 R:214 W:0
# [16515] [PASS] STORE lane=3 addr=0x3bc data=0x7eb842de op=0xa R:215 W:0
# [16525] [PASS] STORE lane=1 addr=0x196 data=0xa1c56943 op=0x8 R:216 W:0
# [16665] [PASS] LOAD lane=0 addr=0x1f6 data=0x0 exp=0x0 op=0x5 R:217 W:0
# [16805] [PASS] LOAD lane=2 addr=0x2f8 data=0x0 exp=0x0 op=0x4 R:218 W:0
# [16925] [PASS] LOAD lane=0 addr=0x21c data=0x0 exp=0x0 op=0x5 R:219 W:0
# [17065] [PASS] LOAD lane=1 addr=0xe84 data=0x0 exp=0x0 op=0x2 R:220 W:0
# [17195] [PASS] LOAD lane=1 addr=0x2b8 data=0xa900 exp=0xa900 op=0x2 R:221 W:0
# [17205] [PASS] STORE lane=3 addr=0x6a4 data=0xbf43b688 op=0x9 R:222 W:0
# [17215] [PASS] STORE lane=3 addr=0x274 data=0x656e6e71 op=0x9 R:223 W:0
# [17225] [PASS] STORE lane=3 addr=0x127 data=0x409bae27 op=0x8 R:224 W:0
# [17385] [PASS] LOAD lane=0 addr=0x384 data=0x0 exp=0x0 op=0x4 R:225 W:0
# [17395] [PASS] STORE lane=3 addr=0x5d4 data=0x76743c66 op=0xa R:226 W:0
# [17405] [PASS] STORE lane=3 addr=0xb34 data=0x956f510f op=0xa R:227 W:0
# [17415] [PASS] STORE lane=1 addr=0x2a6 data=0xbdbb0b27 op=0x9 R:228 W:0
# [17545] [PASS] LOAD lane=0 addr=0x7ca data=0x0 exp=0x0 op=0x1 R:229 W:0
# [17555] [PASS] STORE lane=2 addr=0x62a data=0xa16a6430 op=0x9 R:230 W:0
# [17565] [PASS] STORE lane=0 addr=0x748 data=0xbc1d631d op=0x9 R:231 W:0
# [17675] [PASS] LOAD lane=0 addr=0x7e0 data=0x0 exp=0x0 op=0x2 R:232 W:0
# [17745] [PASS] LOAD lane=2 addr=0x308 data=0x0 exp=0x0 op=0x1 R:233 W:0
# [17755] [PASS] STORE lane=3 addr=0x67a data=0x4e5fa020 op=0x9 R:234 W:0
# [17865] [PASS] LOAD lane=0 addr=0x272 data=0x0 exp=0x0 op=0x4 R:235 W:0
# [17875] [PASS] STORE lane=3 addr=0x3df data=0xe93b9d54 op=0x8 R:236 W:0
# [17955] [PASS] LOAD lane=2 addr=0x744 data=0x0 exp=0x0 op=0x5 R:237 W:0
# [17965] [PASS] STORE lane=3 addr=0x2be data=0xce09a466 op=0x9 R:238 W:0
# [17975] [PASS] STORE lane=0 addr=0x576 data=0xf6706761 op=0x9 R:239 W:0
# [18115] [PASS] LOAD lane=2 addr=0x584 data=0x0 exp=0x0 op=0x5 R:240 W:0
# [18125] [PASS] STORE lane=2 addr=0x1d6 data=0xf7fd9332 op=0x9 R:241 W:0
# [18135] [PASS] STORE lane=2 addr=0x90 data=0x5bc85ad7 op=0x9 R:242 W:0
# [18275] [PASS] LOAD lane=2 addr=0x44 data=0x0 exp=0x0 op=0x0 R:243 W:0
# [18365] [PASS] LOAD lane=2 addr=0x10e data=0x0 exp=0x0 op=0x5 R:244 W:0
# [18375] [PASS] STORE lane=0 addr=0x31e data=0x5dbbc96d op=0x9 R:245 W:0
# [18505] [PASS] LOAD lane=0 addr=0xfa data=0x0 exp=0x0 op=0x5 R:246 W:0
# [18615] [PASS] LOAD lane=1 addr=0x361 data=0x0 exp=0x0 op=0x0 R:247 W:0
# [18625] [PASS] STORE lane=0 addr=0x1ec data=0x22de5415 op=0x8 R:248 W:0
# [18705] [PASS] LOAD lane=1 addr=0x7e4 data=0x0 exp=0x0 op=0x2 R:249 W:0
# [18845] [PASS] LOAD lane=3 addr=0x392 data=0x0 exp=0x0 op=0x5 R:250 W:0
# [18855] [PASS] STORE lane=0 addr=0x4ee data=0x539b5c35 op=0x9 R:251 W:0
# [19015] [PASS] LOAD lane=1 addr=0x1c3 data=0x0 exp=0x0 op=0x0 R:252 W:0
# [19025] [PASS] STORE lane=0 addr=0x352 data=0xccaabf79 op=0x8 R:253 W:0
# [19185] [PASS] LOAD lane=0 addr=0x2f0 data=0xaa exp=0xaa op=0x4 R:254 W:0
# [19265] [PASS] LOAD lane=3 addr=0x134 data=0x0 exp=0x0 op=0x4 R:255 W:0
# [19355] [PASS] LOAD lane=0 addr=0x4f6 data=0x0 exp=0x0 op=0x1 R:256 W:0
# [19455] [PASS] LOAD lane=3 addr=0x1d6 data=0x9332 exp=0x9332 op=0x5 R:257 W:0
# [19465] [PASS] STORE lane=2 addr=0x6fc data=0xa7a41645 op=0x9 R:258 W:0
# [19605] [PASS] LOAD lane=1 addr=0x40a data=0x0 exp=0x0 op=0x5 R:259 W:0
# [19615] [PASS] STORE lane=1 addr=0x12c data=0x6f2550b7 op=0x9 R:260 W:0
# [19745] [PASS] LOAD lane=1 addr=0x4e2 data=0x0 exp=0x0 op=0x1 R:261 W:0
# [19815] [PASS] LOAD lane=2 addr=0x4e data=0x0 exp=0x0 op=0x1 R:262 W:0
# [19925] [PASS] LOAD lane=3 addr=0x1ec data=0x15 exp=0x15 op=0x4 R:263 W:0
# [19995] [PASS] LOAD lane=3 addr=0x470 data=0x0 exp=0x0 op=0x5 R:264 W:0
# [20115] [PASS] LOAD lane=1 addr=0x7b data=0x0 exp=0x0 op=0x4 R:265 W:0
# [20215] [PASS] LOAD lane=1 addr=0x27c data=0x749c exp=0x749c op=0x1 R:266 W:0
# [20225] [PASS] STORE lane=1 addr=0x778 data=0xe03ca366 op=0xa R:267 W:0
# [20235] [PASS] STORE lane=0 addr=0x2ec data=0x434cf11b op=0xa R:268 W:0
# [20315] [PASS] LOAD lane=0 addr=0xfc data=0x0 exp=0x0 op=0x0 R:269 W:0
# [20325] [PASS] STORE lane=0 addr=0xfa4 data=0xbc761196 op=0xa R:270 W:0
# [20495] [PASS] LOAD lane=1 addr=0x21a data=0x0 exp=0x0 op=0x4 R:271 W:0
# [20505] [PASS] STORE lane=2 addr=0x216 data=0xae55654f op=0x9 R:272 W:0
# [20705] [PASS] LOAD lane=2 addr=0x46 data=0x0 exp=0x0 op=0x1 R:273 W:0
# [20825] [PASS] LOAD lane=0 addr=0xf28 data=0x0 exp=0x0 op=0x2 R:274 W:0
# [20915] [PASS] LOAD lane=1 addr=0xf10 data=0x0 exp=0x0 op=0x2 R:275 W:0
