out_regression_20seed/seed_6.log
Reading pref.tcl

# 2021.1

# vsim -c work_regression.lsu_slice_tb_v2 -sv_seed 6 "+SEED=6" "+NUM_OPS=500" -do "run -all; quit -f" 
# Start time: 04:11:07 on Jun 22,2026
# ** Note: (vsim-8009) Loading existing optimized design _opt
# //  Questa Sim-64
# //  Version 2021.1 win64 Jan 19 2021
# //
# //  Copyright 1991-2021 Mentor Graphics Corporation
# //  All Rights Reserved.
# //
# //  QuestaSim and its associated documentation contain trade
# //  secrets and commercial or financial information that are the property of
# //  Mentor Graphics Corporation and are privileged, confidential,
# //  and exempt from disclosure under the Freedom of Information Act,
# //  5 U.S.C. Section 552. Furthermore, this information
# //  is prohibited from disclosure under the Trade Secrets Act,
# //  18 U.S.C. Section 1905.
# //
# Loading sv_std.std
# Loading work.VX_gpu_pkg(fast)
# Loading work.lsu_sequence_item_pkg(fast)
# Loading work.lsu_scoreboard_pkg(fast)
# Loading work.lsu_monitor_pkg(fast)
# Loading work.vx_lsu_slice_tb_v2_sv_unit(fast)
# Loading work.lsu_slice_tb_v2(fast)
# Loading work.VX_lsu_slice(fast)
# Loading work.VX_elastic_buffer(fast__3)
# Loading work.VX_elastic_buffer(fast__4)
# Loading work.VX_stream_arb(fast)
# Loading work.lsu_mem_model_rand_sv_unit(fast)
# Loading work.lsu_mem_model_rand(fast)
# run -all
# [75] [PASS] STORE lane=0 addr=0x100 data=0xdeadbeef op=0xa R:1 W:0
# [185] [PASS] LOAD lane=0 addr=0x100 data=0xdeadbeef exp=0xdeadbeef op=0x2 R:2 W:0
# [195] [PASS] STORE lane=1 addr=0x108 data=0x8001 op=0x9 R:3 W:0
# [305] [PASS] LOAD lane=1 addr=0x108 data=0xffff8001 exp=0xffff8001 op=0x1 R:4 W:0
# [395] [PASS] LOAD lane=1 addr=0x108 data=0x8001 exp=0x8001 op=0x5 R:5 W:0
# [405] [PASS] STORE lane=2 addr=0x10c data=0x80 op=0x8 R:6 W:0
# [515] [PASS] LOAD lane=2 addr=0x10c data=0xffffff80 exp=0xffffff80 op=0x0 R:7 W:0
# [615] [PASS] LOAD lane=2 addr=0x10c data=0x80 exp=0x80 op=0x4 R:8 W:0
# [625] [PASS] STORE lane=3 addr=0x3f8 data=0xa5a5a5a5 op=0xa R:9 W:0
# [705] [PASS] LOAD lane=3 addr=0x3f8 data=0xa5a5a5a5 exp=0xa5a5a5a5 op=0x2 R:10 W:0
# [715] [PASS] STORE lane=0 addr=0x3fc data=0xf00f op=0x9 R:11 W:0
# [785] [PASS] LOAD lane=0 addr=0x3fc data=0xfffff00f exp=0xfffff00f op=0x1 R:12 W:0
# [795] [PASS] STORE lane=1 addr=0x3ff data=0xff op=0x8 R:13 W:0
# [945] [PASS] LOAD lane=1 addr=0x3ff data=0xff exp=0xff op=0x4 R:14 W:0
# [955] [PASS] STORE lane=0 addr=0x500 data=0x11110000 op=0xa R:15 W:0
# [1025] [PASS] LOAD lane=0 addr=0x500 data=0x11110000 exp=0x11110000 op=0x2 R:16 W:0
# [1035] [PASS] STORE lane=0 addr=0x502 data=0x8080 op=0x9 R:17 W:0
# [1115] [PASS] LOAD lane=0 addr=0x502 data=0xffff8080 exp=0xffff8080 op=0x1 R:18 W:0
# [1255] [PASS] LOAD lane=0 addr=0x502 data=0x8080 exp=0x8080 op=0x5 R:19 W:0
# [1265] [PASS] STORE lane=0 addr=0x501 data=0x80 op=0x8 R:20 W:0
# [1405] [PASS] LOAD lane=0 addr=0x501 data=0xffffff80 exp=0xffffff80 op=0x0 R:21 W:0
# [1515] [PASS] LOAD lane=0 addr=0x501 data=0x80 exp=0x80 op=0x4 R:22 W:0
# [1525] [PASS] STORE lane=1 addr=0x510 data=0x10100101 op=0xa R:23 W:0
# [1635] [PASS] LOAD lane=1 addr=0x510 data=0x10100101 exp=0x10100101 op=0x2 R:24 W:0
# [1645] [PASS] STORE lane=1 addr=0x512 data=0x8081 op=0x9 R:25 W:0
# [1725] [PASS] LOAD lane=1 addr=0x512 data=0xffff8081 exp=0xffff8081 op=0x1 R:26 W:0
# [1875] [PASS] LOAD lane=1 addr=0x512 data=0x8081 exp=0x8081 op=0x5 R:27 W:0
# [1885] [PASS] STORE lane=1 addr=0x511 data=0x81 op=0x8 R:28 W:0
# [1995] [PASS] LOAD lane=1 addr=0x511 data=0xffffff81 exp=0xffffff81 op=0x0 R:29 W:0
# [2125] [PASS] LOAD lane=1 addr=0x511 data=0x81 exp=0x81 op=0x4 R:30 W:0
# [2135] [PASS] STORE lane=2 addr=0x520 data=0x13130202 op=0xa R:31 W:0
# [2285] [PASS] LOAD lane=2 addr=0x520 data=0x13130202 exp=0x13130202 op=0x2 R:32 W:0
# [2295] [PASS] STORE lane=2 addr=0x522 data=0x8082 op=0x9 R:33 W:0
# [2435] [PASS] LOAD lane=2 addr=0x522 data=0xffff8082 exp=0xffff8082 op=0x1 R:34 W:0
# [2555] [PASS] LOAD lane=2 addr=0x522 data=0x8082 exp=0x8082 op=0x5 R:35 W:0
# [2565] [PASS] STORE lane=2 addr=0x521 data=0x82 op=0x8 R:36 W:0
# [2675] [PASS] LOAD lane=2 addr=0x521 data=0xffffff82 exp=0xffffff82 op=0x0 R:37 W:0
# [2755] [PASS] LOAD lane=2 addr=0x521 data=0x82 exp=0x82 op=0x4 R:38 W:0
# [2765] [PASS] STORE lane=3 addr=0x530 data=0x12120303 op=0xa R:39 W:0
# [2865] [PASS] LOAD lane=3 addr=0x530 data=0x12120303 exp=0x12120303 op=0x2 R:40 W:0
# [2875] [PASS] STORE lane=3 addr=0x532 data=0x8083 op=0x9 R:41 W:0
# [3025] [PASS] LOAD lane=3 addr=0x532 data=0xffff8083 exp=0xffff8083 op=0x1 R:42 W:0
# [3115] [PASS] LOAD lane=3 addr=0x532 data=0x8083 exp=0x8083 op=0x5 R:43 W:0
# [3125] [PASS] STORE lane=3 addr=0x531 data=0x83 op=0x8 R:44 W:0
# [3275] [PASS] LOAD lane=3 addr=0x531 data=0xffffff83 exp=0xffffff83 op=0x0 R:45 W:0
# [3395] [PASS] LOAD lane=3 addr=0x531 data=0x83 exp=0x83 op=0x4 R:46 W:0
# [3405] [PASS] STORE lane=0 addr=0x700 data=0xa5000000 op=0xa R:47 W:0
# [3585] [PASS] LOAD lane=0 addr=0x700 data=0xa5000000 exp=0xa5000000 op=0x2 R:48 W:0
# [3595] [PASS] STORE lane=0 addr=0x700 data=0x5a000000 op=0xa R:49 W:0
# [3765] [PASS] LOAD lane=0 addr=0x700 data=0x5a000000 exp=0x5a000000 op=0x2 R:50 W:0
# [3775] [PASS] STORE lane=1 addr=0x708 data=0xa5000001 op=0xa R:51 W:0
# [3955] [PASS] LOAD lane=1 addr=0x708 data=0xa5000001 exp=0xa5000001 op=0x2 R:52 W:0
# [3965] [PASS] STORE lane=1 addr=0x708 data=0x5a000001 op=0xa R:53 W:0
# [4095] [PASS] LOAD lane=1 addr=0x708 data=0x5a000001 exp=0x5a000001 op=0x2 R:54 W:0
# [4105] [PASS] STORE lane=2 addr=0x710 data=0xa5000002 op=0xa R:55 W:0
# [4235] [PASS] LOAD lane=2 addr=0x710 data=0xa5000002 exp=0xa5000002 op=0x2 R:56 W:0
# [4245] [PASS] STORE lane=2 addr=0x710 data=0x5a000002 op=0xa R:57 W:0
# [4375] [PASS] LOAD lane=2 addr=0x710 data=0x5a000002 exp=0x5a000002 op=0x2 R:58 W:0
# [4385] [PASS] STORE lane=3 addr=0x718 data=0xa5000003 op=0xa R:59 W:0
# [4555] [PASS] LOAD lane=3 addr=0x718 data=0xa5000003 exp=0xa5000003 op=0x2 R:60 W:0
# [4565] [PASS] STORE lane=3 addr=0x718 data=0x5a000003 op=0xa R:61 W:0
# [4725] [PASS] LOAD lane=3 addr=0x718 data=0x5a000003 exp=0x5a000003 op=0x2 R:62 W:0
# [4825] [PASS] LOAD lane=0 addr=0x22 data=0x0 exp=0x0 op=0x1 R:63 W:0
# [4835] [PASS] STORE lane=3 addr=0xcac data=0xe0bbef13 op=0xa R:64 W:0
# [5015] [PASS] STORE lane=1 addr=0x15e data=0xabff9852 op=0x8 R:65 W:0
# [5115] [PASS] LOAD lane=0 addr=0x174 data=0x0 exp=0x0 op=0x0 R:66 W:0
# [5215] [PASS] LOAD lane=3 addr=0x2b6 data=0x0 exp=0x0 op=0x4 R:67 W:0
# [5315] [PASS] LOAD lane=2 addr=0x1be data=0x0 exp=0x0 op=0x5 R:68 W:0
# [5325] [PASS] STORE lane=1 addr=0x7a4 data=0x4901dfb1 op=0x9 R:69 W:0
# [5335] [PASS] STORE lane=2 addr=0x76c data=0xa91ef4c6 op=0x9 R:70 W:0
# [5355] [PASS] STORE lane=1 addr=0x3b4 data=0x9007a14 op=0xa R:71 W:0
# [5565] [PASS] LOAD lane=1 addr=0x226 data=0x0 exp=0x0 op=0x0 R:72 W:0
# [5575] [PASS] STORE lane=0 addr=0x6b6 data=0x3237d678 op=0x9 R:73 W:0
# [5715] [PASS] LOAD lane=1 addr=0xd90 data=0x0 exp=0x0 op=0x2 R:74 W:0
# [5725] [PASS] STORE lane=3 addr=0xa0c data=0xd15ca4a7 op=0xa R:75 W:0
# [5795] [PASS] LOAD lane=2 addr=0x730 data=0x0 exp=0x0 op=0x1 R:76 W:0
# [5875] [PASS] LOAD lane=0 addr=0x301 data=0x0 exp=0x0 op=0x0 R:77 W:0
# [5885] [PASS] STORE lane=2 addr=0x1e6 data=0x33fd36ab op=0x8 R:78 W:0
# [5895] [PASS] STORE lane=2 addr=0x1fa data=0xa9d703d op=0x8 R:79 W:0
# [6045] [PASS] LOAD lane=0 addr=0x5c0 data=0x0 exp=0x0 op=0x1 R:80 W:0
# [6175] [PASS] LOAD lane=3 addr=0x6ae data=0x0 exp=0x0 op=0x1 R:81 W:0
# [6185] [PASS] STORE lane=1 addr=0x195 data=0xbda2060b op=0x8 R:82 W:0
# [6295] [PASS] LOAD lane=1 addr=0x35f data=0x0 exp=0x0 op=0x0 R:83 W:0
# [6425] [PASS] LOAD lane=3 addr=0x2ce data=0x0 exp=0x0 op=0x1 R:84 W:0
# [6495] [PASS] LOAD lane=0 addr=0x598 data=0x0 exp=0x0 op=0x5 R:85 W:0
# [6505] [PASS] STORE lane=0 addr=0x2c0 data=0x1df75d1d op=0x8 R:86 W:0
# [6515] [PASS] STORE lane=2 addr=0x8dc data=0x446f297e op=0xa R:87 W:0
# [6675] [PASS] LOAD lane=0 addr=0x7e8 data=0x0 exp=0x0 op=0x1 R:88 W:0
# [6685] [PASS] STORE lane=2 addr=0x67 data=0x2bc30c8a op=0x8 R:89 W:0
# [6765] [PASS] LOAD lane=3 addr=0x542 data=0x0 exp=0x0 op=0x5 R:90 W:0
# [6775] [PASS] STORE lane=3 addr=0x211 data=0x721119bc op=0x8 R:91 W:0
# [6785] [PASS] STORE lane=2 addr=0x3c2 data=0xbbb50d48 op=0x9 R:92 W:0
# [6815] [PASS] STORE lane=1 addr=0x2c8 data=0x84dc07cd op=0xa R:93 W:0
# [6965] [PASS] LOAD lane=1 addr=0x9b4 data=0x0 exp=0x0 op=0x2 R:94 W:0
# [7045] [PASS] LOAD lane=1 addr=0x359 data=0x0 exp=0x0 op=0x4 R:95 W:0
# [7155] [PASS] LOAD lane=2 addr=0x4a6 data=0x0 exp=0x0 op=0x5 R:96 W:0
# [7165] [PASS] STORE lane=3 addr=0xa8 data=0xcc538823 op=0x9 R:97 W:0
# [7305] [PASS] LOAD lane=1 addr=0x5e0 data=0x0 exp=0x0 op=0x2 R:98 W:0
# [7425] [PASS] LOAD lane=0 addr=0xc9c data=0x0 exp=0x0 op=0x2 R:99 W:0
# [7435] [PASS] STORE lane=1 addr=0xb2 data=0xa5664764 op=0x9 R:100 W:0
# [7615] [PASS] LOAD lane=1 addr=0x754 data=0x0 exp=0x0 op=0x5 R:101 W:0
# [7755] [PASS] LOAD lane=0 addr=0x542 data=0x0 exp=0x0 op=0x5 R:102 W:0
# [7855] [PASS] LOAD lane=3 addr=0x22c data=0x0 exp=0x0 op=0x1 R:103 W:0
# [8005] [PASS] LOAD lane=3 addr=0x770 data=0x0 exp=0x0 op=0x2 R:104 W:0
# [8145] [PASS] LOAD lane=2 addr=0x39c data=0x0 exp=0x0 op=0x2 R:105 W:0
# [8155] [PASS] STORE lane=0 addr=0x188 data=0x85bb9e45 op=0x9 R:106 W:0
# [8305] [PASS] LOAD lane=3 addr=0x148 data=0x0 exp=0x0 op=0x0 R:107 W:0
# [8315] [PASS] STORE lane=3 addr=0x22a data=0xfa0e5d83 op=0x8 R:108 W:0
# [8425] [PASS] LOAD lane=1 addr=0x878 data=0x0 exp=0x0 op=0x2 R:109 W:0
# [8435] [PASS] STORE lane=2 addr=0x49e data=0x7f9b89bc op=0x9 R:110 W:0
# [8445] [PASS] STORE lane=0 addr=0x374 data=0x8d9bdc8e op=0x8 R:111 W:0
# [8585] [PASS] LOAD lane=2 addr=0x168 data=0x0 exp=0x0 op=0x1 R:112 W:0
# [8685] [PASS] LOAD lane=0 addr=0x206 data=0x0 exp=0x0 op=0x0 R:113 W:0
# [8825] [PASS] LOAD lane=1 addr=0x71e data=0x0 exp=0x0 op=0x5 R:114 W:0
# [8835] [PASS] STORE lane=1 addr=0x180 data=0xe5ec82c1 op=0x9 R:115 W:0
# [8845] [PASS] STORE lane=2 addr=0xf44 data=0x111c97c5 op=0xa R:116 W:0
# [8955] [PASS] LOAD lane=1 addr=0xa60 data=0x0 exp=0x0 op=0x2 R:117 W:0
# [9035] [PASS] LOAD lane=3 addr=0xcd8 data=0x0 exp=0x0 op=0x2 R:118 W:0
# [9045] [PASS] STORE lane=2 addr=0x828 data=0x5fbc96e9 op=0xa R:119 W:0
# [9135] [PASS] LOAD lane=0 addr=0x275 data=0x0 exp=0x0 op=0x4 R:120 W:0
# [9145] [PASS] STORE lane=2 addr=0x39e data=0xe97209a7 op=0x8 R:121 W:0
# [9155] [PASS] STORE lane=3 addr=0x290 data=0x24caf4be op=0xa R:122 W:0
# [9165] [PASS] STORE lane=0 addr=0x177 data=0x1b91d171 op=0x8 R:123 W:0
# [9315] [PASS] LOAD lane=0 addr=0xa7c data=0x0 exp=0x0 op=0x2 R:124 W:0
# [9435] [PASS] LOAD lane=2 addr=0xf60 data=0x0 exp=0x0 op=0x2 R:125 W:0
# [9675] [PASS] LOAD lane=1 addr=0xe1c data=0x0 exp=0x0 op=0x2 R:126 W:0
# [9825] [PASS] LOAD lane=0 addr=0x38c data=0x0 exp=0x0 op=0x2 R:127 W:0
# [9935] [PASS] LOAD lane=3 addr=0x21b data=0x0 exp=0x0 op=0x4 R:128 W:0
# [10075] [PASS] LOAD lane=2 addr=0x21c data=0x0 exp=0x0 op=0x4 R:129 W:0
# [10085] [PASS] STORE lane=3 addr=0x78c data=0x8867f8d6 op=0x9 R:130 W:0
# [10245] [PASS] LOAD lane=0 addr=0x474 data=0x0 exp=0x0 op=0x5 R:131 W:0
# [10255] [PASS] STORE lane=2 addr=0x854 data=0x1f7ec084 op=0xa R:132 W:0
# [10315] [PASS] LOAD lane=3 addr=0x32c data=0x0 exp=0x0 op=0x5 R:133 W:0
# [10405] [PASS] LOAD lane=2 addr=0x7fe data=0x0 exp=0x0 op=0x1 R:134 W:0
# [10415] [PASS] STORE lane=2 addr=0x1b8 data=0x3a0fd4ce op=0x9 R:135 W:0
# [10565] [PASS] LOAD lane=2 addr=0x361 data=0x0 exp=0x0 op=0x0 R:136 W:0
# [10655] [PASS] LOAD lane=2 addr=0x5a4 data=0x0 exp=0x0 op=0x2 R:137 W:0
# [10735] [PASS] LOAD lane=1 addr=0x5a data=0x0 exp=0x0 op=0x4 R:138 W:0
# [10745] [PASS] STORE lane=0 addr=0x364 data=0xe9061033 op=0xa R:139 W:0
# [10755] [PASS] STORE lane=2 addr=0x536 data=0x5db82b31 op=0x9 R:140 W:0
# [10905] [PASS] LOAD lane=1 addr=0x420 data=0x0 exp=0x0 op=0x1 R:141 W:0
# [10915] [PASS] STORE lane=3 addr=0x868 data=0xd7a3a560 op=0xa R:142 W:0
# [11065] [PASS] LOAD lane=2 addr=0x5dc data=0x0 exp=0x0 op=0x1 R:143 W:0
# [11145] [PASS] LOAD lane=2 addr=0x2a6 data=0x0 exp=0x0 op=0x4 R:144 W:0
# [11215] [PASS] LOAD lane=1 addr=0xe0c data=0x0 exp=0x0 op=0x2 R:145 W:0
# [11285] [PASS] LOAD lane=0 addr=0x280 data=0x0 exp=0x0 op=0x0 R:146 W:0
# [11295] [PASS] STORE lane=2 addr=0x8fc data=0x36c33f36 op=0xa R:147 W:0
# [11455] [PASS] LOAD lane=3 addr=0x7fc data=0x0 exp=0x0 op=0x1 R:148 W:0
# [11565] [PASS] LOAD lane=0 addr=0x10c data=0x80 exp=0x80 op=0x1 R:149 W:0
# [11575] [PASS] STORE lane=3 addr=0x1f data=0xc8b20a9f op=0x8 R:150 W:0
# [11715] [PASS] LOAD lane=1 addr=0xac data=0x0 exp=0x0 op=0x2 R:151 W:0
# [11865] [PASS] LOAD lane=0 addr=0x10 data=0x0 exp=0x0 op=0x1 R:152 W:0
# [12015] [PASS] LOAD lane=3 addr=0x7e0 data=0x0 exp=0x0 op=0x5 R:153 W:0
# [12025] [PASS] STORE lane=2 addr=0x520 data=0x24d69b94 op=0x9 R:154 W:0
# [12035] [PASS] STORE lane=1 addr=0x364 data=0x1ef65412 op=0x9 R:155 W:0
# [12045] [PASS] STORE lane=2 addr=0x370 data=0x7056910a op=0xa R:156 W:0
# [12055] [PASS] STORE lane=0 addr=0xbe0 data=0x2720a24b op=0xa R:157 W:0
# [12215] [PASS] LOAD lane=2 addr=0x5e data=0x0 exp=0x0 op=0x1 R:158 W:0
# [12295] [PASS] LOAD lane=3 addr=0x314 data=0x0 exp=0x0 op=0x4 R:159 W:0
# [12435] [PASS] LOAD lane=1 addr=0x343 data=0x0 exp=0x0 op=0x0 R:160 W:0
# [12445] [PASS] STORE lane=3 addr=0x7ba data=0xb439b43e op=0x9 R:161 W:0
# [12455] [PASS] STORE lane=3 addr=0x188 data=0xbb71df49 op=0xa R:162 W:0
# [12465] [PASS] STORE lane=0 addr=0xfb4 data=0x60125857 op=0xa R:163 W:0
# [12485] [PASS] STORE lane=0 addr=0xf8 data=0xe9ceea4b op=0x8 R:164 W:0
# [12615] [PASS] LOAD lane=0 addr=0x14a data=0x0 exp=0x0 op=0x0 R:165 W:0
# [12625] [PASS] STORE lane=3 addr=0x6a data=0x90273277 op=0x8 R:166 W:0
# [12635] [PASS] STORE lane=0 addr=0x834 data=0xd8597605 op=0xa R:167 W:0
# [12795] [PASS] LOAD lane=0 addr=0x6a0 data=0x0 exp=0x0 op=0x5 R:168 W:0
# [12805] [PASS] STORE lane=0 addr=0x7ac data=0xda88e163 op=0x9 R:169 W:0
# [12895] [PASS] LOAD lane=0 addr=0xda8 data=0x0 exp=0x0 op=0x2 R:170 W:0
# [13045] [PASS] LOAD lane=3 addr=0x101 data=0xffffffbe exp=0xffffffbe op=0x0 R:171 W:0
# [13055] [PASS] STORE lane=0 addr=0x280 data=0x94ab39a4 op=0x9 R:172 W:0
# [13185] [PASS] LOAD lane=0 addr=0x1b6 data=0x0 exp=0x0 op=0x0 R:173 W:0
# [13305] [PASS] LOAD lane=2 addr=0x26c data=0x0 exp=0x0 op=0x1 R:174 W:0
# [13315] [PASS] STORE lane=3 addr=0x26c data=0x425888af op=0x8 R:175 W:0
# [13415] [PASS] LOAD lane=2 addr=0x1e6 data=0xab exp=0xab op=0x1 R:176 W:0
# [13425] [PASS] STORE lane=0 addr=0x8f data=0xac412d62 op=0x8 R:177 W:0
# [13435] [PASS] STORE lane=2 addr=0x48 data=0xa32c4ed5 op=0x9 R:178 W:0
# [13445] [PASS] STORE lane=2 addr=0xfd4 data=0xd6b51d32 op=0xa R:179 W:0
# [13605] [PASS] LOAD lane=3 addr=0x97 data=0x0 exp=0x0 op=0x4 R:180 W:0
# [13715] [PASS] LOAD lane=0 addr=0x22c data=0x0 exp=0x0 op=0x0 R:181 W:0
# [13725] [PASS] STORE lane=1 addr=0x60 data=0x66692267 op=0x8 R:182 W:0
# [13735] [PASS] STORE lane=2 addr=0x6fe data=0x5435faa5 op=0x9 R:183 W:0
# [13745] [PASS] STORE lane=1 addr=0x710 data=0x431db9ec op=0xa R:184 W:0
# [13875] [PASS] LOAD lane=0 addr=0x320 data=0x0 exp=0x0 op=0x1 R:185 W:0
# [13885] [PASS] STORE lane=2 addr=0xf4 data=0xd116b5f5 op=0xa R:186 W:0
# [14045] [PASS] LOAD lane=1 addr=0x726 data=0x0 exp=0x0 op=0x5 R:187 W:0
# [14195] [PASS] LOAD lane=1 addr=0x454 data=0x0 exp=0x0 op=0x2 R:188 W:0
# [14305] [PASS] LOAD lane=0 addr=0x472 data=0x0 exp=0x0 op=0x5 R:189 W:0
# [14315] [PASS] STORE lane=1 addr=0x5e6 data=0x93ed85e op=0x9 R:190 W:0
# [14325] [PASS] STORE lane=2 addr=0x74 data=0x1f8db5f2 op=0x8 R:191 W:0
# [14335] [PASS] STORE lane=1 addr=0x458 data=0x48ec2061 op=0x9 R:192 W:0
# [14505] [PASS] LOAD lane=3 addr=0xfa data=0x0 exp=0x0 op=0x5 R:193 W:0
# [14645] [PASS] LOAD lane=2 addr=0x71c data=0x0 exp=0x0 op=0x2 R:194 W:0
# [14655] [PASS] STORE lane=1 addr=0x9f4 data=0xb27dfca3 op=0xa R:195 W:0
# [14745] [PASS] LOAD lane=1 addr=0x32c data=0x0 exp=0x0 op=0x4 R:196 W:0
# [14815] [PASS] LOAD lane=2 addr=0x606 data=0x0 exp=0x0 op=0x5 R:197 W:0
# [14885] [PASS] LOAD lane=0 addr=0x5a4 data=0x0 exp=0x0 op=0x2 R:198 W:0
# [14895] [PASS] STORE lane=0 addr=0x656 data=0xe67cf236 op=0x9 R:199 W:0
# [15025] [PASS] LOAD lane=3 addr=0x61e data=0x0 exp=0x0 op=0x5 R:200 W:0
# [15145] [PASS] LOAD lane=1 addr=0x488 data=0x0 exp=0x0 op=0x5 R:201 W:0
# [15155] [PASS] STORE lane=3 addr=0xc14 data=0x5a553a30 op=0xa R:202 W:0
# [15215] [PASS] LOAD lane=3 addr=0x3c6 data=0x0 exp=0x0 op=0x4 R:203 W:0
# [15295] [PASS] LOAD lane=3 addr=0xfd data=0x0 exp=0x0 op=0x0 R:204 W:0
# [15305] [PASS] STORE lane=3 addr=0xd30 data=0xf34d9905 op=0xa R:205 W:0
# [15395] [PASS] LOAD lane=1 addr=0x167 data=0x0 exp=0x0 op=0x4 R:206 W:0
# [15475] [PASS] LOAD lane=1 addr=0x11b data=0x0 exp=0x0 op=0x0 R:207 W:0
# [15485] [PASS] STORE lane=1 addr=0x306 data=0xc61b2ae op=0x9 R:208 W:0
# [15655] [PASS] LOAD lane=2 addr=0xae data=0x0 exp=0x0 op=0x5 R:209 W:0
# [15665] [PASS] STORE lane=3 addr=0x36c data=0xe702cea2 op=0x8 R:210 W:0
# [15675] [PASS] STORE lane=3 addr=0x278 data=0xad6c9564 op=0x9 R:211 W:0
# [15815] [PASS] LOAD lane=3 addr=0x7e data=0x0 exp=0x0 op=0x0 R:212 W:0
# [15875] [PASS] LOAD lane=1 addr=0x213 data=0x0 exp=0x0 op=0x4 R:213 W:0
# [15965] [PASS] LOAD lane=0 addr=0x604 data=0x0 exp=0x0 op=0x2 R:214 W:0
# [16085] [PASS] LOAD lane=1 addr=0xfd data=0x0 exp=0x0 op=0x4 R:215 W:0
# [16225] [PASS] LOAD lane=3 addr=0x210 data=0xffffbc00 exp=0xffffbc00 op=0x1 R:216 W:0
# [16235] [PASS] STORE lane=3 addr=0x200 data=0xb1111518 op=0x8 R:217 W:0
# [16245] [PASS] STORE lane=1 addr=0x343 data=0x1286b287 op=0x8 R:218 W:0
# [16255] [PASS] STORE lane=1 addr=0x642 data=0xa3a3d865 op=0x9 R:219 W:0
# [16265] [PASS] STORE lane=3 addr=0x798 data=0x24ea256f op=0xa R:220 W:0
# [16275] [PASS] STORE lane=1 addr=0x5 data=0x6f37be7b op=0x8 R:221 W:0
# [16285] [PASS] STORE lane=3 addr=0x79c data=0xce185875 op=0xa R:222 W:0
# [16455] [PASS] LOAD lane=2 addr=0xa60 data=0x0 exp=0x0 op=0x2 R:223 W:0
# [16535] [PASS] LOAD lane=0 addr=0x3cc data=0x0 exp=0x0 op=0x4 R:224 W:0
# [16605] [PASS] LOAD lane=0 addr=0x3d8 data=0x0 exp=0x0 op=0x4 R:225 W:0
# [16615] [PASS] STORE lane=1 addr=0x284 data=0xcfac89cd op=0x9 R:226 W:0
# [16625] [PASS] STORE lane=3 addr=0x1ec data=0xce61eb28 op=0x9 R:227 W:0
# [16735] [PASS] LOAD lane=1 addr=0x3d9 data=0x0 exp=0x0 op=0x4 R:228 W:0
# [16815] [PASS] LOAD lane=0 addr=0x44c data=0x0 exp=0x0 op=0x2 R:229 W:0
# [16955] [PASS] LOAD lane=0 addr=0x12b data=0x0 exp=0x0 op=0x0 R:230 W:0
# [17055] [PASS] LOAD lane=3 addr=0x840 data=0x0 exp=0x0 op=0x2 R:231 W:0
# [17165] [PASS] LOAD lane=0 addr=0x69e data=0x0 exp=0x0 op=0x5 R:232 W:0
# [17275] [PASS] LOAD lane=0 addr=0x26a data=0x0 exp=0x0 op=0x0 R:233 W:0
# [17345] [PASS] LOAD lane=3 addr=0x343 data=0x87 exp=0x87 op=0x4 R:234 W:0
# [17355] [PASS] STORE lane=0 addr=0x2ac data=0x5bde06ce op=0xa R:235 W:0
# [17425] [PASS] LOAD lane=1 addr=0x10c data=0x80 exp=0x80 op=0x1 R:236 W:0
# [17545] [PASS] LOAD lane=0 addr=0x386 data=0x0 exp=0x0 op=0x5 R:237 W:0
# [17615] [PASS] LOAD lane=0 addr=0x1a8 data=0x0 exp=0x0 op=0x2 R:238 W:0
# [17745] [PASS] LOAD lane=0 addr=0xcf0 data=0x0 exp=0x0 op=0x2 R:239 W:0
# [17885] [PASS] LOAD lane=1 addr=0x5b data=0x0 exp=0x0 op=0x0 R:240 W:0
# [17895] [PASS] STORE lane=1 addr=0x3e4 data=0xfafbc50 op=0x9 R:241 W:0
# [17905] [PASS] STORE lane=0 addr=0xc48 data=0x23c43408 op=0xa R:242 W:0
# [17915] [PASS] STORE lane=0 addr=0x138 data=0x7b382273 op=0xa R:243 W:0
# [18105] [PASS] LOAD lane=1 addr=0x5a0 data=0x0 exp=0x0 op=0x1 R:244 W:0
# [18165] [PASS] STORE lane=2 addr=0xde data=0x9fa349b3 op=0x8 R:245 W:0
# [18295] [PASS] LOAD lane=1 addr=0x92 data=0x0 exp=0x0 op=0x1 R:246 W:0
# [18445] [PASS] LOAD lane=1 addr=0x2c8 data=0xffffffcd exp=0xffffffcd op=0x0 R:247 W:0
# [18455] [PASS] STORE lane=3 addr=0x245 data=0xb6857872 op=0x8 R:248 W:0
# [18555] [PASS] LOAD lane=1 addr=0x4f4 data=0x0 exp=0x0 op=0x5 R:249 W:0
# [18625] [PASS] LOAD lane=3 addr=0x3d5 data=0x0 exp=0x0 op=0x0 R:250 W:0
# [18635] [PASS] STORE lane=3 addr=0x57 data=0xd99c4ddf op=0x8 R:251 W:0
# [18645] [PASS] STORE lane=0 addr=0x3c data=0x864b9bfa op=0x8 R:252 W:0
# [18735] [PASS] LOAD lane=3 addr=0x3f7 data=0x0 exp=0x0 op=0x4 R:253 W:0
# [18865] [PASS] LOAD lane=3 addr=0x678 data=0x0 exp=0x0 op=0x1 R:254 W:0
# [18875] [PASS] STORE lane=3 addr=0xe4 data=0x97cb1371 op=0x8 R:255 W:0
# [18885] [PASS] STORE lane=0 addr=0xea data=0xc2d10397 op=0x9 R:256 W:0
# [19015] [PASS] LOAD lane=3 addr=0x86 data=0x0 exp=0x0 op=0x5 R:257 W:0
# [19145] [PASS] LOAD lane=1 addr=0x460 data=0x0 exp=0x0 op=0x5 R:258 W:0
# [19155] [PASS] STORE lane=0 addr=0x72e data=0x65970ef0 op=0x9 R:259 W:0
# [19255] [PASS] LOAD lane=3 addr=0x36c data=0xa2 exp=0xa2 op=0x5 R:260 W:0
# [19265] [PASS] STORE lane=1 addr=0x588 data=0x637ba75b op=0x9 R:261 W:0
# [19415] [PASS] LOAD lane=1 addr=0x490 data=0x0 exp=0x0 op=0x5 R:262 W:0
# [19425] [PASS] STORE lane=0 addr=0x15c data=0xcbd579a6 op=0x8 R:263 W:0
# [19545] [PASS] LOAD lane=3 addr=0x760 data=0x0 exp=0x0 op=0x5 R:264 W:0
# [19555] [PASS] STORE lane=0 addr=0x14 data=0xb5288787 op=0xa R:265 W:0
# [19565] [PASS] STORE lane=3 addr=0xe30 data=0x5519db4a op=0xa R:266 W:0
# [19575] [PASS] STORE lane=3 addr=0x380 data=0xa10e76c op=0x8 R:267 W:0
# [19715] [PASS] LOAD lane=0 addr=0x364 data=0x12 exp=0x12 op=0x4 R:268 W:0
# [19865] [PASS] LOAD lane=3 addr=0x4ac data=0x0 exp=0x0 op=0x2 R:269 W:0
# [19965] [PASS] LOAD lane=3 addr=0x3e0 data=0x0 exp=0x0 op=0x5 R:270 W:0
# [20105] [PASS] LOAD lane=2 addr=0x274 data=0x0 exp=0x0 op=0x0 R:271 W:0
# [20165] [PASS] LOAD lane=1 addr=0x402 data=0x0 exp=0x0 op=0x1 R:272 W:0
# [20175] [PASS] STORE lane=0 addr=0x7f0 data=0xe85c8c00 op=0xa R:273 W:0
# [20285] [PASS] LOAD lane=2 addr=0xe8 data=0x0 exp=0x0 op=0x0 R:274 W:0
# [20295] [PASS] STORE lane=2 addr=0x500 data=0x2ee7223c op=0x9 R:275 W:0
