out_regression_20seed/seed_19.log
Reading pref.tcl

# 2021.1

# vsim -c work_regression.lsu_slice_tb_v2 -sv_seed 19 "+SEED=19" "+NUM_OPS=500" -do "run -all; quit -f" 
# Start time: 04:17:42 on Jun 22,2026
# ** Note: (vsim-8009) Loading existing optimized design _opt
# //  Questa Sim-64
# //  Version 2021.1 win64 Jan 19 2021
# //
# //  Copyright 1991-2021 Mentor Graphics Corporation
# //  All Rights Reserved.
# //
# //  QuestaSim and its associated documentation contain trade
# //  secrets and commercial or financial information that are the property of
# //  Mentor Graphics Corporation and are privileged, confidential,
# //  and exempt from disclosure under the Freedom of Information Act,
# //  5 U.S.C. Section 552. Furthermore, this information
# //  is prohibited from disclosure under the Trade Secrets Act,
# //  18 U.S.C. Section 1905.
# //
# Loading sv_std.std
# Loading work.VX_gpu_pkg(fast)
# Loading work.lsu_sequence_item_pkg(fast)
# Loading work.lsu_scoreboard_pkg(fast)
# Loading work.lsu_monitor_pkg(fast)
# Loading work.vx_lsu_slice_tb_v2_sv_unit(fast)
# Loading work.lsu_slice_tb_v2(fast)
# Loading work.VX_lsu_slice(fast)
# Loading work.VX_elastic_buffer(fast__3)
# Loading work.VX_elastic_buffer(fast__4)
# Loading work.VX_stream_arb(fast)
# Loading work.lsu_mem_model_rand_sv_unit(fast)
# Loading work.lsu_mem_model_rand(fast)
# run -all
# [75] [PASS] STORE lane=0 addr=0x100 data=0xdeadbeef op=0xa R:1 W:0
# [225] [PASS] LOAD lane=0 addr=0x100 data=0xdeadbeef exp=0xdeadbeef op=0x2 R:2 W:0
# [235] [PASS] STORE lane=1 addr=0x108 data=0x8001 op=0x9 R:3 W:0
# [315] [PASS] LOAD lane=1 addr=0x108 data=0xffff8001 exp=0xffff8001 op=0x1 R:4 W:0
# [375] [PASS] LOAD lane=1 addr=0x108 data=0x8001 exp=0x8001 op=0x5 R:5 W:0
# [385] [PASS] STORE lane=2 addr=0x10c data=0x80 op=0x8 R:6 W:0
# [495] [PASS] LOAD lane=2 addr=0x10c data=0xffffff80 exp=0xffffff80 op=0x0 R:7 W:0
# [575] [PASS] LOAD lane=2 addr=0x10c data=0x80 exp=0x80 op=0x4 R:8 W:0
# [585] [PASS] STORE lane=3 addr=0x3f8 data=0xa5a5a5a5 op=0xa R:9 W:0
# [725] [PASS] LOAD lane=3 addr=0x3f8 data=0xa5a5a5a5 exp=0xa5a5a5a5 op=0x2 R:10 W:0
# [735] [PASS] STORE lane=0 addr=0x3fc data=0xf00f op=0x9 R:11 W:0
# [815] [PASS] LOAD lane=0 addr=0x3fc data=0xfffff00f exp=0xfffff00f op=0x1 R:12 W:0
# [825] [PASS] STORE lane=1 addr=0x3ff data=0xff op=0x8 R:13 W:0
# [985] [PASS] LOAD lane=1 addr=0x3ff data=0xff exp=0xff op=0x4 R:14 W:0
# [995] [PASS] STORE lane=0 addr=0x500 data=0x11110000 op=0xa R:15 W:0
# [1105] [PASS] LOAD lane=0 addr=0x500 data=0x11110000 exp=0x11110000 op=0x2 R:16 W:0
# [1115] [PASS] STORE lane=0 addr=0x502 data=0x8080 op=0x9 R:17 W:0
# [1225] [PASS] LOAD lane=0 addr=0x502 data=0xffff8080 exp=0xffff8080 op=0x1 R:18 W:0
# [1355] [PASS] LOAD lane=0 addr=0x502 data=0x8080 exp=0x8080 op=0x5 R:19 W:0
# [1365] [PASS] STORE lane=0 addr=0x501 data=0x80 op=0x8 R:20 W:0
# [1425] [PASS] LOAD lane=0 addr=0x501 data=0xffffff80 exp=0xffffff80 op=0x0 R:21 W:0
# [1495] [PASS] LOAD lane=0 addr=0x501 data=0x80 exp=0x80 op=0x4 R:22 W:0
# [1505] [PASS] STORE lane=1 addr=0x510 data=0x10100101 op=0xa R:23 W:0
# [1565] [PASS] LOAD lane=1 addr=0x510 data=0x10100101 exp=0x10100101 op=0x2 R:24 W:0
# [1575] [PASS] STORE lane=1 addr=0x512 data=0x8081 op=0x9 R:25 W:0
# [1645] [PASS] LOAD lane=1 addr=0x512 data=0xffff8081 exp=0xffff8081 op=0x1 R:26 W:0
# [1725] [PASS] LOAD lane=1 addr=0x512 data=0x8081 exp=0x8081 op=0x5 R:27 W:0
# [1735] [PASS] STORE lane=1 addr=0x511 data=0x81 op=0x8 R:28 W:0
# [1845] [PASS] LOAD lane=1 addr=0x511 data=0xffffff81 exp=0xffffff81 op=0x0 R:29 W:0
# [1915] [PASS] LOAD lane=1 addr=0x511 data=0x81 exp=0x81 op=0x4 R:30 W:0
# [1925] [PASS] STORE lane=2 addr=0x520 data=0x13130202 op=0xa R:31 W:0
# [2015] [PASS] LOAD lane=2 addr=0x520 data=0x13130202 exp=0x13130202 op=0x2 R:32 W:0
# [2025] [PASS] STORE lane=2 addr=0x522 data=0x8082 op=0x9 R:33 W:0
# [2145] [PASS] LOAD lane=2 addr=0x522 data=0xffff8082 exp=0xffff8082 op=0x1 R:34 W:0
# [2215] [PASS] LOAD lane=2 addr=0x522 data=0x8082 exp=0x8082 op=0x5 R:35 W:0
# [2225] [PASS] STORE lane=2 addr=0x521 data=0x82 op=0x8 R:36 W:0
# [2345] [PASS] LOAD lane=2 addr=0x521 data=0xffffff82 exp=0xffffff82 op=0x0 R:37 W:0
# [2445] [PASS] LOAD lane=2 addr=0x521 data=0x82 exp=0x82 op=0x4 R:38 W:0
# [2455] [PASS] STORE lane=3 addr=0x530 data=0x12120303 op=0xa R:39 W:0
# [2565] [PASS] LOAD lane=3 addr=0x530 data=0x12120303 exp=0x12120303 op=0x2 R:40 W:0
# [2575] [PASS] STORE lane=3 addr=0x532 data=0x8083 op=0x9 R:41 W:0
# [2635] [PASS] LOAD lane=3 addr=0x532 data=0xffff8083 exp=0xffff8083 op=0x1 R:42 W:0
# [2755] [PASS] LOAD lane=3 addr=0x532 data=0x8083 exp=0x8083 op=0x5 R:43 W:0
# [2765] [PASS] STORE lane=3 addr=0x531 data=0x83 op=0x8 R:44 W:0
# [2885] [PASS] LOAD lane=3 addr=0x531 data=0xffffff83 exp=0xffffff83 op=0x0 R:45 W:0
# [2985] [PASS] LOAD lane=3 addr=0x531 data=0x83 exp=0x83 op=0x4 R:46 W:0
# [2995] [PASS] STORE lane=0 addr=0x700 data=0xa5000000 op=0xa R:47 W:0
# [3155] [PASS] LOAD lane=0 addr=0x700 data=0xa5000000 exp=0xa5000000 op=0x2 R:48 W:0
# [3165] [PASS] STORE lane=0 addr=0x700 data=0x5a000000 op=0xa R:49 W:0
# [3295] [PASS] LOAD lane=0 addr=0x700 data=0x5a000000 exp=0x5a000000 op=0x2 R:50 W:0
# [3305] [PASS] STORE lane=1 addr=0x708 data=0xa5000001 op=0xa R:51 W:0
# [3485] [PASS] LOAD lane=1 addr=0x708 data=0xa5000001 exp=0xa5000001 op=0x2 R:52 W:0
# [3495] [PASS] STORE lane=1 addr=0x708 data=0x5a000001 op=0xa R:53 W:0
# [3745] [PASS] LOAD lane=1 addr=0x708 data=0x5a000001 exp=0x5a000001 op=0x2 R:54 W:0
# [3755] [PASS] STORE lane=2 addr=0x710 data=0xa5000002 op=0xa R:55 W:0
# [3945] [PASS] LOAD lane=2 addr=0x710 data=0xa5000002 exp=0xa5000002 op=0x2 R:56 W:0
# [3955] [PASS] STORE lane=2 addr=0x710 data=0x5a000002 op=0xa R:57 W:0
# [4145] [PASS] LOAD lane=2 addr=0x710 data=0x5a000002 exp=0x5a000002 op=0x2 R:58 W:0
# [4155] [PASS] STORE lane=3 addr=0x718 data=0xa5000003 op=0xa R:59 W:0
# [4385] [PASS] LOAD lane=3 addr=0x718 data=0xa5000003 exp=0xa5000003 op=0x2 R:60 W:0
# [4395] [PASS] STORE lane=3 addr=0x718 data=0x5a000003 op=0xa R:61 W:0
# [4595] [PASS] LOAD lane=3 addr=0x718 data=0x5a000003 exp=0x5a000003 op=0x2 R:62 W:0
# [4685] [PASS] LOAD lane=1 addr=0x47 data=0x0 exp=0x0 op=0x0 R:63 W:0
# [4695] [PASS] STORE lane=2 addr=0x5f4 data=0x73ad0266 op=0x9 R:64 W:0
# [4775] [PASS] LOAD lane=0 addr=0x6fa data=0x0 exp=0x0 op=0x5 R:65 W:0
# [4785] [PASS] STORE lane=1 addr=0x6d8 data=0x592e7233 op=0x9 R:66 W:0
# [4795] [PASS] STORE lane=2 addr=0xc5 data=0x21e2ae7e op=0x8 R:67 W:0
# [4875] [PASS] LOAD lane=1 addr=0x19c data=0x0 exp=0x0 op=0x2 R:68 W:0
# [5005] [PASS] LOAD lane=2 addr=0x37c data=0x0 exp=0x0 op=0x0 R:69 W:0
# [5115] [PASS] LOAD lane=1 addr=0x25c data=0x0 exp=0x0 op=0x5 R:70 W:0
# [5125] [PASS] STORE lane=2 addr=0x804 data=0xe245311e op=0xa R:71 W:0
# [5135] [PASS] STORE lane=2 addr=0xca data=0x17004e50 op=0x9 R:72 W:0
# [5145] [PASS] STORE lane=3 addr=0xb2c data=0x37c2a802 op=0xa R:73 W:0
# [5245] [PASS] LOAD lane=0 addr=0x274 data=0x0 exp=0x0 op=0x4 R:74 W:0
# [5395] [PASS] LOAD lane=1 addr=0xf8 data=0x0 exp=0x0 op=0x5 R:75 W:0
# [5495] [PASS] LOAD lane=3 addr=0x79e data=0x0 exp=0x0 op=0x5 R:76 W:0
# [5505] [PASS] STORE lane=2 addr=0x3d0 data=0xef8184a3 op=0x9 R:77 W:0
# [5635] [PASS] LOAD lane=2 addr=0x734 data=0x0 exp=0x0 op=0x5 R:78 W:0
# [5645] [PASS] STORE lane=3 addr=0x262 data=0xb54d2b41 op=0x9 R:79 W:0
# [5765] [PASS] LOAD lane=1 addr=0x1f0 data=0x0 exp=0x0 op=0x0 R:80 W:0
# [5775] [PASS] STORE lane=3 addr=0xbe0 data=0x5ce24671 op=0xa R:81 W:0
# [5785] [PASS] STORE lane=1 addr=0x38e data=0x575a1ef9 op=0x8 R:82 W:0
# [5935] [PASS] LOAD lane=3 addr=0x45a data=0x0 exp=0x0 op=0x5 R:83 W:0
# [5945] [PASS] STORE lane=1 addr=0x794 data=0x532478a op=0xa R:84 W:0
# [6085] [PASS] LOAD lane=2 addr=0x68e data=0x0 exp=0x0 op=0x5 R:85 W:0
# [6095] [PASS] STORE lane=0 addr=0x240 data=0x613ffd6f op=0xa R:86 W:0
# [6245] [PASS] LOAD lane=1 addr=0x22b data=0x0 exp=0x0 op=0x4 R:87 W:0
# [6255] [PASS] STORE lane=1 addr=0xe2 data=0xc542fe6b op=0x8 R:88 W:0
# [6405] [PASS] LOAD lane=2 addr=0x9a data=0x0 exp=0x0 op=0x0 R:89 W:0
# [6415] [PASS] STORE lane=1 addr=0x706 data=0x637fcb15 op=0x9 R:90 W:0
# [6425] [PASS] STORE lane=1 addr=0x15c data=0x363f8ac0 op=0xa R:91 W:0
# [6435] [PASS] STORE lane=3 addr=0x59c data=0x336ec759 op=0x9 R:92 W:0
# [6445] [PASS] STORE lane=2 addr=0xd94 data=0xd2169878 op=0xa R:93 W:0
# [6585] [PASS] LOAD lane=0 addr=0x61c data=0x0 exp=0x0 op=0x2 R:94 W:0
# [6645] [PASS] LOAD lane=1 addr=0x4e6 data=0x0 exp=0x0 op=0x5 R:95 W:0
# [6725] [PASS] LOAD lane=3 addr=0xae data=0x0 exp=0x0 op=0x4 R:96 W:0
# [6815] [PASS] LOAD lane=2 addr=0x120 data=0x0 exp=0x0 op=0x5 R:97 W:0
# [6825] [PASS] STORE lane=2 addr=0x34c data=0xa0078a55 op=0x9 R:98 W:0
# [6835] [PASS] STORE lane=3 addr=0x117 data=0x10b2c50d op=0x8 R:99 W:0
# [6935] [PASS] LOAD lane=1 addr=0x2e2 data=0x0 exp=0x0 op=0x0 R:100 W:0
# [6945] [PASS] STORE lane=1 addr=0x322 data=0x96183afb op=0x9 R:101 W:0
# [7065] [PASS] STORE lane=0 addr=0x420 data=0xf0da01f8 op=0x9 R:102 W:0
# [7215] [PASS] LOAD lane=0 addr=0x606 data=0x0 exp=0x0 op=0x1 R:103 W:0
# [7225] [PASS] STORE lane=0 addr=0x1c6 data=0x2e20a81c op=0x9 R:104 W:0
# [7235] [PASS] STORE lane=1 addr=0x224 data=0xc7d28856 op=0x8 R:105 W:0
# [7415] [PASS] LOAD lane=2 addr=0x183 data=0x0 exp=0x0 op=0x0 R:106 W:0
# [7555] [PASS] LOAD lane=3 addr=0x2ee data=0x0 exp=0x0 op=0x5 R:107 W:0
# [7565] [PASS] STORE lane=1 addr=0x4b0 data=0x26717256 op=0xa R:108 W:0
# [7695] [PASS] LOAD lane=2 addr=0xe4 data=0x0 exp=0x0 op=0x5 R:109 W:0
# [7705] [PASS] STORE lane=1 addr=0x3dc data=0x52531f6d op=0x9 R:110 W:0
# [7715] [PASS] STORE lane=0 addr=0x246 data=0x8ac5aaa op=0x8 R:111 W:0
# [7725] [PASS] STORE lane=2 addr=0xfe4 data=0xd541026c op=0xa R:112 W:0
# [7735] [PASS] STORE lane=2 addr=0x212 data=0x65899a09 op=0x9 R:113 W:0
# [7875] [PASS] LOAD lane=0 addr=0x62e data=0x0 exp=0x0 op=0x5 R:114 W:0
# [7945] [PASS] LOAD lane=2 addr=0x279 data=0x0 exp=0x0 op=0x0 R:115 W:0
# [7955] [PASS] STORE lane=2 addr=0xe20 data=0x1101f560 op=0xa R:116 W:0
# [8075] [PASS] LOAD lane=1 addr=0x243 data=0x61 exp=0x61 op=0x4 R:117 W:0
# [8085] [PASS] STORE lane=3 addr=0xb0 data=0x6e0f2521 op=0xa R:118 W:0
# [8215] [PASS] LOAD lane=0 addr=0x894 data=0x0 exp=0x0 op=0x2 R:119 W:0
# [8325] [PASS] LOAD lane=1 addr=0x240 data=0x613ffd6f exp=0x613ffd6f op=0x2 R:120 W:0
# [8335] [PASS] STORE lane=0 addr=0xf0 data=0xd786bc1c op=0x9 R:121 W:0
# [8485] [PASS] LOAD lane=0 addr=0x195 data=0x0 exp=0x0 op=0x4 R:122 W:0
# [8495] [PASS] STORE lane=0 addr=0xef8 data=0xee4d814c op=0xa R:123 W:0
# [8585] [PASS] LOAD lane=2 addr=0x604 data=0x0 exp=0x0 op=0x1 R:124 W:0
# [8745] [PASS] LOAD lane=3 addr=0x2bd data=0x0 exp=0x0 op=0x4 R:125 W:0
# [8755] [PASS] STORE lane=0 addr=0x376 data=0x6b104163 op=0x9 R:126 W:0
# [8765] [PASS] STORE lane=1 addr=0x718 data=0xfef42a8d op=0x9 R:127 W:0
# [8785] [PASS] STORE lane=2 addr=0x135 data=0xa5be7b36 op=0x8 R:128 W:0
# [8925] [PASS] LOAD lane=0 addr=0x39e data=0x0 exp=0x0 op=0x1 R:129 W:0
# [9075] [PASS] LOAD lane=0 addr=0x4f data=0x0 exp=0x0 op=0x0 R:130 W:0
# [9215] [PASS] LOAD lane=3 addr=0x3eb data=0x0 exp=0x0 op=0x0 R:131 W:0
# [9225] [PASS] STORE lane=3 addr=0x270 data=0xe9b6e029 op=0x9 R:132 W:0
# [9315] [PASS] LOAD lane=0 addr=0xa0c data=0x0 exp=0x0 op=0x2 R:133 W:0
# [9445] [PASS] STORE lane=1 addr=0xa50 data=0xc6c82739 op=0xa R:134 W:0
# [9555] [PASS] LOAD lane=1 addr=0x371 data=0x0 exp=0x0 op=0x4 R:135 W:0
# [9565] [PASS] STORE lane=0 addr=0xba data=0x163dc8cc op=0x8 R:136 W:0
# [9575] [PASS] STORE lane=1 addr=0x512 data=0x9c756fa0 op=0x9 R:137 W:0
# [9645] [PASS] LOAD lane=3 addr=0x65e data=0x0 exp=0x0 op=0x5 R:138 W:0
# [9745] [PASS] LOAD lane=3 addr=0x29d data=0x0 exp=0x0 op=0x0 R:139 W:0
# [9875] [PASS] LOAD lane=2 addr=0x750 data=0x0 exp=0x0 op=0x1 R:140 W:0
# [10095] [PASS] LOAD lane=0 addr=0x1fa data=0x0 exp=0x0 op=0x0 R:141 W:0
# [10185] [PASS] LOAD lane=2 addr=0x35 data=0x0 exp=0x0 op=0x4 R:142 W:0
# [10195] [PASS] STORE lane=1 addr=0x558 data=0xaf7c6525 op=0x9 R:143 W:0
# [10205] [PASS] STORE lane=3 addr=0x18 data=0xa23789a4 op=0x9 R:144 W:0
# [10215] [PASS] STORE lane=3 addr=0x15a data=0x8bc79480 op=0x9 R:145 W:0
# [10315] [PASS] LOAD lane=3 addr=0xd78 data=0x0 exp=0x0 op=0x2 R:146 W:0
# [10395] [PASS] LOAD lane=0 addr=0x27c data=0x0 exp=0x0 op=0x4 R:147 W:0
# [10405] [PASS] STORE lane=0 addr=0x6dc data=0x83450c18 op=0xa R:148 W:0
# [10505] [PASS] LOAD lane=3 addr=0x39 data=0x0 exp=0x0 op=0x4 R:149 W:0
# [10515] [PASS] STORE lane=1 addr=0x890 data=0x9fb34424 op=0xa R:150 W:0
# [10525] [PASS] STORE lane=1 addr=0x30a data=0xe7d85431 op=0x8 R:151 W:0
# [10535] [PASS] STORE lane=2 addr=0xd2 data=0x8103c952 op=0x8 R:152 W:0
# [10545] [PASS] STORE lane=2 addr=0x351 data=0xf0219ec5 op=0x8 R:153 W:0
# [10655] [PASS] LOAD lane=3 addr=0x1a0 data=0x0 exp=0x0 op=0x4 R:154 W:0
# [10795] [PASS] LOAD lane=3 addr=0x61 data=0x0 exp=0x0 op=0x0 R:155 W:0
# [10805] [PASS] STORE lane=2 addr=0x17 data=0x8afe29da op=0x8 R:156 W:0
# [10815] [PASS] STORE lane=1 addr=0x3bc data=0xb8480c20 op=0x8 R:157 W:0
# [10985] [PASS] LOAD lane=1 addr=0x59 data=0x0 exp=0x0 op=0x4 R:158 W:0
# [11045] [PASS] LOAD lane=0 addr=0x64c data=0x0 exp=0x0 op=0x5 R:159 W:0
# [11125] [PASS] LOAD lane=2 addr=0x4bc data=0x0 exp=0x0 op=0x1 R:160 W:0
# [11135] [PASS] STORE lane=1 addr=0x4a2 data=0xca5fda10 op=0x9 R:161 W:0
# [11215] [PASS] LOAD lane=0 addr=0x4d2 data=0x0 exp=0x0 op=0x5 R:162 W:0
# [11305] [PASS] STORE lane=2 addr=0x60 data=0x7619e5c2 op=0x9 R:163 W:0
# [11315] [PASS] STORE lane=2 addr=0x520 data=0xc4308b1c op=0xa R:164 W:0
# [11325] [PASS] STORE lane=3 addr=0x800 data=0x1c730aeb op=0xa R:165 W:0
# [11425] [PASS] LOAD lane=2 addr=0x6ca data=0x0 exp=0x0 op=0x5 R:166 W:0
# [11485] [PASS] LOAD lane=3 addr=0x454 data=0x0 exp=0x0 op=0x5 R:167 W:0
# [11495] [PASS] STORE lane=0 addr=0xbb4 data=0xc0170a32 op=0xa R:168 W:0
# [11655] [PASS] LOAD lane=3 addr=0x7da data=0x0 exp=0x0 op=0x5 R:169 W:0
# [11665] [PASS] STORE lane=1 addr=0xe2 data=0xba2d05d9 op=0x8 R:170 W:0
# [11745] [PASS] LOAD lane=1 addr=0x3bd data=0x0 exp=0x0 op=0x4 R:171 W:0
# [11835] [PASS] LOAD lane=1 addr=0x4d0 data=0x0 exp=0x0 op=0x1 R:172 W:0
# [11985] [PASS] LOAD lane=3 addr=0x3aa data=0x0 exp=0x0 op=0x4 R:173 W:0
# [11995] [PASS] STORE lane=2 addr=0xdd data=0xd598be56 op=0x8 R:174 W:0
# [12105] [PASS] STORE lane=1 addr=0x9c0 data=0x646941a9 op=0xa R:175 W:0
# [12115] [PASS] STORE lane=2 addr=0x241 data=0xf52a92ea op=0x8 R:176 W:0
# [12125] [PASS] STORE lane=0 addr=0x364 data=0x87381785 op=0xa R:177 W:0
# [12135] [PASS] STORE lane=1 addr=0x193 data=0x62d88a88 op=0x8 R:178 W:0
# [12145] [PASS] STORE lane=3 addr=0x546 data=0x3c95e3de op=0x9 R:179 W:0
# [12295] [PASS] LOAD lane=1 addr=0x662 data=0x0 exp=0x0 op=0x5 R:180 W:0
# [12365] [PASS] LOAD lane=0 addr=0x1b3 data=0x0 exp=0x0 op=0x0 R:181 W:0
# [12375] [PASS] STORE lane=2 addr=0x8e data=0x4f1f374e op=0x8 R:182 W:0
# [12505] [PASS] LOAD lane=2 addr=0x480 data=0x0 exp=0x0 op=0x2 R:183 W:0
# [12575] [PASS] LOAD lane=2 addr=0x34c data=0xffff8a55 exp=0xffff8a55 op=0x1 R:184 W:0
# [12585] [PASS] STORE lane=0 addr=0xd3c data=0x2510baca op=0xa R:185 W:0
# [12685] [PASS] LOAD lane=1 addr=0x266 data=0x0 exp=0x0 op=0x5 R:186 W:0
# [12825] [PASS] LOAD lane=3 addr=0x77a data=0x0 exp=0x0 op=0x5 R:187 W:0
# [12835] [PASS] STORE lane=0 addr=0x10e data=0xae959ae0 op=0x8 R:188 W:0
# [12905] [PASS] LOAD lane=1 addr=0x266 data=0x0 exp=0x0 op=0x1 R:189 W:0
# [13055] [PASS] LOAD lane=0 addr=0x3e0 data=0x0 exp=0x0 op=0x1 R:190 W:0
# [13175] [PASS] STORE lane=2 addr=0x1bf data=0xb677cfa4 op=0x8 R:191 W:0
# [13185] [PASS] STORE lane=2 addr=0xef8 data=0xd241a11f op=0xa R:192 W:0
# [13195] [PASS] STORE lane=3 addr=0x7ea data=0x491ee07 op=0x9 R:193 W:0
# [13205] [PASS] STORE lane=2 addr=0x2c8 data=0x64da1de op=0x8 R:194 W:0
# [13275] [PASS] LOAD lane=3 addr=0x288 data=0x0 exp=0x0 op=0x5 R:195 W:0
# [13405] [PASS] LOAD lane=0 addr=0xf94 data=0x0 exp=0x0 op=0x2 R:196 W:0
# [13555] [PASS] LOAD lane=0 addr=0x21 data=0x0 exp=0x0 op=0x4 R:197 W:0
# [13625] [PASS] LOAD lane=0 addr=0x29b data=0x0 exp=0x0 op=0x0 R:198 W:0
# [13765] [PASS] LOAD lane=1 addr=0x1f0 data=0x0 exp=0x0 op=0x0 R:199 W:0
# [13835] [PASS] LOAD lane=0 addr=0x622 data=0x0 exp=0x0 op=0x5 R:200 W:0
# [13945] [PASS] LOAD lane=3 addr=0x138 data=0x0 exp=0x0 op=0x0 R:201 W:0
# [14015] [PASS] LOAD lane=2 addr=0x52e data=0x0 exp=0x0 op=0x1 R:202 W:0
# [14195] [PASS] LOAD lane=0 addr=0x386 data=0x0 exp=0x0 op=0x0 R:203 W:0
# [14305] [PASS] LOAD lane=3 addr=0x323 data=0x3a exp=0x3a op=0x0 R:204 W:0
# [14455] [PASS] LOAD lane=0 addr=0x15a data=0x80 exp=0x80 op=0x4 R:205 W:0
# [14465] [PASS] STORE lane=0 addr=0x2b0 data=0xae7dbd03 op=0x9 R:206 W:0
# [14475] [PASS] STORE lane=2 addr=0x3b3 data=0x48d8cb91 op=0x8 R:207 W:0
# [14645] [PASS] LOAD lane=3 addr=0xd4 data=0x0 exp=0x0 op=0x1 R:208 W:0
# [14705] [PASS] LOAD lane=3 addr=0x494 data=0x0 exp=0x0 op=0x2 R:209 W:0
# [14805] [PASS] LOAD lane=0 addr=0xab data=0x0 exp=0x0 op=0x4 R:210 W:0
# [14905] [PASS] LOAD lane=2 addr=0x6e data=0x0 exp=0x0 op=0x0 R:211 W:0
# [14915] [PASS] STORE lane=2 addr=0xcc data=0xeca6df83 op=0x9 R:212 W:0
# [14985] [PASS] LOAD lane=0 addr=0x39 data=0x0 exp=0x0 op=0x4 R:213 W:0
# [15125] [PASS] LOAD lane=2 addr=0x2fb data=0x0 exp=0x0 op=0x0 R:214 W:0
# [15135] [PASS] STORE lane=1 addr=0x2e2 data=0x85d63299 op=0x8 R:215 W:0
# [15145] [PASS] STORE lane=3 addr=0x14b data=0x3b685767 op=0x8 R:216 W:0
# [15155] [PASS] STORE lane=2 addr=0x31e data=0x13bc2485 op=0x8 R:217 W:0
# [15285] [PASS] LOAD lane=1 addr=0x31a data=0x0 exp=0x0 op=0x4 R:218 W:0
# [15375] [PASS] LOAD lane=2 addr=0x104 data=0x0 exp=0x0 op=0x2 R:219 W:0
# [15385] [PASS] STORE lane=2 addr=0x175 data=0x160d3fbb op=0x8 R:220 W:0
# [15475] [PASS] LOAD lane=3 addr=0x1d7 data=0x0 exp=0x0 op=0x4 R:221 W:0
# [15575] [PASS] LOAD lane=3 addr=0x345 data=0x0 exp=0x0 op=0x4 R:222 W:0
# [15655] [PASS] LOAD lane=2 addr=0x548 data=0x0 exp=0x0 op=0x5 R:223 W:0
# [15665] [PASS] STORE lane=1 addr=0x2ca data=0xc204a5e2 op=0x8 R:224 W:0
# [15675] [PASS] STORE lane=1 addr=0xccc data=0xe656bd3a op=0xa R:225 W:0
# [15815] [PASS] LOAD lane=1 addr=0xc data=0x0 exp=0x0 op=0x4 R:226 W:0
# [15925] [PASS] LOAD lane=2 addr=0x222 data=0x0 exp=0x0 op=0x1 R:227 W:0
# [15935] [PASS] STORE lane=0 addr=0x204 data=0x7008d364 op=0x8 R:228 W:0
# [16015] [PASS] LOAD lane=3 addr=0x178 data=0x0 exp=0x0 op=0x2 R:229 W:0
# [16135] [PASS] LOAD lane=3 addr=0x36a data=0x0 exp=0x0 op=0x5 R:230 W:0
# [16145] [PASS] STORE lane=0 addr=0x6b8 data=0x4cb6c7aa op=0xa R:231 W:0
# [16155] [PASS] STORE lane=0 addr=0x9b8 data=0xb34d972e op=0xa R:232 W:0
# [16235] [PASS] LOAD lane=2 addr=0x172 data=0x0 exp=0x0 op=0x5 R:233 W:0
# [16325] [PASS] LOAD lane=0 addr=0x384 data=0x0 exp=0x0 op=0x5 R:234 W:0
# [16445] [PASS] LOAD lane=3 addr=0x13f data=0x0 exp=0x0 op=0x0 R:235 W:0
# [16565] [PASS] LOAD lane=1 addr=0x10c data=0x80 exp=0x80 op=0x5 R:236 W:0
# [16715] [PASS] LOAD lane=2 addr=0x158 data=0x0 exp=0x0 op=0x0 R:237 W:0
# [16835] [PASS] LOAD lane=3 addr=0x3e2 data=0x0 exp=0x0 op=0x4 R:238 W:0
# [17105] [PASS] STORE lane=3 addr=0x13a data=0xab9a9995 op=0x8 R:239 W:0
# [17115] [PASS] STORE lane=3 addr=0x5e4 data=0x468429eb op=0x9 R:240 W:0
# [17195] [PASS] LOAD lane=1 addr=0x1c4 data=0xa81c0000 exp=0xa81c0000 op=0x2 R:241 W:0
# [17205] [PASS] STORE lane=3 addr=0x94 data=0x837eab81 op=0x8 R:242 W:0
# [17265] [PASS] LOAD lane=1 addr=0x397 data=0x0 exp=0x0 op=0x4 R:243 W:0
# [17275] [PASS] STORE lane=1 addr=0x185 data=0xd7c77a95 op=0x8 R:244 W:0
# [17285] [PASS] STORE lane=0 addr=0x2e5 data=0x2455971b op=0x8 R:245 W:0
# [17365] [PASS] LOAD lane=0 addr=0x206 data=0x0 exp=0x0 op=0x4 R:246 W:0
# [17515] [PASS] LOAD lane=0 addr=0x9e4 data=0x0 exp=0x0 op=0x2 R:247 W:0
# [17665] [PASS] LOAD lane=1 addr=0x7da data=0x0 exp=0x0 op=0x1 R:248 W:0
# [17795] [PASS] LOAD lane=0 addr=0x10c data=0xffffff80 exp=0xffffff80 op=0x0 R:249 W:0
# [17805] [PASS] STORE lane=1 addr=0x788 data=0xd81135e0 op=0x9 R:250 W:0
# [17965] [PASS] LOAD lane=1 addr=0x388 data=0x0 exp=0x0 op=0x0 R:251 W:0
# [17975] [PASS] STORE lane=2 addr=0xe6 data=0xa0391f3 op=0x8 R:252 W:0
# [18075] [PASS] LOAD lane=0 addr=0x5d0 data=0x0 exp=0x0 op=0x1 R:253 W:0
# [18085] [PASS] STORE lane=0 addr=0x12d data=0x3852f35e op=0x8 R:254 W:0
# [18255] [PASS] LOAD lane=0 addr=0x998 data=0x0 exp=0x0 op=0x2 R:255 W:0
# [18265] [PASS] STORE lane=2 addr=0xa64 data=0x7b1ce0ef op=0xa R:256 W:0
# [18385] [PASS] LOAD lane=2 addr=0x4c0 data=0x0 exp=0x0 op=0x5 R:257 W:0
# [18625] [PASS] LOAD lane=3 addr=0x156 data=0x0 exp=0x0 op=0x5 R:258 W:0
# [18635] [PASS] STORE lane=0 addr=0xca data=0x4bb49ee1 op=0x8 R:259 W:0
# [18645] [PASS] STORE lane=0 addr=0xd6c data=0x738b6112 op=0xa R:260 W:0
# [18745] [PASS] LOAD lane=2 addr=0x7c data=0x0 exp=0x0 op=0x5 R:261 W:0
# [18835] [PASS] LOAD lane=3 addr=0x25b data=0x0 exp=0x0 op=0x0 R:262 W:0
# [18845] [PASS] STORE lane=1 addr=0xda0 data=0x6609ef63 op=0xa R:263 W:0
# [18975] [PASS] LOAD lane=1 addr=0x366 data=0x38 exp=0x38 op=0x0 R:264 W:0
# [18985] [PASS] STORE lane=0 addr=0x424 data=0x86b28444 op=0xa R:265 W:0
# [19075] [PASS] LOAD lane=3 addr=0x34a data=0x0 exp=0x0 op=0x5 R:266 W:0
# [19085] [PASS] STORE lane=3 addr=0x5f0 data=0x394d604 op=0x9 R:267 W:0
# [19095] [PASS] STORE lane=1 addr=0x178 data=0xe1ad8d55 op=0xa R:268 W:0
# [19165] [PASS] LOAD lane=0 addr=0x8fc data=0x0 exp=0x0 op=0x2 R:269 W:0
# [19175] [PASS] STORE lane=3 addr=0x3a2 data=0x1294a18e op=0x8 R:270 W:0
# [19185] [PASS] STORE lane=3 addr=0x128 data=0x52dc33f3 op=0xa R:271 W:0
# [19325] [PASS] LOAD lane=0 addr=0xb5 data=0x0 exp=0x0 op=0x0 R:272 W:0
# [19465] [PASS] LOAD lane=2 addr=0xf data=0x0 exp=0x0 op=0x0 R:273 W:0
# [19545] [PASS] LOAD lane=3 addr=0x30d data=0x0 exp=0x0 op=0x4 R:274 W:0
# [19625] [PASS] LOAD lane=0 addr=0x3d8 data=0x0 exp=0x0 op=0x2 R:275 W:0
# [19765] [PASS] LOAD lane=0 addr=0x754 data=0x0 exp=0x0 op=0x2 R:276 W:0
