out_regression_20seed/seed_17.log
Reading pref.tcl

# 2021.1

# vsim -c work_regression.lsu_slice_tb_v2 -sv_seed 17 "+SEED=17" "+NUM_OPS=500" -do "run -all; quit -f" 
# Start time: 04:16:43 on Jun 22,2026
# ** Note: (vsim-8009) Loading existing optimized design _opt
# //  Questa Sim-64
# //  Version 2021.1 win64 Jan 19 2021
# //
# //  Copyright 1991-2021 Mentor Graphics Corporation
# //  All Rights Reserved.
# //
# //  QuestaSim and its associated documentation contain trade
# //  secrets and commercial or financial information that are the property of
# //  Mentor Graphics Corporation and are privileged, confidential,
# //  and exempt from disclosure under the Freedom of Information Act,
# //  5 U.S.C. Section 552. Furthermore, this information
# //  is prohibited from disclosure under the Trade Secrets Act,
# //  18 U.S.C. Section 1905.
# //
# Loading sv_std.std
# Loading work.VX_gpu_pkg(fast)
# Loading work.lsu_sequence_item_pkg(fast)
# Loading work.lsu_scoreboard_pkg(fast)
# Loading work.lsu_monitor_pkg(fast)
# Loading work.vx_lsu_slice_tb_v2_sv_unit(fast)
# Loading work.lsu_slice_tb_v2(fast)
# Loading work.VX_lsu_slice(fast)
# Loading work.VX_elastic_buffer(fast__3)
# Loading work.VX_elastic_buffer(fast__4)
# Loading work.VX_stream_arb(fast)
# Loading work.lsu_mem_model_rand_sv_unit(fast)
# Loading work.lsu_mem_model_rand(fast)
# run -all
# [75] [PASS] STORE lane=0 addr=0x100 data=0xdeadbeef op=0xa R:1 W:0
# [185] [PASS] LOAD lane=0 addr=0x100 data=0xdeadbeef exp=0xdeadbeef op=0x2 R:2 W:0
# [195] [PASS] STORE lane=1 addr=0x108 data=0x8001 op=0x9 R:3 W:0
# [275] [PASS] LOAD lane=1 addr=0x108 data=0xffff8001 exp=0xffff8001 op=0x1 R:4 W:0
# [405] [PASS] LOAD lane=1 addr=0x108 data=0x8001 exp=0x8001 op=0x5 R:5 W:0
# [415] [PASS] STORE lane=2 addr=0x10c data=0x80 op=0x8 R:6 W:0
# [595] [PASS] LOAD lane=2 addr=0x10c data=0xffffff80 exp=0xffffff80 op=0x0 R:7 W:0
# [725] [PASS] LOAD lane=2 addr=0x10c data=0x80 exp=0x80 op=0x4 R:8 W:0
# [735] [PASS] STORE lane=3 addr=0x3f8 data=0xa5a5a5a5 op=0xa R:9 W:0
# [825] [PASS] LOAD lane=3 addr=0x3f8 data=0xa5a5a5a5 exp=0xa5a5a5a5 op=0x2 R:10 W:0
# [835] [PASS] STORE lane=0 addr=0x3fc data=0xf00f op=0x9 R:11 W:0
# [965] [PASS] LOAD lane=0 addr=0x3fc data=0xfffff00f exp=0xfffff00f op=0x1 R:12 W:0
# [975] [PASS] STORE lane=1 addr=0x3ff data=0xff op=0x8 R:13 W:0
# [1125] [PASS] LOAD lane=1 addr=0x3ff data=0xff exp=0xff op=0x4 R:14 W:0
# [1135] [PASS] STORE lane=0 addr=0x500 data=0x11110000 op=0xa R:15 W:0
# [1285] [PASS] LOAD lane=0 addr=0x500 data=0x11110000 exp=0x11110000 op=0x2 R:16 W:0
# [1295] [PASS] STORE lane=0 addr=0x502 data=0x8080 op=0x9 R:17 W:0
# [1425] [PASS] LOAD lane=0 addr=0x502 data=0xffff8080 exp=0xffff8080 op=0x1 R:18 W:0
# [1485] [PASS] LOAD lane=0 addr=0x502 data=0x8080 exp=0x8080 op=0x5 R:19 W:0
# [1495] [PASS] STORE lane=0 addr=0x501 data=0x80 op=0x8 R:20 W:0
# [1565] [PASS] LOAD lane=0 addr=0x501 data=0xffffff80 exp=0xffffff80 op=0x0 R:21 W:0
# [1705] [PASS] LOAD lane=0 addr=0x501 data=0x80 exp=0x80 op=0x4 R:22 W:0
# [1715] [PASS] STORE lane=1 addr=0x510 data=0x10100101 op=0xa R:23 W:0
# [1835] [PASS] LOAD lane=1 addr=0x510 data=0x10100101 exp=0x10100101 op=0x2 R:24 W:0
# [1845] [PASS] STORE lane=1 addr=0x512 data=0x8081 op=0x9 R:25 W:0
# [1995] [PASS] LOAD lane=1 addr=0x512 data=0xffff8081 exp=0xffff8081 op=0x1 R:26 W:0
# [2115] [PASS] LOAD lane=1 addr=0x512 data=0x8081 exp=0x8081 op=0x5 R:27 W:0
# [2125] [PASS] STORE lane=1 addr=0x511 data=0x81 op=0x8 R:28 W:0
# [2285] [PASS] LOAD lane=1 addr=0x511 data=0xffffff81 exp=0xffffff81 op=0x0 R:29 W:0
# [2355] [PASS] LOAD lane=1 addr=0x511 data=0x81 exp=0x81 op=0x4 R:30 W:0
# [2365] [PASS] STORE lane=2 addr=0x520 data=0x13130202 op=0xa R:31 W:0
# [2495] [PASS] LOAD lane=2 addr=0x520 data=0x13130202 exp=0x13130202 op=0x2 R:32 W:0
# [2505] [PASS] STORE lane=2 addr=0x522 data=0x8082 op=0x9 R:33 W:0
# [2565] [PASS] LOAD lane=2 addr=0x522 data=0xffff8082 exp=0xffff8082 op=0x1 R:34 W:0
# [2695] [PASS] LOAD lane=2 addr=0x522 data=0x8082 exp=0x8082 op=0x5 R:35 W:0
# [2705] [PASS] STORE lane=2 addr=0x521 data=0x82 op=0x8 R:36 W:0
# [2775] [PASS] LOAD lane=2 addr=0x521 data=0xffffff82 exp=0xffffff82 op=0x0 R:37 W:0
# [2915] [PASS] LOAD lane=2 addr=0x521 data=0x82 exp=0x82 op=0x4 R:38 W:0
# [2925] [PASS] STORE lane=3 addr=0x530 data=0x12120303 op=0xa R:39 W:0
# [3005] [PASS] LOAD lane=3 addr=0x530 data=0x12120303 exp=0x12120303 op=0x2 R:40 W:0
# [3015] [PASS] STORE lane=3 addr=0x532 data=0x8083 op=0x9 R:41 W:0
# [3095] [PASS] LOAD lane=3 addr=0x532 data=0xffff8083 exp=0xffff8083 op=0x1 R:42 W:0
# [3235] [PASS] LOAD lane=3 addr=0x532 data=0x8083 exp=0x8083 op=0x5 R:43 W:0
# [3245] [PASS] STORE lane=3 addr=0x531 data=0x83 op=0x8 R:44 W:0
# [3325] [PASS] LOAD lane=3 addr=0x531 data=0xffffff83 exp=0xffffff83 op=0x0 R:45 W:0
# [3465] [PASS] LOAD lane=3 addr=0x531 data=0x83 exp=0x83 op=0x4 R:46 W:0
# [3475] [PASS] STORE lane=0 addr=0x700 data=0xa5000000 op=0xa R:47 W:0
# [3615] [PASS] LOAD lane=0 addr=0x700 data=0xa5000000 exp=0xa5000000 op=0x2 R:48 W:0
# [3625] [PASS] STORE lane=0 addr=0x700 data=0x5a000000 op=0xa R:49 W:0
# [3845] [PASS] LOAD lane=0 addr=0x700 data=0x5a000000 exp=0x5a000000 op=0x2 R:50 W:0
# [3855] [PASS] STORE lane=1 addr=0x708 data=0xa5000001 op=0xa R:51 W:0
# [3965] [PASS] LOAD lane=1 addr=0x708 data=0xa5000001 exp=0xa5000001 op=0x2 R:52 W:0
# [3975] [PASS] STORE lane=1 addr=0x708 data=0x5a000001 op=0xa R:53 W:0
# [4215] [PASS] LOAD lane=1 addr=0x708 data=0x5a000001 exp=0x5a000001 op=0x2 R:54 W:0
# [4225] [PASS] STORE lane=2 addr=0x710 data=0xa5000002 op=0xa R:55 W:0
# [4395] [PASS] LOAD lane=2 addr=0x710 data=0xa5000002 exp=0xa5000002 op=0x2 R:56 W:0
# [4405] [PASS] STORE lane=2 addr=0x710 data=0x5a000002 op=0xa R:57 W:0
# [4535] [PASS] LOAD lane=2 addr=0x710 data=0x5a000002 exp=0x5a000002 op=0x2 R:58 W:0
# [4545] [PASS] STORE lane=3 addr=0x718 data=0xa5000003 op=0xa R:59 W:0
# [4745] [PASS] LOAD lane=3 addr=0x718 data=0xa5000003 exp=0xa5000003 op=0x2 R:60 W:0
# [4755] [PASS] STORE lane=3 addr=0x718 data=0x5a000003 op=0xa R:61 W:0
# [4875] [PASS] LOAD lane=3 addr=0x718 data=0x5a000003 exp=0x5a000003 op=0x2 R:62 W:0
# [4965] [PASS] LOAD lane=2 addr=0x13a data=0x0 exp=0x0 op=0x1 R:63 W:0
# [5105] [PASS] LOAD lane=0 addr=0x2ae data=0x0 exp=0x0 op=0x1 R:64 W:0
# [5205] [PASS] LOAD lane=0 addr=0x358 data=0x0 exp=0x0 op=0x5 R:65 W:0
# [5345] [PASS] LOAD lane=0 addr=0x281 data=0x0 exp=0x0 op=0x4 R:66 W:0
# [5355] [PASS] STORE lane=0 addr=0x4cc data=0x64331e7d op=0x9 R:67 W:0
# [5485] [PASS] LOAD lane=1 addr=0xbb0 data=0x0 exp=0x0 op=0x2 R:68 W:0
# [5495] [PASS] STORE lane=3 addr=0x324 data=0x26631424 op=0x8 R:69 W:0
# [5625] [PASS] LOAD lane=3 addr=0x4b4 data=0x0 exp=0x0 op=0x2 R:70 W:0
# [5735] [PASS] LOAD lane=0 addr=0x3fa data=0xffffffa5 exp=0xffffffa5 op=0x0 R:71 W:0
# [5745] [PASS] STORE lane=0 addr=0x460 data=0xbc46978 op=0xa R:72 W:0
# [5755] [PASS] STORE lane=3 addr=0x4d data=0x8491c8a7 op=0x8 R:73 W:0
# [5885] [PASS] LOAD lane=1 addr=0x334 data=0x0 exp=0x0 op=0x4 R:74 W:0
# [5895] [PASS] STORE lane=3 addr=0x48 data=0x26985a57 op=0x8 R:75 W:0
# [6045] [PASS] LOAD lane=1 addr=0x4dc data=0x0 exp=0x0 op=0x2 R:76 W:0
# [6105] [PASS] STORE lane=2 addr=0xcac data=0x497479fb op=0xa R:77 W:0
# [6115] [PASS] STORE lane=3 addr=0x186 data=0xb931b5fe op=0x8 R:78 W:0
# [6225] [PASS] LOAD lane=3 addr=0x2d8 data=0x0 exp=0x0 op=0x4 R:79 W:0
# [6375] [PASS] LOAD lane=3 addr=0x60 data=0x0 exp=0x0 op=0x1 R:80 W:0
# [6475] [PASS] LOAD lane=0 addr=0x387 data=0x0 exp=0x0 op=0x0 R:81 W:0
# [6565] [PASS] LOAD lane=0 addr=0x3d6 data=0x0 exp=0x0 op=0x0 R:82 W:0
# [6655] [PASS] LOAD lane=3 addr=0x79c data=0x0 exp=0x0 op=0x2 R:83 W:0
# [6795] [PASS] LOAD lane=1 addr=0x4c6 data=0x0 exp=0x0 op=0x5 R:84 W:0
# [6805] [PASS] STORE lane=3 addr=0x68e data=0x55878edf op=0x9 R:85 W:0
# [6885] [PASS] LOAD lane=0 addr=0x510 data=0x80818101 exp=0x80818101 op=0x2 R:86 W:0
# [7005] [PASS] LOAD lane=3 addr=0x64 data=0x0 exp=0x0 op=0x2 R:87 W:0
# [7015] [PASS] STORE lane=0 addr=0x5d4 data=0xc86b8462 op=0xa R:88 W:0
# [7025] [PASS] STORE lane=1 addr=0x2f8 data=0x44f779da op=0x8 R:89 W:0
# [7035] [PASS] STORE lane=3 addr=0x59a data=0xdcbec36f op=0x9 R:90 W:0
# [7115] [PASS] LOAD lane=3 addr=0x5 data=0x0 exp=0x0 op=0x0 R:91 W:0
# [7125] [PASS] STORE lane=3 addr=0xfac data=0x9266f950 op=0xa R:92 W:0
# [7135] [PASS] STORE lane=2 addr=0x5b8 data=0x170a26d7 op=0x9 R:93 W:0
# [7285] [PASS] LOAD lane=0 addr=0x7c0 data=0x0 exp=0x0 op=0x2 R:94 W:0
# [7295] [PASS] STORE lane=1 addr=0x278 data=0x2c678304 op=0x9 R:95 W:0
# [7305] [PASS] STORE lane=2 addr=0x352 data=0xb40f66c4 op=0x9 R:96 W:0
# [7395] [PASS] LOAD lane=2 addr=0x536 data=0x0 exp=0x0 op=0x5 R:97 W:0
# [7535] [PASS] LOAD lane=2 addr=0x37e data=0x0 exp=0x0 op=0x0 R:98 W:0
# [7545] [PASS] STORE lane=2 addr=0x8 data=0x8e2aa505 op=0x9 R:99 W:0
# [7675] [PASS] LOAD lane=0 addr=0x92 data=0x0 exp=0x0 op=0x1 R:100 W:0
# [7685] [PASS] STORE lane=0 addr=0x4a data=0x9d83af67 op=0x9 R:101 W:0
# [7695] [PASS] STORE lane=0 addr=0x166 data=0x8827899 op=0x8 R:102 W:0
# [7845] [PASS] LOAD lane=2 addr=0x168 data=0x0 exp=0x0 op=0x2 R:103 W:0
# [7985] [PASS] LOAD lane=2 addr=0xb7 data=0x0 exp=0x0 op=0x0 R:104 W:0
# [8105] [PASS] LOAD lane=2 addr=0x6f6 data=0x0 exp=0x0 op=0x5 R:105 W:0
# [8175] [PASS] LOAD lane=0 addr=0xef data=0x0 exp=0x0 op=0x4 R:106 W:0
# [8185] [PASS] STORE lane=1 addr=0x174 data=0x3d428a89 op=0x8 R:107 W:0
# [8285] [PASS] LOAD lane=3 addr=0x782 data=0x0 exp=0x0 op=0x1 R:108 W:0
# [8295] [PASS] STORE lane=3 addr=0x60c data=0xcdc272a2 op=0xa R:109 W:0
# [8425] [PASS] LOAD lane=1 addr=0xb40 data=0x0 exp=0x0 op=0x2 R:110 W:0
# [8435] [PASS] STORE lane=3 addr=0x3c2 data=0x18e7ff94 op=0x9 R:111 W:0
# [8445] [PASS] STORE lane=0 addr=0x9e data=0x4a234576 op=0x8 R:112 W:0
# [8595] [PASS] LOAD lane=3 addr=0x1ba data=0x0 exp=0x0 op=0x1 R:113 W:0
# [8655] [PASS] LOAD lane=3 addr=0x7fc data=0x0 exp=0x0 op=0x1 R:114 W:0
# [8665] [PASS] STORE lane=2 addr=0x2be data=0xc7f4d2db op=0x9 R:115 W:0
# [8785] [PASS] LOAD lane=0 addr=0x362 data=0x0 exp=0x0 op=0x1 R:116 W:0
# [8845] [PASS] LOAD lane=0 addr=0x4bc data=0x0 exp=0x0 op=0x2 R:117 W:0
# [8985] [PASS] LOAD lane=2 addr=0x16a data=0x0 exp=0x0 op=0x5 R:118 W:0
# [8995] [PASS] STORE lane=2 addr=0x2d3 data=0xe09883da op=0x8 R:119 W:0
# [9085] [PASS] LOAD lane=2 addr=0x16 data=0x0 exp=0x0 op=0x5 R:120 W:0
# [9155] [PASS] LOAD lane=1 addr=0x798 data=0x0 exp=0x0 op=0x1 R:121 W:0
# [9165] [PASS] STORE lane=3 addr=0xbf8 data=0x3c3accec op=0xa R:122 W:0
# [9175] [PASS] STORE lane=3 addr=0x12a data=0x3b3ac6b1 op=0x9 R:123 W:0
# [9195] [PASS] STORE lane=3 addr=0x62e data=0x9c0af97 op=0x9 R:124 W:0
# [9215] [PASS] STORE lane=0 addr=0xddc data=0x35bbeabf op=0xa R:125 W:0
# [9315] [PASS] LOAD lane=1 addr=0x2d7 data=0x0 exp=0x0 op=0x4 R:126 W:0
# [9325] [PASS] STORE lane=3 addr=0x2ab data=0xb06801f9 op=0x8 R:127 W:0
# [9405] [PASS] LOAD lane=1 addr=0x568 data=0x0 exp=0x0 op=0x5 R:128 W:0
# [9415] [PASS] STORE lane=0 addr=0xcfc data=0x89a1c99 op=0xa R:129 W:0
# [9425] [PASS] STORE lane=1 addr=0x3be data=0x35d45fcb op=0x9 R:130 W:0
# [9555] [PASS] LOAD lane=0 addr=0x314 data=0x0 exp=0x0 op=0x4 R:131 W:0
# [9695] [PASS] LOAD lane=3 addr=0x31d data=0x0 exp=0x0 op=0x4 R:132 W:0
# [9705] [PASS] STORE lane=0 addr=0x22c data=0xe8f6bf91 op=0xa R:133 W:0
# [9765] [PASS] LOAD lane=3 addr=0x7c2 data=0x0 exp=0x0 op=0x1 R:134 W:0
# [9845] [PASS] LOAD lane=2 addr=0x98 data=0x0 exp=0x0 op=0x4 R:135 W:0
# [9855] [PASS] STORE lane=0 addr=0xf60 data=0x956b14bf op=0xa R:136 W:0
# [9955] [PASS] LOAD lane=2 addr=0x1ca data=0x0 exp=0x0 op=0x5 R:137 W:0
# [9965] [PASS] STORE lane=1 addr=0x6f0 data=0x43303517 op=0xa R:138 W:0
# [9975] [PASS] STORE lane=3 addr=0x500 data=0x778c1533 op=0x9 R:139 W:0
# [9985] [PASS] STORE lane=3 addr=0xeec data=0x5d31fd12 op=0xa R:140 W:0
# [10065] [PASS] LOAD lane=2 addr=0xacc data=0x0 exp=0x0 op=0x2 R:141 W:0
# [10205] [PASS] LOAD lane=0 addr=0xd1c data=0x0 exp=0x0 op=0x2 R:142 W:0
# [10305] [PASS] LOAD lane=1 addr=0x15 data=0x0 exp=0x0 op=0x0 R:143 W:0
# [10425] [PASS] LOAD lane=0 addr=0x11d data=0x0 exp=0x0 op=0x4 R:144 W:0
# [10495] [PASS] LOAD lane=0 addr=0xbb8 data=0x0 exp=0x0 op=0x2 R:145 W:0
# [10505] [PASS] STORE lane=2 addr=0xa8 data=0x5609f9f4 op=0x9 R:146 W:0
# [10655] [PASS] LOAD lane=2 addr=0x13a data=0x0 exp=0x0 op=0x4 R:147 W:0
# [10765] [PASS] LOAD lane=2 addr=0x7a8 data=0x0 exp=0x0 op=0x5 R:148 W:0
# [10895] [PASS] LOAD lane=1 addr=0x23c data=0x0 exp=0x0 op=0x0 R:149 W:0
# [10945] [PASS] STORE lane=2 addr=0x237 data=0x70e14fe op=0x8 R:150 W:0
# [10955] [PASS] STORE lane=3 addr=0x15e data=0xc10e11e5 op=0x9 R:151 W:0
# [11075] [PASS] LOAD lane=2 addr=0x1bd data=0x0 exp=0x0 op=0x4 R:152 W:0
# [11165] [PASS] LOAD lane=3 addr=0x3b6 data=0x0 exp=0x0 op=0x0 R:153 W:0
# [11295] [PASS] LOAD lane=2 addr=0x440 data=0x0 exp=0x0 op=0x1 R:154 W:0
# [11365] [PASS] LOAD lane=2 addr=0x4bc data=0x0 exp=0x0 op=0x1 R:155 W:0
# [11375] [PASS] STORE lane=3 addr=0x12b data=0x4190eda2 op=0x8 R:156 W:0
# [11385] [PASS] STORE lane=0 addr=0x674 data=0x648b290b op=0x9 R:157 W:0
# [11535] [PASS] LOAD lane=3 addr=0x6e6 data=0x0 exp=0x0 op=0x5 R:158 W:0
# [11605] [PASS] LOAD lane=3 addr=0xd4 data=0x0 exp=0x0 op=0x1 R:159 W:0
# [11615] [PASS] STORE lane=3 addr=0x47e data=0x39b54948 op=0x9 R:160 W:0
# [11625] [PASS] STORE lane=0 addr=0x374 data=0xc959ef49 op=0x9 R:161 W:0
# [11635] [PASS] STORE lane=0 addr=0x3d3 data=0xc05641a9 op=0x8 R:162 W:0
# [11645] [PASS] STORE lane=3 addr=0x536 data=0x2c322392 op=0x9 R:163 W:0
# [11805] [PASS] LOAD lane=0 addr=0x2da data=0x0 exp=0x0 op=0x1 R:164 W:0
# [11815] [PASS] STORE lane=0 addr=0x2d5 data=0xe43fa688 op=0x8 R:165 W:0
# [11955] [PASS] LOAD lane=3 addr=0xf28 data=0x0 exp=0x0 op=0x2 R:166 W:0
# [12095] [PASS] LOAD lane=0 addr=0x19c data=0x0 exp=0x0 op=0x4 R:167 W:0
# [12105] [PASS] STORE lane=3 addr=0x17e data=0x86680c06 op=0x8 R:168 W:0
# [12255] [PASS] LOAD lane=0 addr=0x60e data=0xffffcdc2 exp=0xffffcdc2 op=0x1 R:169 W:0
# [12265] [PASS] STORE lane=2 addr=0xd8 data=0xf15f8a9f op=0xa R:170 W:0
# [12375] [PASS] LOAD lane=2 addr=0x2c6 data=0x0 exp=0x0 op=0x0 R:171 W:0
# [12385] [PASS] STORE lane=0 addr=0x15e data=0x1ec678ba op=0x8 R:172 W:0
# [12475] [PASS] STORE lane=0 addr=0xb24 data=0x810bb19c op=0xa R:173 W:0
# [12605] [PASS] LOAD lane=2 addr=0x73a data=0x0 exp=0x0 op=0x5 R:174 W:0
# [12765] [PASS] LOAD lane=1 addr=0x12c data=0x0 exp=0x0 op=0x0 R:175 W:0
# [12885] [PASS] LOAD lane=3 addr=0x108 data=0x8001 exp=0x8001 op=0x5 R:176 W:0
# [12895] [PASS] STORE lane=2 addr=0x2d data=0x575ffc2e op=0x8 R:177 W:0
# [13075] [PASS] LOAD lane=1 addr=0x1e5 data=0x0 exp=0x0 op=0x4 R:178 W:0
# [13155] [PASS] LOAD lane=0 addr=0x56 data=0x0 exp=0x0 op=0x4 R:179 W:0
# [13295] [PASS] LOAD lane=2 addr=0x43e data=0x0 exp=0x0 op=0x1 R:180 W:0
# [13385] [PASS] LOAD lane=2 addr=0x207 data=0x0 exp=0x0 op=0x4 R:181 W:0
# [13465] [PASS] LOAD lane=0 addr=0x110 data=0x0 exp=0x0 op=0x1 R:182 W:0
# [13545] [PASS] LOAD lane=1 addr=0x16e data=0x0 exp=0x0 op=0x0 R:183 W:0
# [13555] [PASS] STORE lane=1 addr=0xb2 data=0x56e77a4d op=0x8 R:184 W:0
# [13645] [PASS] LOAD lane=3 addr=0xbf data=0x0 exp=0x0 op=0x4 R:185 W:0
# [13655] [PASS] STORE lane=3 addr=0xb84 data=0xb28031b1 op=0xa R:186 W:0
# [13735] [PASS] LOAD lane=3 addr=0x40 data=0x0 exp=0x0 op=0x4 R:187 W:0
# [13815] [PASS] LOAD lane=3 addr=0x1b0 data=0x0 exp=0x0 op=0x0 R:188 W:0
# [13965] [PASS] LOAD lane=3 addr=0x26b data=0x0 exp=0x0 op=0x0 R:189 W:0
# [14065] [PASS] LOAD lane=1 addr=0x14 data=0x0 exp=0x0 op=0x5 R:190 W:0
# [14255] [PASS] LOAD lane=0 addr=0x357 data=0x0 exp=0x0 op=0x0 R:191 W:0
# [14355] [PASS] LOAD lane=2 addr=0x682 data=0x0 exp=0x0 op=0x1 R:192 W:0
# [14495] [PASS] LOAD lane=2 addr=0x2ba data=0x0 exp=0x0 op=0x4 R:193 W:0
# [14625] [PASS] LOAD lane=1 addr=0x774 data=0x0 exp=0x0 op=0x1 R:194 W:0
# [14775] [PASS] LOAD lane=3 addr=0x395 data=0x0 exp=0x0 op=0x0 R:195 W:0
# [14925] [PASS] LOAD lane=1 addr=0x9a4 data=0x0 exp=0x0 op=0x2 R:196 W:0
# [14935] [PASS] STORE lane=3 addr=0x238 data=0x75c0d50b op=0xa R:197 W:0
# [15085] [PASS] LOAD lane=1 addr=0x6c4 data=0x0 exp=0x0 op=0x5 R:198 W:0
# [15095] [PASS] STORE lane=2 addr=0x38c data=0xd3396c73 op=0x8 R:199 W:0
# [15225] [PASS] LOAD lane=3 addr=0x120 data=0x0 exp=0x0 op=0x2 R:200 W:0
# [15235] [PASS] STORE lane=0 addr=0x333 data=0xb997ccbf op=0x8 R:201 W:0
# [15245] [PASS] STORE lane=3 addr=0x4fc data=0x513d5b6a op=0x9 R:202 W:0
# [15255] [PASS] STORE lane=1 addr=0x498 data=0x4cdb9117 op=0xa R:203 W:0
# [15405] [PASS] LOAD lane=2 addr=0x165 data=0x0 exp=0x0 op=0x4 R:204 W:0
# [15525] [PASS] LOAD lane=1 addr=0x52 data=0x0 exp=0x0 op=0x0 R:205 W:0
# [15615] [PASS] LOAD lane=3 addr=0x26a data=0x0 exp=0x0 op=0x0 R:206 W:0
# [15685] [PASS] LOAD lane=2 addr=0xb54 data=0x0 exp=0x0 op=0x2 R:207 W:0
# [15695] [PASS] STORE lane=1 addr=0xcf0 data=0xf1d427c op=0xa R:208 W:0
# [15705] [PASS] STORE lane=1 addr=0xab0 data=0x1a0c8409 op=0xa R:209 W:0
# [15715] [PASS] STORE lane=1 addr=0x15a data=0x8c365ee3 op=0x8 R:210 W:0
# [15845] [PASS] LOAD lane=1 addr=0x5a6 data=0x0 exp=0x0 op=0x5 R:211 W:0
# [15955] [PASS] LOAD lane=1 addr=0xcd4 data=0x0 exp=0x0 op=0x2 R:212 W:0
# [16035] [PASS] LOAD lane=1 addr=0x80c data=0x0 exp=0x0 op=0x2 R:213 W:0
# [16045] [PASS] STORE lane=0 addr=0x700 data=0x47b46014 op=0xa R:214 W:0
# [16105] [PASS] LOAD lane=2 addr=0x526 data=0x0 exp=0x0 op=0x1 R:215 W:0
# [16205] [PASS] LOAD lane=2 addr=0x18e data=0x0 exp=0x0 op=0x1 R:216 W:0
# [16335] [PASS] LOAD lane=3 addr=0x514 data=0x0 exp=0x0 op=0x5 R:217 W:0
# [16415] [PASS] LOAD lane=2 addr=0x1f6 data=0x0 exp=0x0 op=0x5 R:218 W:0
# [16505] [PASS] LOAD lane=3 addr=0x524 data=0x0 exp=0x0 op=0x5 R:219 W:0
# [16685] [PASS] LOAD lane=2 addr=0x27 data=0x0 exp=0x0 op=0x0 R:220 W:0
# [16745] [PASS] LOAD lane=1 addr=0x65e data=0x0 exp=0x0 op=0x1 R:221 W:0
# [16825] [PASS] LOAD lane=3 addr=0x7fc data=0x0 exp=0x0 op=0x2 R:222 W:0
# [16925] [PASS] LOAD lane=0 addr=0x324 data=0x24 exp=0x24 op=0x5 R:223 W:0
# [16995] [PASS] LOAD lane=3 addr=0x410 data=0x0 exp=0x0 op=0x1 R:224 W:0
# [17005] [PASS] STORE lane=3 addr=0xb7 data=0x8f34377e op=0x8 R:225 W:0
# [17015] [PASS] STORE lane=2 addr=0x294 data=0x1ca73c26 op=0x8 R:226 W:0
# [17035] [PASS] STORE lane=0 addr=0xb0 data=0x96cc1a74 op=0x8 R:227 W:0
# [17205] [PASS] LOAD lane=0 addr=0x1d9 data=0x0 exp=0x0 op=0x0 R:228 W:0
# [17375] [PASS] LOAD lane=3 addr=0x2dc data=0x0 exp=0x0 op=0x4 R:229 W:0
# [17385] [PASS] STORE lane=2 addr=0xeac data=0x76daf74a op=0xa R:230 W:0
# [17495] [PASS] LOAD lane=0 addr=0x722 data=0x0 exp=0x0 op=0x1 R:231 W:0
# [17505] [PASS] STORE lane=1 addr=0x340 data=0x67deab74 op=0xa R:232 W:0
# [17515] [PASS] STORE lane=1 addr=0x2c6 data=0x7aa0927e op=0x8 R:233 W:0
# [17535] [PASS] STORE lane=3 addr=0xaf data=0x821dfd1a op=0x8 R:234 W:0
# [17605] [PASS] LOAD lane=2 addr=0xa0c data=0x0 exp=0x0 op=0x2 R:235 W:0
# [17735] [PASS] LOAD lane=2 addr=0xfec data=0x0 exp=0x0 op=0x2 R:236 W:0
# [17885] [PASS] LOAD lane=1 addr=0x102 data=0xdead exp=0xdead op=0x5 R:237 W:0
# [17895] [PASS] STORE lane=1 addr=0x1fd data=0xfcc92136 op=0x8 R:238 W:0
# [18045] [PASS] LOAD lane=3 addr=0x1e3 data=0x0 exp=0x0 op=0x4 R:239 W:0
# [18155] [PASS] LOAD lane=2 addr=0x53c data=0x0 exp=0x0 op=0x1 R:240 W:0
# [18285] [PASS] LOAD lane=3 addr=0x78 data=0x0 exp=0x0 op=0x5 R:241 W:0
# [18295] [PASS] STORE lane=0 addr=0xa7c data=0xa355f605 op=0xa R:242 W:0
# [18305] [PASS] STORE lane=0 addr=0x9e4 data=0x75aa000c op=0xa R:243 W:0
# [18395] [PASS] LOAD lane=2 addr=0x77a data=0x0 exp=0x0 op=0x1 R:244 W:0
# [18475] [PASS] LOAD lane=3 addr=0xfb0 data=0x0 exp=0x0 op=0x2 R:245 W:0
# [18485] [PASS] STORE lane=3 addr=0xc24 data=0x7b46734a op=0xa R:246 W:0
# [18575] [PASS] LOAD lane=1 addr=0x272 data=0x0 exp=0x0 op=0x0 R:247 W:0
# [18645] [PASS] LOAD lane=0 addr=0x4d0 data=0x0 exp=0x0 op=0x1 R:248 W:0
# [18655] [PASS] STORE lane=0 addr=0x35c data=0x2e9416fe op=0xa R:249 W:0
# [18665] [PASS] STORE lane=3 addr=0x4d4 data=0x8ef320d0 op=0xa R:250 W:0
# [18675] [PASS] STORE lane=2 addr=0x4f8 data=0xcbb4f784 op=0xa R:251 W:0
# [18685] [PASS] STORE lane=1 addr=0xd38 data=0xa6c5665c op=0xa R:252 W:0
# [18815] [PASS] LOAD lane=1 addr=0x2c9 data=0x0 exp=0x0 op=0x0 R:253 W:0
# [18905] [PASS] STORE lane=3 addr=0xce data=0xf8d6c2df op=0x9 R:254 W:0
# [19005] [PASS] LOAD lane=2 addr=0x764 data=0x0 exp=0x0 op=0x5 R:255 W:0
# [19015] [PASS] STORE lane=3 addr=0x752 data=0xda0aa3bb op=0x9 R:256 W:0
# [19025] [PASS] STORE lane=3 addr=0x108 data=0x1432355b op=0x9 R:257 W:0
# [19045] [PASS] STORE lane=1 addr=0x5ac data=0x1b4bc688 op=0x9 R:258 W:0
# [19155] [PASS] LOAD lane=2 addr=0x4ea data=0x0 exp=0x0 op=0x5 R:259 W:0
# [19165] [PASS] STORE lane=3 addr=0xb00 data=0x425dab9b op=0xa R:260 W:0
# [19255] [PASS] LOAD lane=2 addr=0x51c data=0x0 exp=0x0 op=0x5 R:261 W:0
# [19265] [PASS] STORE lane=3 addr=0x24a data=0xe1fb3c9f op=0x8 R:262 W:0
# [19345] [PASS] LOAD lane=3 addr=0x363 data=0x0 exp=0x0 op=0x4 R:263 W:0
# [19355] [PASS] STORE lane=3 addr=0x7e0 data=0x52c1f77e op=0x9 R:264 W:0
# [19455] [PASS] LOAD lane=2 addr=0x27d data=0x0 exp=0x0 op=0x0 R:265 W:0
# [19555] [PASS] LOAD lane=1 addr=0x2fa data=0x0 exp=0x0 op=0x0 R:266 W:0
# [19655] [PASS] LOAD lane=3 addr=0x221 data=0x0 exp=0x0 op=0x0 R:267 W:0
# [19665] [PASS] STORE lane=2 addr=0x64 data=0xb603a18c op=0x9 R:268 W:0
# [19745] [PASS] LOAD lane=2 addr=0x9dc data=0x0 exp=0x0 op=0x2 R:269 W:0
# [19875] [PASS] STORE lane=2 addr=0x81c data=0x72148db4 op=0xa R:270 W:0
# [19945] [PASS] STORE lane=3 addr=0x636 data=0xd9e3ead3 op=0x9 R:271 W:0
# [20095] [PASS] LOAD lane=0 addr=0xb4 data=0x7e000000 exp=0x7e000000 op=0x2 R:272 W:0
# [20155] [PASS] LOAD lane=3 addr=0x5c6 data=0x0 exp=0x0 op=0x5 R:273 W:0
# [20385] [PASS] LOAD lane=2 addr=0x6aa data=0x0 exp=0x0 op=0x1 R:274 W:0
