out_regression_20seed/seed_20.log
Reading pref.tcl

# 2021.1

# vsim -c work_regression.lsu_slice_tb_v2 -sv_seed 20 "+SEED=20" "+NUM_OPS=500" -do "run -all; quit -f" 
# Start time: 04:18:11 on Jun 22,2026
# ** Note: (vsim-8009) Loading existing optimized design _opt
# //  Questa Sim-64
# //  Version 2021.1 win64 Jan 19 2021
# //
# //  Copyright 1991-2021 Mentor Graphics Corporation
# //  All Rights Reserved.
# //
# //  QuestaSim and its associated documentation contain trade
# //  secrets and commercial or financial information that are the property of
# //  Mentor Graphics Corporation and are privileged, confidential,
# //  and exempt from disclosure under the Freedom of Information Act,
# //  5 U.S.C. Section 552. Furthermore, this information
# //  is prohibited from disclosure under the Trade Secrets Act,
# //  18 U.S.C. Section 1905.
# //
# Loading sv_std.std
# Loading work.VX_gpu_pkg(fast)
# Loading work.lsu_sequence_item_pkg(fast)
# Loading work.lsu_scoreboard_pkg(fast)
# Loading work.lsu_monitor_pkg(fast)
# Loading work.vx_lsu_slice_tb_v2_sv_unit(fast)
# Loading work.lsu_slice_tb_v2(fast)
# Loading work.VX_lsu_slice(fast)
# Loading work.VX_elastic_buffer(fast__3)
# Loading work.VX_elastic_buffer(fast__4)
# Loading work.VX_stream_arb(fast)
# Loading work.lsu_mem_model_rand_sv_unit(fast)
# Loading work.lsu_mem_model_rand(fast)
# run -all
# [75] [PASS] STORE lane=0 addr=0x100 data=0xdeadbeef op=0xa R:1 W:0
# [195] [PASS] LOAD lane=0 addr=0x100 data=0xdeadbeef exp=0xdeadbeef op=0x2 R:2 W:0
# [205] [PASS] STORE lane=1 addr=0x108 data=0x8001 op=0x9 R:3 W:0
# [365] [PASS] LOAD lane=1 addr=0x108 data=0xffff8001 exp=0xffff8001 op=0x1 R:4 W:0
# [515] [PASS] LOAD lane=1 addr=0x108 data=0x8001 exp=0x8001 op=0x5 R:5 W:0
# [525] [PASS] STORE lane=2 addr=0x10c data=0x80 op=0x8 R:6 W:0
# [655] [PASS] LOAD lane=2 addr=0x10c data=0xffffff80 exp=0xffffff80 op=0x0 R:7 W:0
# [735] [PASS] LOAD lane=2 addr=0x10c data=0x80 exp=0x80 op=0x4 R:8 W:0
# [745] [PASS] STORE lane=3 addr=0x3f8 data=0xa5a5a5a5 op=0xa R:9 W:0
# [865] [PASS] LOAD lane=3 addr=0x3f8 data=0xa5a5a5a5 exp=0xa5a5a5a5 op=0x2 R:10 W:0
# [875] [PASS] STORE lane=0 addr=0x3fc data=0xf00f op=0x9 R:11 W:0
# [985] [PASS] LOAD lane=0 addr=0x3fc data=0xfffff00f exp=0xfffff00f op=0x1 R:12 W:0
# [995] [PASS] STORE lane=1 addr=0x3ff data=0xff op=0x8 R:13 W:0
# [1105] [PASS] LOAD lane=1 addr=0x3ff data=0xff exp=0xff op=0x4 R:14 W:0
# [1115] [PASS] STORE lane=0 addr=0x500 data=0x11110000 op=0xa R:15 W:0
# [1245] [PASS] LOAD lane=0 addr=0x500 data=0x11110000 exp=0x11110000 op=0x2 R:16 W:0
# [1255] [PASS] STORE lane=0 addr=0x502 data=0x8080 op=0x9 R:17 W:0
# [1365] [PASS] LOAD lane=0 addr=0x502 data=0xffff8080 exp=0xffff8080 op=0x1 R:18 W:0
# [1475] [PASS] LOAD lane=0 addr=0x502 data=0x8080 exp=0x8080 op=0x5 R:19 W:0
# [1485] [PASS] STORE lane=0 addr=0x501 data=0x80 op=0x8 R:20 W:0
# [1595] [PASS] LOAD lane=0 addr=0x501 data=0xffffff80 exp=0xffffff80 op=0x0 R:21 W:0
# [1665] [PASS] LOAD lane=0 addr=0x501 data=0x80 exp=0x80 op=0x4 R:22 W:0
# [1675] [PASS] STORE lane=1 addr=0x510 data=0x10100101 op=0xa R:23 W:0
# [1805] [PASS] LOAD lane=1 addr=0x510 data=0x10100101 exp=0x10100101 op=0x2 R:24 W:0
# [1815] [PASS] STORE lane=1 addr=0x512 data=0x8081 op=0x9 R:25 W:0
# [1895] [PASS] LOAD lane=1 addr=0x512 data=0xffff8081 exp=0xffff8081 op=0x1 R:26 W:0
# [2015] [PASS] LOAD lane=1 addr=0x512 data=0x8081 exp=0x8081 op=0x5 R:27 W:0
# [2025] [PASS] STORE lane=1 addr=0x511 data=0x81 op=0x8 R:28 W:0
# [2185] [PASS] LOAD lane=1 addr=0x511 data=0xffffff81 exp=0xffffff81 op=0x0 R:29 W:0
# [2305] [PASS] LOAD lane=1 addr=0x511 data=0x81 exp=0x81 op=0x4 R:30 W:0
# [2315] [PASS] STORE lane=2 addr=0x520 data=0x13130202 op=0xa R:31 W:0
# [2415] [PASS] LOAD lane=2 addr=0x520 data=0x13130202 exp=0x13130202 op=0x2 R:32 W:0
# [2425] [PASS] STORE lane=2 addr=0x522 data=0x8082 op=0x9 R:33 W:0
# [2495] [PASS] LOAD lane=2 addr=0x522 data=0xffff8082 exp=0xffff8082 op=0x1 R:34 W:0
# [2605] [PASS] LOAD lane=2 addr=0x522 data=0x8082 exp=0x8082 op=0x5 R:35 W:0
# [2615] [PASS] STORE lane=2 addr=0x521 data=0x82 op=0x8 R:36 W:0
# [2725] [PASS] LOAD lane=2 addr=0x521 data=0xffffff82 exp=0xffffff82 op=0x0 R:37 W:0
# [2875] [PASS] LOAD lane=2 addr=0x521 data=0x82 exp=0x82 op=0x4 R:38 W:0
# [2885] [PASS] STORE lane=3 addr=0x530 data=0x12120303 op=0xa R:39 W:0
# [3015] [PASS] LOAD lane=3 addr=0x530 data=0x12120303 exp=0x12120303 op=0x2 R:40 W:0
# [3025] [PASS] STORE lane=3 addr=0x532 data=0x8083 op=0x9 R:41 W:0
# [3085] [PASS] LOAD lane=3 addr=0x532 data=0xffff8083 exp=0xffff8083 op=0x1 R:42 W:0
# [3195] [PASS] LOAD lane=3 addr=0x532 data=0x8083 exp=0x8083 op=0x5 R:43 W:0
# [3205] [PASS] STORE lane=3 addr=0x531 data=0x83 op=0x8 R:44 W:0
# [3285] [PASS] LOAD lane=3 addr=0x531 data=0xffffff83 exp=0xffffff83 op=0x0 R:45 W:0
# [3365] [PASS] LOAD lane=3 addr=0x531 data=0x83 exp=0x83 op=0x4 R:46 W:0
# [3375] [PASS] STORE lane=0 addr=0x700 data=0xa5000000 op=0xa R:47 W:0
# [3485] [PASS] LOAD lane=0 addr=0x700 data=0xa5000000 exp=0xa5000000 op=0x2 R:48 W:0
# [3495] [PASS] STORE lane=0 addr=0x700 data=0x5a000000 op=0xa R:49 W:0
# [3655] [PASS] LOAD lane=0 addr=0x700 data=0x5a000000 exp=0x5a000000 op=0x2 R:50 W:0
# [3665] [PASS] STORE lane=1 addr=0x708 data=0xa5000001 op=0xa R:51 W:0
# [3865] [PASS] LOAD lane=1 addr=0x708 data=0xa5000001 exp=0xa5000001 op=0x2 R:52 W:0
# [3875] [PASS] STORE lane=1 addr=0x708 data=0x5a000001 op=0xa R:53 W:0
# [4055] [PASS] LOAD lane=1 addr=0x708 data=0x5a000001 exp=0x5a000001 op=0x2 R:54 W:0
# [4065] [PASS] STORE lane=2 addr=0x710 data=0xa5000002 op=0xa R:55 W:0
# [4315] [PASS] LOAD lane=2 addr=0x710 data=0xa5000002 exp=0xa5000002 op=0x2 R:56 W:0
# [4325] [PASS] STORE lane=2 addr=0x710 data=0x5a000002 op=0xa R:57 W:0
# [4505] [PASS] LOAD lane=2 addr=0x710 data=0x5a000002 exp=0x5a000002 op=0x2 R:58 W:0
# [4515] [PASS] STORE lane=3 addr=0x718 data=0xa5000003 op=0xa R:59 W:0
# [4675] [PASS] LOAD lane=3 addr=0x718 data=0xa5000003 exp=0xa5000003 op=0x2 R:60 W:0
# [4685] [PASS] STORE lane=3 addr=0x718 data=0x5a000003 op=0xa R:61 W:0
# [4895] [PASS] LOAD lane=3 addr=0x718 data=0x5a000003 exp=0x5a000003 op=0x2 R:62 W:0
# [5065] [PASS] LOAD lane=2 addr=0x310 data=0x0 exp=0x0 op=0x5 R:63 W:0
# [5215] [PASS] LOAD lane=3 addr=0x342 data=0x0 exp=0x0 op=0x4 R:64 W:0
# [5325] [PASS] LOAD lane=2 addr=0x306 data=0x0 exp=0x0 op=0x5 R:65 W:0
# [5335] [PASS] STORE lane=0 addr=0x4f0 data=0xf28f616a op=0x9 R:66 W:0
# [5415] [PASS] LOAD lane=0 addr=0x566 data=0x0 exp=0x0 op=0x1 R:67 W:0
# [5515] [PASS] LOAD lane=1 addr=0x192 data=0x0 exp=0x0 op=0x0 R:68 W:0
# [5615] [PASS] LOAD lane=2 addr=0x285 data=0x0 exp=0x0 op=0x4 R:69 W:0
# [5685] [PASS] STORE lane=0 addr=0xe2c data=0x39e6b379 op=0xa R:70 W:0
# [5755] [PASS] LOAD lane=0 addr=0x141 data=0x0 exp=0x0 op=0x0 R:71 W:0
# [5815] [PASS] LOAD lane=0 addr=0x106 data=0x0 exp=0x0 op=0x0 R:72 W:0
# [5955] [PASS] LOAD lane=1 addr=0x351 data=0x0 exp=0x0 op=0x0 R:73 W:0
# [6015] [PASS] LOAD lane=2 addr=0x235 data=0x0 exp=0x0 op=0x0 R:74 W:0
# [6075] [PASS] LOAD lane=3 addr=0xa2 data=0x0 exp=0x0 op=0x0 R:75 W:0
# [6195] [PASS] LOAD lane=1 addr=0xc50 data=0x0 exp=0x0 op=0x2 R:76 W:0
# [6255] [PASS] LOAD lane=3 addr=0xa04 data=0x0 exp=0x0 op=0x2 R:77 W:0
# [6265] [PASS] STORE lane=1 addr=0x44c data=0x35c986cf op=0xa R:78 W:0
# [6415] [PASS] LOAD lane=2 addr=0x25e data=0x0 exp=0x0 op=0x0 R:79 W:0
# [6565] [PASS] LOAD lane=0 addr=0xbac data=0x0 exp=0x0 op=0x2 R:80 W:0
# [6635] [PASS] LOAD lane=1 addr=0x710 data=0x5a000002 exp=0x5a000002 op=0x2 R:81 W:0
# [6645] [PASS] STORE lane=1 addr=0x9a8 data=0x91038576 op=0xa R:82 W:0
# [6775] [PASS] LOAD lane=3 addr=0x146 data=0x0 exp=0x0 op=0x1 R:83 W:0
# [6905] [PASS] LOAD lane=2 addr=0x406 data=0x0 exp=0x0 op=0x5 R:84 W:0
# [6965] [PASS] LOAD lane=3 addr=0xd28 data=0x0 exp=0x0 op=0x2 R:85 W:0
# [7065] [PASS] LOAD lane=1 addr=0x648 data=0x0 exp=0x0 op=0x5 R:86 W:0
# [7075] [PASS] STORE lane=0 addr=0x333 data=0xdc1940ae op=0x8 R:87 W:0
# [7225] [PASS] LOAD lane=2 addr=0x2da data=0x0 exp=0x0 op=0x0 R:88 W:0
# [7315] [PASS] LOAD lane=1 addr=0xd6 data=0x0 exp=0x0 op=0x0 R:89 W:0
# [7425] [PASS] LOAD lane=0 addr=0x7d data=0x0 exp=0x0 op=0x0 R:90 W:0
# [7545] [PASS] LOAD lane=2 addr=0x226 data=0x0 exp=0x0 op=0x0 R:91 W:0
# [7655] [PASS] LOAD lane=2 addr=0x71c data=0x0 exp=0x0 op=0x1 R:92 W:0
# [7665] [PASS] STORE lane=3 addr=0x145 data=0x8f2bef87 op=0x8 R:93 W:0
# [7755] [PASS] LOAD lane=3 addr=0x4f0 data=0x616a exp=0x616a op=0x5 R:94 W:0
# [7765] [PASS] STORE lane=2 addr=0x3e data=0x2759758e op=0x9 R:95 W:0
# [7895] [PASS] LOAD lane=3 addr=0x17d data=0x0 exp=0x0 op=0x4 R:96 W:0
# [8035] [PASS] LOAD lane=1 addr=0xa8 data=0x0 exp=0x0 op=0x4 R:97 W:0
# [8135] [PASS] LOAD lane=1 addr=0x400 data=0x0 exp=0x0 op=0x5 R:98 W:0
# [8275] [PASS] LOAD lane=2 addr=0x928 data=0x0 exp=0x0 op=0x2 R:99 W:0
# [8375] [PASS] LOAD lane=3 addr=0x292 data=0x0 exp=0x0 op=0x0 R:100 W:0
# [8445] [PASS] LOAD lane=1 addr=0x408 data=0x0 exp=0x0 op=0x1 R:101 W:0
# [8455] [PASS] STORE lane=3 addr=0x65a data=0x90c4c909 op=0x9 R:102 W:0
# [8465] [PASS] STORE lane=1 addr=0x5b data=0x9ad30d5b op=0x8 R:103 W:0
# [8475] [PASS] STORE lane=0 addr=0x1ce data=0x9738c0bd op=0x9 R:104 W:0
# [8585] [PASS] LOAD lane=2 addr=0x338 data=0x0 exp=0x0 op=0x4 R:105 W:0
# [8595] [PASS] STORE lane=2 addr=0x1c6 data=0x35035eb3 op=0x9 R:106 W:0
# [8745] [PASS] LOAD lane=3 addr=0xf3c data=0x0 exp=0x0 op=0x2 R:107 W:0
# [8755] [PASS] STORE lane=0 addr=0x860 data=0x8bd604b9 op=0xa R:108 W:0
# [8765] [PASS] STORE lane=1 addr=0xd18 data=0xf0f3b690 op=0xa R:109 W:0
# [8775] [PASS] STORE lane=2 addr=0x30c data=0xbf2dd279 op=0x8 R:110 W:0
# [8795] [PASS] STORE lane=1 addr=0x370 data=0x7b1eea03 op=0xa R:111 W:0
# [8805] [PASS] STORE lane=1 addr=0x100 data=0x2638d1e8 op=0x8 R:112 W:0
# [8905] [PASS] LOAD lane=1 addr=0x6b8 data=0x0 exp=0x0 op=0x2 R:113 W:0
# [8985] [PASS] LOAD lane=3 addr=0xb6 data=0x0 exp=0x0 op=0x5 R:114 W:0
# [9075] [PASS] LOAD lane=3 addr=0x794 data=0x0 exp=0x0 op=0x5 R:115 W:0
# [9085] [PASS] STORE lane=2 addr=0x5ac data=0x1939da34 op=0x9 R:116 W:0
# [9195] [PASS] LOAD lane=1 addr=0x4e0 data=0x0 exp=0x0 op=0x2 R:117 W:0
# [9205] [PASS] STORE lane=1 addr=0x2cc data=0x2ea84b13 op=0x8 R:118 W:0
# [9215] [PASS] STORE lane=0 addr=0x27c data=0xd7f5cf7c op=0x9 R:119 W:0
# [9395] [PASS] LOAD lane=2 addr=0x16b data=0x0 exp=0x0 op=0x0 R:120 W:0
# [9405] [PASS] STORE lane=1 addr=0x478 data=0xbc264a97 op=0xa R:121 W:0
# [9505] [PASS] LOAD lane=0 addr=0x28a data=0x0 exp=0x0 op=0x1 R:122 W:0
# [9515] [PASS] STORE lane=0 addr=0x388 data=0x12bab3b2 op=0x8 R:123 W:0
# [9525] [PASS] STORE lane=1 addr=0xee data=0xe4cb8048 op=0x8 R:124 W:0
# [9535] [PASS] STORE lane=1 addr=0x6e4 data=0x142f81ad op=0xa R:125 W:0
# [9685] [PASS] LOAD lane=3 addr=0x59c data=0x0 exp=0x0 op=0x1 R:126 W:0
# [9695] [PASS] STORE lane=1 addr=0x688 data=0xaf2e8796 op=0xa R:127 W:0
# [9705] [PASS] STORE lane=3 addr=0x108 data=0x195e7e62 op=0x9 R:128 W:0
# [9785] [PASS] LOAD lane=1 addr=0x7b data=0x0 exp=0x0 op=0x0 R:129 W:0
# [9945] [PASS] LOAD lane=3 addr=0x4fe data=0x0 exp=0x0 op=0x1 R:130 W:0
# [9955] [PASS] STORE lane=3 addr=0x37c data=0xf93db443 op=0x8 R:131 W:0
# [9965] [PASS] STORE lane=3 addr=0x23e data=0x43d88611 op=0x8 R:132 W:0
# [10105] [PASS] LOAD lane=3 addr=0x138 data=0x0 exp=0x0 op=0x2 R:133 W:0
# [10185] [PASS] LOAD lane=2 addr=0xe50 data=0x0 exp=0x0 op=0x2 R:134 W:0
# [10335] [PASS] LOAD lane=0 addr=0x284 data=0x0 exp=0x0 op=0x5 R:135 W:0
# [10425] [PASS] LOAD lane=0 addr=0x9f8 data=0x0 exp=0x0 op=0x2 R:136 W:0
# [10435] [PASS] STORE lane=3 addr=0x25a data=0x537650e5 op=0x9 R:137 W:0
# [10445] [PASS] STORE lane=0 addr=0x177 data=0xc2df0a41 op=0x8 R:138 W:0
# [10455] [PASS] STORE lane=2 addr=0x62 data=0xc5a392cf op=0x8 R:139 W:0
# [10605] [PASS] LOAD lane=0 addr=0x43 data=0x0 exp=0x0 op=0x0 R:140 W:0
# [10695] [PASS] LOAD lane=3 addr=0x276 data=0x0 exp=0x0 op=0x5 R:141 W:0
# [10795] [PASS] LOAD lane=2 addr=0x7c0 data=0x0 exp=0x0 op=0x2 R:142 W:0
# [10905] [PASS] LOAD lane=3 addr=0x1ec data=0x0 exp=0x0 op=0x4 R:143 W:0
# [10915] [PASS] STORE lane=1 addr=0x376 data=0xaa6a7076 op=0x8 R:144 W:0
# [10965] [PASS] STORE lane=2 addr=0x2de data=0xa3536a72 op=0x8 R:145 W:0
# [10975] [PASS] STORE lane=2 addr=0x738 data=0x74accff2 op=0x9 R:146 W:0
# [11075] [PASS] LOAD lane=2 addr=0x1cd data=0x0 exp=0x0 op=0x4 R:147 W:0
# [11165] [PASS] LOAD lane=3 addr=0x7ea data=0x0 exp=0x0 op=0x5 R:148 W:0
# [11305] [PASS] STORE lane=0 addr=0xb28 data=0x4dfea98 op=0xa R:149 W:0
# [11415] [PASS] LOAD lane=1 addr=0x46c data=0x0 exp=0x0 op=0x1 R:150 W:0
# [11505] [PASS] STORE lane=1 addr=0x91 data=0xd11ed712 op=0x8 R:151 W:0
# [11585] [PASS] LOAD lane=2 addr=0x1b8 data=0x0 exp=0x0 op=0x2 R:152 W:0
# [11715] [PASS] LOAD lane=2 addr=0x6aa data=0x0 exp=0x0 op=0x5 R:153 W:0
# [11725] [PASS] STORE lane=0 addr=0x9f8 data=0xfc7835c3 op=0xa R:154 W:0
# [11735] [PASS] STORE lane=2 addr=0x5e data=0x76dac078 op=0x9 R:155 W:0
# [11885] [PASS] LOAD lane=0 addr=0x158 data=0x0 exp=0x0 op=0x2 R:156 W:0
# [12005] [PASS] LOAD lane=1 addr=0x4e4 data=0x0 exp=0x0 op=0x1 R:157 W:0
# [12015] [PASS] STORE lane=3 addr=0x1c2 data=0xd134d09c op=0x9 R:158 W:0
# [12025] [PASS] STORE lane=1 addr=0x40c data=0xe37f703a op=0xa R:159 W:0
# [12145] [PASS] LOAD lane=1 addr=0x7c0 data=0x0 exp=0x0 op=0x5 R:160 W:0
# [12265] [PASS] LOAD lane=2 addr=0x3a data=0x0 exp=0x0 op=0x5 R:161 W:0
# [12275] [PASS] STORE lane=0 addr=0x612 data=0x531605fa op=0x9 R:162 W:0
# [12395] [PASS] LOAD lane=3 addr=0x95 data=0x0 exp=0x0 op=0x0 R:163 W:0
# [12405] [PASS] STORE lane=3 addr=0x191 data=0x2c2aee2b op=0x8 R:164 W:0
# [12495] [PASS] LOAD lane=1 addr=0x612 data=0x5fa exp=0x5fa op=0x1 R:165 W:0
# [12565] [PASS] LOAD lane=1 addr=0x504 data=0x0 exp=0x0 op=0x1 R:166 W:0
# [12635] [PASS] LOAD lane=0 addr=0x2f data=0x0 exp=0x0 op=0x0 R:167 W:0
# [12735] [PASS] LOAD lane=0 addr=0x15 data=0x0 exp=0x0 op=0x4 R:168 W:0
# [12945] [PASS] LOAD lane=2 addr=0x570 data=0x0 exp=0x0 op=0x5 R:169 W:0
# [13025] [PASS] LOAD lane=1 addr=0x4cc data=0x0 exp=0x0 op=0x1 R:170 W:0
# [13035] [PASS] STORE lane=2 addr=0x244 data=0xd38c8723 op=0xa R:171 W:0
# [13165] [PASS] LOAD lane=0 addr=0x2ac data=0x0 exp=0x0 op=0x4 R:172 W:0
# [13295] [PASS] LOAD lane=3 addr=0x150 data=0x0 exp=0x0 op=0x5 R:173 W:0
# [13305] [PASS] STORE lane=2 addr=0x361 data=0x6ed1ceb0 op=0x8 R:174 W:0
# [13365] [PASS] LOAD lane=0 addr=0x9f4 data=0x0 exp=0x0 op=0x2 R:175 W:0
# [13375] [PASS] STORE lane=1 addr=0xc14 data=0xd518eb25 op=0xa R:176 W:0
# [13385] [PASS] STORE lane=3 addr=0x252 data=0x3991ebd1 op=0x9 R:177 W:0
# [13535] [PASS] LOAD lane=3 addr=0xc6 data=0x0 exp=0x0 op=0x4 R:178 W:0
# [13665] [PASS] LOAD lane=1 addr=0x5ea data=0x0 exp=0x0 op=0x5 R:179 W:0
# [13745] [PASS] LOAD lane=2 addr=0x308 data=0x0 exp=0x0 op=0x5 R:180 W:0
# [13885] [PASS] LOAD lane=1 addr=0x128 data=0x0 exp=0x0 op=0x4 R:181 W:0
# [13895] [PASS] STORE lane=0 addr=0x464 data=0x15963395 op=0x9 R:182 W:0
# [13905] [PASS] STORE lane=2 addr=0xefc data=0x7a530494 op=0xa R:183 W:0
# [14045] [PASS] LOAD lane=0 addr=0xb94 data=0x0 exp=0x0 op=0x2 R:184 W:0
# [14125] [PASS] LOAD lane=2 addr=0xcc data=0x0 exp=0x0 op=0x4 R:185 W:0
# [14365] [PASS] LOAD lane=0 addr=0x122 data=0x0 exp=0x0 op=0x1 R:186 W:0
# [14495] [PASS] LOAD lane=2 addr=0xde0 data=0x0 exp=0x0 op=0x2 R:187 W:0
# [14585] [PASS] LOAD lane=2 addr=0x1ed data=0x0 exp=0x0 op=0x0 R:188 W:0
# [14695] [PASS] LOAD lane=3 addr=0x8b data=0x0 exp=0x0 op=0x4 R:189 W:0
# [14835] [PASS] LOAD lane=0 addr=0x6c data=0x0 exp=0x0 op=0x1 R:190 W:0
# [14845] [PASS] STORE lane=3 addr=0x7f4 data=0xde9d3333 op=0xa R:191 W:0
# [14955] [PASS] LOAD lane=0 addr=0x522 data=0xffff8082 exp=0xffff8082 op=0x1 R:192 W:0
# [14965] [PASS] STORE lane=0 addr=0x258 data=0xe70daf4b op=0x8 R:193 W:0
# [15085] [PASS] LOAD lane=2 addr=0xa2 data=0x0 exp=0x0 op=0x4 R:194 W:0
# [15095] [PASS] STORE lane=1 addr=0x1d2 data=0xe70bae0e op=0x9 R:195 W:0
# [15105] [PASS] STORE lane=0 addr=0x7f4 data=0x18c9491 op=0x9 R:196 W:0
# [15215] [PASS] LOAD lane=1 addr=0x2f8 data=0x0 exp=0x0 op=0x2 R:197 W:0
# [15355] [PASS] LOAD lane=1 addr=0x22b data=0x0 exp=0x0 op=0x0 R:198 W:0
# [15365] [PASS] STORE lane=1 addr=0x95 data=0x7431816b op=0x8 R:199 W:0
# [15425] [PASS] LOAD lane=2 addr=0x112 data=0x0 exp=0x0 op=0x0 R:200 W:0
# [15535] [PASS] LOAD lane=2 addr=0xba data=0x0 exp=0x0 op=0x4 R:201 W:0
# [15675] [PASS] LOAD lane=2 addr=0x112 data=0x0 exp=0x0 op=0x0 R:202 W:0
# [15775] [PASS] LOAD lane=2 addr=0xd8 data=0x0 exp=0x0 op=0x4 R:203 W:0
# [15785] [PASS] STORE lane=3 addr=0x3a0 data=0x5803309f op=0xa R:204 W:0
# [15905] [PASS] LOAD lane=0 addr=0x17c data=0x0 exp=0x0 op=0x2 R:205 W:0
# [16005] [PASS] LOAD lane=1 addr=0x2d7 data=0x0 exp=0x0 op=0x0 R:206 W:0
# [16165] [PASS] LOAD lane=3 addr=0x3c8 data=0x0 exp=0x0 op=0x0 R:207 W:0
# [16225] [PASS] LOAD lane=0 addr=0xa70 data=0x0 exp=0x0 op=0x2 R:208 W:0
# [16235] [PASS] STORE lane=3 addr=0x8a4 data=0xccbcc188 op=0xa R:209 W:0
# [16245] [PASS] STORE lane=0 addr=0x349 data=0xcb8a37c6 op=0x8 R:210 W:0
# [16255] [PASS] STORE lane=1 addr=0x28e data=0x63aedb20 op=0x8 R:211 W:0
# [16295] [PASS] STORE lane=2 addr=0x3c4 data=0xd2e33a24 op=0xa R:212 W:0
# [16455] [PASS] LOAD lane=3 addr=0x116 data=0x0 exp=0x0 op=0x5 R:213 W:0
# [16465] [PASS] STORE lane=0 addr=0x574 data=0x306c53ac op=0xa R:214 W:0
# [16585] [PASS] LOAD lane=2 addr=0x782 data=0x0 exp=0x0 op=0x5 R:215 W:0
# [16595] [PASS] STORE lane=2 addr=0x129 data=0x6a1604b5 op=0x8 R:216 W:0
# [16605] [PASS] STORE lane=0 addr=0xc0 data=0xc9b33625 op=0x9 R:217 W:0
# [16715] [PASS] LOAD lane=3 addr=0x5b8 data=0x0 exp=0x0 op=0x5 R:218 W:0
# [16725] [PASS] STORE lane=2 addr=0x5d4 data=0x768199be op=0x9 R:219 W:0
# [16805] [PASS] LOAD lane=0 addr=0x1cb data=0x0 exp=0x0 op=0x0 R:220 W:0
# [16905] [PASS] LOAD lane=2 addr=0x726 data=0x0 exp=0x0 op=0x1 R:221 W:0
# [17015] [PASS] LOAD lane=0 addr=0x548 data=0x0 exp=0x0 op=0x5 R:222 W:0
# [17075] [PASS] LOAD lane=2 addr=0x305 data=0x0 exp=0x0 op=0x0 R:223 W:0
# [17155] [PASS] LOAD lane=0 addr=0x361 data=0xffffffb0 exp=0xffffffb0 op=0x0 R:224 W:0
# [17215] [PASS] LOAD lane=3 addr=0x38 data=0x0 exp=0x0 op=0x0 R:225 W:0
# [17335] [PASS] LOAD lane=3 addr=0xe4c data=0x0 exp=0x0 op=0x2 R:226 W:0
# [17345] [PASS] STORE lane=3 addr=0x6b data=0xa6842b30 op=0x8 R:227 W:0
# [17355] [PASS] STORE lane=1 addr=0x4 data=0x65d4b7a9 op=0x8 R:228 W:0
# [17365] [PASS] STORE lane=2 addr=0x17a data=0x1f18b09c op=0x9 R:229 W:0
# [17455] [PASS] LOAD lane=0 addr=0x17c data=0x0 exp=0x0 op=0x2 R:230 W:0
# [17465] [PASS] STORE lane=3 addr=0x3e8 data=0x34f1389f op=0xa R:231 W:0
# [17475] [PASS] STORE lane=0 addr=0x2e3 data=0x89b2ad0e op=0x8 R:232 W:0
# [17485] [PASS] STORE lane=0 addr=0x196 data=0xcb73fb1b op=0x9 R:233 W:0
# [17635] [PASS] LOAD lane=2 addr=0x312 data=0x0 exp=0x0 op=0x4 R:234 W:0
# [17755] [PASS] LOAD lane=0 addr=0xaa0 data=0x0 exp=0x0 op=0x2 R:235 W:0
# [17825] [PASS] LOAD lane=3 addr=0x90 data=0x1200 exp=0x1200 op=0x1 R:236 W:0
# [17835] [PASS] STORE lane=3 addr=0x42c data=0x63890d69 op=0x9 R:237 W:0
# [17845] [PASS] STORE lane=3 addr=0xad8 data=0x229d5df5 op=0xa R:238 W:0
# [17985] [PASS] LOAD lane=3 addr=0x2b6 data=0x0 exp=0x0 op=0x1 R:239 W:0
# [17995] [PASS] STORE lane=0 addr=0x222 data=0xaffd725a op=0x9 R:240 W:0
# [18125] [PASS] LOAD lane=3 addr=0x1b8 data=0x0 exp=0x0 op=0x4 R:241 W:0
# [18275] [PASS] LOAD lane=1 addr=0xf7 data=0x0 exp=0x0 op=0x0 R:242 W:0
# [18285] [PASS] STORE lane=3 addr=0x1a0 data=0xbc4a7490 op=0x8 R:243 W:0
# [18295] [PASS] STORE lane=1 addr=0x360 data=0x97452164 op=0x9 R:244 W:0
# [18305] [PASS] STORE lane=2 addr=0x780 data=0x7e0b9376 op=0x9 R:245 W:0
# [18315] [PASS] STORE lane=1 addr=0x518 data=0x5c675db3 op=0xa R:246 W:0
# [18335] [PASS] STORE lane=0 addr=0xfd8 data=0xcb87afc6 op=0xa R:247 W:0
# [18465] [PASS] LOAD lane=2 addr=0xacc data=0x0 exp=0x0 op=0x2 R:248 W:0
# [18605] [PASS] LOAD lane=1 addr=0x323 data=0x0 exp=0x0 op=0x4 R:249 W:0
# [18765] [PASS] LOAD lane=3 addr=0x928 data=0x0 exp=0x0 op=0x2 R:250 W:0
# [18775] [PASS] STORE lane=2 addr=0xef8 data=0x5a773fd9 op=0xa R:251 W:0
# [18915] [PASS] LOAD lane=3 addr=0x361 data=0x21 exp=0x21 op=0x0 R:252 W:0
# [19025] [PASS] LOAD lane=1 addr=0x12 data=0x0 exp=0x0 op=0x4 R:253 W:0
# [19105] [PASS] LOAD lane=1 addr=0x33c data=0x0 exp=0x0 op=0x2 R:254 W:0
# [19115] [PASS] STORE lane=2 addr=0x39c data=0x12e86066 op=0x8 R:255 W:0
# [19125] [PASS] STORE lane=3 addr=0xe08 data=0x81f411d2 op=0xa R:256 W:0
# [19245] [PASS] LOAD lane=1 addr=0xcb data=0x0 exp=0x0 op=0x0 R:257 W:0
# [19365] [PASS] LOAD lane=2 addr=0x25b data=0x50 exp=0x50 op=0x4 R:258 W:0
# [19375] [PASS] STORE lane=3 addr=0xfd4 data=0x4056269f op=0xa R:259 W:0
# [19385] [PASS] STORE lane=3 addr=0x20 data=0x2f42eeb8 op=0x9 R:260 W:0
# [19545] [PASS] LOAD lane=1 addr=0x1c0 data=0x0 exp=0x0 op=0x4 R:261 W:0
# [19555] [PASS] STORE lane=2 addr=0x3d data=0x136c0401 op=0x8 R:262 W:0
# [19635] [PASS] LOAD lane=3 addr=0x2d7 data=0x0 exp=0x0 op=0x0 R:263 W:0
# [19645] [PASS] STORE lane=3 addr=0x214 data=0x5e08fb26 op=0xa R:264 W:0
# [19655] [PASS] STORE lane=3 addr=0x16d data=0x780261df op=0x8 R:265 W:0
# [19665] [PASS] STORE lane=2 addr=0x66c data=0xc824c673 op=0x9 R:266 W:0
# [19755] [PASS] LOAD lane=0 addr=0x2df data=0x0 exp=0x0 op=0x4 R:267 W:0
# [19765] [PASS] STORE lane=3 addr=0x682 data=0x4c9d8abb op=0x9 R:268 W:0
# [19775] [PASS] STORE lane=1 addr=0xec0 data=0xcf20558e op=0xa R:269 W:0
# [19945] [PASS] LOAD lane=0 addr=0x79a data=0x0 exp=0x0 op=0x5 R:270 W:0
# [20035] [PASS] LOAD lane=3 addr=0x4c0 data=0x0 exp=0x0 op=0x1 R:271 W:0
# [20145] [PASS] LOAD lane=0 addr=0x264 data=0x0 exp=0x0 op=0x4 R:272 W:0
# [20275] [PASS] LOAD lane=1 addr=0xb44 data=0x0 exp=0x0 op=0x2 R:273 W:0
# [20375] [PASS] LOAD lane=1 addr=0x9c data=0x0 exp=0x0 op=0x0 R:274 W:0
# [20385] [PASS] STORE lane=1 addr=0x89 data=0x917a92c0 op=0x8 R:275 W:0
