out_regression_20seed/seed_4.log
Reading pref.tcl

# 2021.1

# vsim -c work_regression.lsu_slice_tb_v2 -sv_seed 4 "+SEED=4" "+NUM_OPS=500" -do "run -all; quit -f" 
# Start time: 04:10:01 on Jun 22,2026
# ** Note: (vsim-8009) Loading existing optimized design _opt
# //  Questa Sim-64
# //  Version 2021.1 win64 Jan 19 2021
# //
# //  Copyright 1991-2021 Mentor Graphics Corporation
# //  All Rights Reserved.
# //
# //  QuestaSim and its associated documentation contain trade
# //  secrets and commercial or financial information that are the property of
# //  Mentor Graphics Corporation and are privileged, confidential,
# //  and exempt from disclosure under the Freedom of Information Act,
# //  5 U.S.C. Section 552. Furthermore, this information
# //  is prohibited from disclosure under the Trade Secrets Act,
# //  18 U.S.C. Section 1905.
# //
# Loading sv_std.std
# Loading work.VX_gpu_pkg(fast)
# Loading work.lsu_sequence_item_pkg(fast)
# Loading work.lsu_scoreboard_pkg(fast)
# Loading work.lsu_monitor_pkg(fast)
# Loading work.vx_lsu_slice_tb_v2_sv_unit(fast)
# Loading work.lsu_slice_tb_v2(fast)
# Loading work.VX_lsu_slice(fast)
# Loading work.VX_elastic_buffer(fast__3)
# Loading work.VX_elastic_buffer(fast__4)
# Loading work.VX_stream_arb(fast)
# Loading work.lsu_mem_model_rand_sv_unit(fast)
# Loading work.lsu_mem_model_rand(fast)
# run -all
# [75] [PASS] STORE lane=0 addr=0x100 data=0xdeadbeef op=0xa R:1 W:0
# [155] [PASS] LOAD lane=0 addr=0x100 data=0xdeadbeef exp=0xdeadbeef op=0x2 R:2 W:0
# [165] [PASS] STORE lane=1 addr=0x108 data=0x8001 op=0x9 R:3 W:0
# [245] [PASS] LOAD lane=1 addr=0x108 data=0xffff8001 exp=0xffff8001 op=0x1 R:4 W:0
# [305] [PASS] LOAD lane=1 addr=0x108 data=0x8001 exp=0x8001 op=0x5 R:5 W:0
# [315] [PASS] STORE lane=2 addr=0x10c data=0x80 op=0x8 R:6 W:0
# [405] [PASS] LOAD lane=2 addr=0x10c data=0xffffff80 exp=0xffffff80 op=0x0 R:7 W:0
# [535] [PASS] LOAD lane=2 addr=0x10c data=0x80 exp=0x80 op=0x4 R:8 W:0
# [545] [PASS] STORE lane=3 addr=0x3f8 data=0xa5a5a5a5 op=0xa R:9 W:0
# [625] [PASS] LOAD lane=3 addr=0x3f8 data=0xa5a5a5a5 exp=0xa5a5a5a5 op=0x2 R:10 W:0
# [635] [PASS] STORE lane=0 addr=0x3fc data=0xf00f op=0x9 R:11 W:0
# [755] [PASS] LOAD lane=0 addr=0x3fc data=0xfffff00f exp=0xfffff00f op=0x1 R:12 W:0
# [765] [PASS] STORE lane=1 addr=0x3ff data=0xff op=0x8 R:13 W:0
# [905] [PASS] LOAD lane=1 addr=0x3ff data=0xff exp=0xff op=0x4 R:14 W:0
# [915] [PASS] STORE lane=0 addr=0x500 data=0x11110000 op=0xa R:15 W:0
# [1035] [PASS] LOAD lane=0 addr=0x500 data=0x11110000 exp=0x11110000 op=0x2 R:16 W:0
# [1045] [PASS] STORE lane=0 addr=0x502 data=0x8080 op=0x9 R:17 W:0
# [1155] [PASS] LOAD lane=0 addr=0x502 data=0xffff8080 exp=0xffff8080 op=0x1 R:18 W:0
# [1215] [PASS] LOAD lane=0 addr=0x502 data=0x8080 exp=0x8080 op=0x5 R:19 W:0
# [1225] [PASS] STORE lane=0 addr=0x501 data=0x80 op=0x8 R:20 W:0
# [1375] [PASS] LOAD lane=0 addr=0x501 data=0xffffff80 exp=0xffffff80 op=0x0 R:21 W:0
# [1445] [PASS] LOAD lane=0 addr=0x501 data=0x80 exp=0x80 op=0x4 R:22 W:0
# [1455] [PASS] STORE lane=1 addr=0x510 data=0x10100101 op=0xa R:23 W:0
# [1555] [PASS] LOAD lane=1 addr=0x510 data=0x10100101 exp=0x10100101 op=0x2 R:24 W:0
# [1565] [PASS] STORE lane=1 addr=0x512 data=0x8081 op=0x9 R:25 W:0
# [1705] [PASS] LOAD lane=1 addr=0x512 data=0xffff8081 exp=0xffff8081 op=0x1 R:26 W:0
# [1815] [PASS] LOAD lane=1 addr=0x512 data=0x8081 exp=0x8081 op=0x5 R:27 W:0
# [1825] [PASS] STORE lane=1 addr=0x511 data=0x81 op=0x8 R:28 W:0
# [1965] [PASS] LOAD lane=1 addr=0x511 data=0xffffff81 exp=0xffffff81 op=0x0 R:29 W:0
# [2045] [PASS] LOAD lane=1 addr=0x511 data=0x81 exp=0x81 op=0x4 R:30 W:0
# [2055] [PASS] STORE lane=2 addr=0x520 data=0x13130202 op=0xa R:31 W:0
# [2115] [PASS] LOAD lane=2 addr=0x520 data=0x13130202 exp=0x13130202 op=0x2 R:32 W:0
# [2125] [PASS] STORE lane=2 addr=0x522 data=0x8082 op=0x9 R:33 W:0
# [2255] [PASS] LOAD lane=2 addr=0x522 data=0xffff8082 exp=0xffff8082 op=0x1 R:34 W:0
# [2325] [PASS] LOAD lane=2 addr=0x522 data=0x8082 exp=0x8082 op=0x5 R:35 W:0
# [2335] [PASS] STORE lane=2 addr=0x521 data=0x82 op=0x8 R:36 W:0
# [2475] [PASS] LOAD lane=2 addr=0x521 data=0xffffff82 exp=0xffffff82 op=0x0 R:37 W:0
# [2625] [PASS] LOAD lane=2 addr=0x521 data=0x82 exp=0x82 op=0x4 R:38 W:0
# [2635] [PASS] STORE lane=3 addr=0x530 data=0x12120303 op=0xa R:39 W:0
# [2695] [PASS] LOAD lane=3 addr=0x530 data=0x12120303 exp=0x12120303 op=0x2 R:40 W:0
# [2705] [PASS] STORE lane=3 addr=0x532 data=0x8083 op=0x9 R:41 W:0
# [2805] [PASS] LOAD lane=3 addr=0x532 data=0xffff8083 exp=0xffff8083 op=0x1 R:42 W:0
# [2885] [PASS] LOAD lane=3 addr=0x532 data=0x8083 exp=0x8083 op=0x5 R:43 W:0
# [2895] [PASS] STORE lane=3 addr=0x531 data=0x83 op=0x8 R:44 W:0
# [3035] [PASS] LOAD lane=3 addr=0x531 data=0xffffff83 exp=0xffffff83 op=0x0 R:45 W:0
# [3105] [PASS] LOAD lane=3 addr=0x531 data=0x83 exp=0x83 op=0x4 R:46 W:0
# [3115] [PASS] STORE lane=0 addr=0x700 data=0xa5000000 op=0xa R:47 W:0
# [3315] [PASS] LOAD lane=0 addr=0x700 data=0xa5000000 exp=0xa5000000 op=0x2 R:48 W:0
# [3325] [PASS] STORE lane=0 addr=0x700 data=0x5a000000 op=0xa R:49 W:0
# [3555] [PASS] LOAD lane=0 addr=0x700 data=0x5a000000 exp=0x5a000000 op=0x2 R:50 W:0
# [3565] [PASS] STORE lane=1 addr=0x708 data=0xa5000001 op=0xa R:51 W:0
# [3725] [PASS] LOAD lane=1 addr=0x708 data=0xa5000001 exp=0xa5000001 op=0x2 R:52 W:0
# [3735] [PASS] STORE lane=1 addr=0x708 data=0x5a000001 op=0xa R:53 W:0
# [3885] [PASS] LOAD lane=1 addr=0x708 data=0x5a000001 exp=0x5a000001 op=0x2 R:54 W:0
# [3895] [PASS] STORE lane=2 addr=0x710 data=0xa5000002 op=0xa R:55 W:0
# [4075] [PASS] LOAD lane=2 addr=0x710 data=0xa5000002 exp=0xa5000002 op=0x2 R:56 W:0
# [4085] [PASS] STORE lane=2 addr=0x710 data=0x5a000002 op=0xa R:57 W:0
# [4275] [PASS] LOAD lane=2 addr=0x710 data=0x5a000002 exp=0x5a000002 op=0x2 R:58 W:0
# [4285] [PASS] STORE lane=3 addr=0x718 data=0xa5000003 op=0xa R:59 W:0
# [4455] [PASS] LOAD lane=3 addr=0x718 data=0xa5000003 exp=0xa5000003 op=0x2 R:60 W:0
# [4465] [PASS] STORE lane=3 addr=0x718 data=0x5a000003 op=0xa R:61 W:0
# [4635] [PASS] LOAD lane=3 addr=0x718 data=0x5a000003 exp=0x5a000003 op=0x2 R:62 W:0
# [4645] [PASS] STORE lane=0 addr=0x294 data=0x25f9174b op=0x8 R:63 W:0
# [4655] [PASS] STORE lane=0 addr=0x3b1 data=0xc0d3436a op=0x8 R:64 W:0
# [4765] [PASS] STORE lane=3 addr=0x63e data=0x40ecf493 op=0x9 R:65 W:0
# [4855] [PASS] LOAD lane=2 addr=0x202 data=0x0 exp=0x0 op=0x4 R:66 W:0
# [4865] [PASS] STORE lane=0 addr=0x42 data=0x3f4c9a18 op=0x8 R:67 W:0
# [4875] [PASS] STORE lane=3 addr=0xbb8 data=0xc206d19e op=0xa R:68 W:0
# [4905] [PASS] STORE lane=0 addr=0x950 data=0x2e31a567 op=0xa R:69 W:0
# [4915] [PASS] STORE lane=0 addr=0x90 data=0x34152e6b op=0x8 R:70 W:0
# [4925] [PASS] STORE lane=0 addr=0x900 data=0xb4cd20a3 op=0xa R:71 W:0
# [5085] [PASS] LOAD lane=0 addr=0x4da data=0x0 exp=0x0 op=0x5 R:72 W:0
# [5095] [PASS] STORE lane=3 addr=0x770 data=0x3e241163 op=0x9 R:73 W:0
# [5215] [PASS] LOAD lane=1 addr=0x161 data=0x0 exp=0x0 op=0x4 R:74 W:0
# [5225] [PASS] STORE lane=0 addr=0xc40 data=0x5a1cbc55 op=0xa R:75 W:0
# [5295] [PASS] LOAD lane=3 addr=0x2cc data=0x0 exp=0x0 op=0x5 R:76 W:0
# [5305] [PASS] STORE lane=2 addr=0x25c data=0xd99e49fd op=0xa R:77 W:0
# [5315] [PASS] STORE lane=2 addr=0x998 data=0xc0f61603 op=0xa R:78 W:0
# [5405] [PASS] LOAD lane=1 addr=0x70a data=0x5a00 exp=0x5a00 op=0x5 R:79 W:0
# [5495] [PASS] LOAD lane=2 addr=0x14 data=0x0 exp=0x0 op=0x0 R:80 W:0
# [5595] [PASS] LOAD lane=0 addr=0x900 data=0xb4cd20a3 exp=0xb4cd20a3 op=0x2 R:81 W:0
# [5665] [PASS] LOAD lane=1 addr=0x33c data=0x0 exp=0x0 op=0x4 R:82 W:0
# [5755] [PASS] LOAD lane=2 addr=0x538 data=0x0 exp=0x0 op=0x2 R:83 W:0
# [5915] [PASS] LOAD lane=3 addr=0x42c data=0x0 exp=0x0 op=0x1 R:84 W:0
# [5925] [PASS] STORE lane=0 addr=0x75 data=0xe382c5a6 op=0x8 R:85 W:0
# [6025] [PASS] LOAD lane=2 addr=0xa data=0x0 exp=0x0 op=0x5 R:86 W:0
# [6035] [PASS] STORE lane=3 addr=0x264 data=0xb40889e1 op=0x9 R:87 W:0
# [6185] [PASS] LOAD lane=0 addr=0x238 data=0x0 exp=0x0 op=0x4 R:88 W:0
# [6355] [PASS] LOAD lane=0 addr=0x30e data=0x0 exp=0x0 op=0x4 R:89 W:0
# [6495] [PASS] LOAD lane=1 addr=0x334 data=0x0 exp=0x0 op=0x4 R:90 W:0
# [6505] [PASS] STORE lane=0 addr=0x46e data=0xe029f231 op=0x9 R:91 W:0
# [6515] [PASS] STORE lane=2 addr=0x20e data=0xcb1c4d33 op=0x9 R:92 W:0
# [6525] [PASS] STORE lane=1 addr=0x358 data=0x3ee64cae op=0x9 R:93 W:0
# [6645] [PASS] LOAD lane=1 addr=0x62e data=0x0 exp=0x0 op=0x5 R:94 W:0
# [6765] [PASS] LOAD lane=3 addr=0x118 data=0x0 exp=0x0 op=0x1 R:95 W:0
# [6885] [PASS] LOAD lane=1 addr=0x340 data=0x0 exp=0x0 op=0x0 R:96 W:0
# [6995] [PASS] LOAD lane=1 addr=0x204 data=0x0 exp=0x0 op=0x5 R:97 W:0
# [7005] [PASS] STORE lane=3 addr=0x346 data=0xe44a7565 op=0x9 R:98 W:0
# [7165] [PASS] LOAD lane=2 addr=0x286 data=0x0 exp=0x0 op=0x5 R:99 W:0
# [7175] [PASS] STORE lane=1 addr=0x48 data=0x8bc4cb43 op=0x8 R:100 W:0
# [7185] [PASS] STORE lane=2 addr=0x20c data=0x8c9d7d53 op=0x8 R:101 W:0
# [7195] [PASS] STORE lane=1 addr=0x109 data=0xc9aee70 op=0x8 R:102 W:0
# [7335] [PASS] LOAD lane=2 addr=0x296 data=0x0 exp=0x0 op=0x0 R:103 W:0
# [7345] [PASS] STORE lane=1 addr=0x146 data=0x7273fd76 op=0x8 R:104 W:0
# [7475] [PASS] LOAD lane=0 addr=0x2d8 data=0x0 exp=0x0 op=0x5 R:105 W:0
# [7605] [PASS] LOAD lane=2 addr=0xad0 data=0x0 exp=0x0 op=0x2 R:106 W:0
# [7615] [PASS] STORE lane=0 addr=0x245 data=0x314c2b5b op=0x8 R:107 W:0
# [7695] [PASS] STORE lane=0 addr=0x32e data=0xc676e22 op=0x8 R:108 W:0
# [7705] [PASS] STORE lane=3 addr=0x24 data=0xb55c4d1d op=0x8 R:109 W:0
# [7845] [PASS] LOAD lane=3 addr=0x4e6 data=0x0 exp=0x0 op=0x5 R:110 W:0
# [7975] [PASS] LOAD lane=3 addr=0x3d5 data=0x0 exp=0x0 op=0x4 R:111 W:0
# [8075] [PASS] LOAD lane=3 addr=0x36c data=0x0 exp=0x0 op=0x5 R:112 W:0
# [8085] [PASS] STORE lane=2 addr=0x392 data=0x88f4beeb op=0x8 R:113 W:0
# [8095] [PASS] STORE lane=3 addr=0x330 data=0x2aa11633 op=0x9 R:114 W:0
# [8165] [PASS] LOAD lane=1 addr=0x610 data=0x0 exp=0x0 op=0x1 R:115 W:0
# [8245] [PASS] LOAD lane=0 addr=0x73e data=0x0 exp=0x0 op=0x5 R:116 W:0
# [8305] [PASS] LOAD lane=3 addr=0x558 data=0x0 exp=0x0 op=0x5 R:117 W:0
# [8425] [PASS] LOAD lane=0 addr=0x3ac data=0x0 exp=0x0 op=0x0 R:118 W:0
# [8435] [PASS] STORE lane=1 addr=0xec0 data=0xbd095a94 op=0xa R:119 W:0
# [8445] [PASS] STORE lane=1 addr=0x608 data=0x99a6439d op=0xa R:120 W:0
# [8455] [PASS] STORE lane=0 addr=0x2e2 data=0x56859a3c op=0x9 R:121 W:0
# [8585] [PASS] LOAD lane=3 addr=0x7b6 data=0x0 exp=0x0 op=0x1 R:122 W:0
# [8735] [PASS] LOAD lane=3 addr=0x46 data=0x0 exp=0x0 op=0x1 R:123 W:0
# [8885] [PASS] LOAD lane=0 addr=0x3d8 data=0x0 exp=0x0 op=0x1 R:124 W:0
# [9015] [PASS] LOAD lane=2 addr=0x6a0 data=0x0 exp=0x0 op=0x2 R:125 W:0
# [9025] [PASS] STORE lane=3 addr=0x359 data=0xdd56375e op=0x8 R:126 W:0
# [9145] [PASS] LOAD lane=3 addr=0x362 data=0x0 exp=0x0 op=0x4 R:127 W:0
# [9225] [PASS] LOAD lane=3 addr=0x2b3 data=0x0 exp=0x0 op=0x0 R:128 W:0
# [9305] [PASS] LOAD lane=1 addr=0xac data=0x0 exp=0x0 op=0x4 R:129 W:0
# [9385] [PASS] LOAD lane=0 addr=0x22c data=0x0 exp=0x0 op=0x0 R:130 W:0
# [9475] [PASS] LOAD lane=3 addr=0x2a0 data=0x0 exp=0x0 op=0x0 R:131 W:0
# [9485] [PASS] STORE lane=2 addr=0x1be data=0x99e11c48 op=0x8 R:132 W:0
# [9615] [PASS] LOAD lane=0 addr=0x354 data=0x0 exp=0x0 op=0x0 R:133 W:0
# [9735] [PASS] STORE lane=3 addr=0xde0 data=0xde64def op=0xa R:134 W:0
# [9745] [PASS] STORE lane=2 addr=0x504 data=0x78b35281 op=0xa R:135 W:0
# [9815] [PASS] LOAD lane=3 addr=0x145 data=0x0 exp=0x0 op=0x4 R:136 W:0
# [9965] [PASS] LOAD lane=2 addr=0x13d data=0x0 exp=0x0 op=0x0 R:137 W:0
# [9975] [PASS] STORE lane=0 addr=0x558 data=0x924ed291 op=0xa R:138 W:0
# [10085] [PASS] LOAD lane=0 addr=0x264 data=0xffff89e1 exp=0xffff89e1 op=0x1 R:139 W:0
# [10095] [PASS] STORE lane=3 addr=0xbfc data=0x328033ad op=0xa R:140 W:0
# [10195] [PASS] LOAD lane=2 addr=0x79e data=0x0 exp=0x0 op=0x1 R:141 W:0
# [10285] [PASS] LOAD lane=0 addr=0x269 data=0x0 exp=0x0 op=0x0 R:142 W:0
# [10295] [PASS] STORE lane=3 addr=0x65c data=0x3e3beb38 op=0xa R:143 W:0
# [10305] [PASS] STORE lane=1 addr=0x458 data=0x3b1a78ef op=0xa R:144 W:0
# [10315] [PASS] STORE lane=0 addr=0x440 data=0x5e1fe62c op=0x9 R:145 W:0
# [10445] [PASS] LOAD lane=1 addr=0x86 data=0x0 exp=0x0 op=0x0 R:146 W:0
# [10455] [PASS] STORE lane=0 addr=0xe24 data=0x838f16d op=0xa R:147 W:0
# [10565] [PASS] LOAD lane=0 addr=0xe2 data=0x0 exp=0x0 op=0x5 R:148 W:0
# [10685] [PASS] LOAD lane=1 addr=0x4cc data=0x0 exp=0x0 op=0x5 R:149 W:0
# [10695] [PASS] STORE lane=3 addr=0x1e1 data=0xf20c68b7 op=0x8 R:150 W:0
# [10815] [PASS] LOAD lane=1 addr=0x28c data=0x0 exp=0x0 op=0x0 R:151 W:0
# [10925] [PASS] LOAD lane=2 addr=0x146 data=0x76 exp=0x76 op=0x1 R:152 W:0
# [11045] [PASS] LOAD lane=0 addr=0x588 data=0x0 exp=0x0 op=0x5 R:153 W:0
# [11125] [PASS] LOAD lane=1 addr=0x237 data=0x0 exp=0x0 op=0x4 R:154 W:0
# [11255] [PASS] LOAD lane=1 addr=0x1dd data=0x0 exp=0x0 op=0x0 R:155 W:0
# [11355] [PASS] LOAD lane=1 addr=0x2ec data=0x0 exp=0x0 op=0x1 R:156 W:0
# [11445] [PASS] LOAD lane=2 addr=0x1f data=0x0 exp=0x0 op=0x4 R:157 W:0
# [11595] [PASS] LOAD lane=3 addr=0x2fe data=0x0 exp=0x0 op=0x0 R:158 W:0
# [11605] [PASS] STORE lane=2 addr=0x3e data=0xb11dcbc9 op=0x8 R:159 W:0
# [11705] [PASS] LOAD lane=3 addr=0xdac data=0x0 exp=0x0 op=0x2 R:160 W:0
# [11835] [PASS] LOAD lane=0 addr=0x602 data=0x0 exp=0x0 op=0x5 R:161 W:0
# [11895] [PASS] LOAD lane=0 addr=0x290 data=0x0 exp=0x0 op=0x4 R:162 W:0
# [11905] [PASS] STORE lane=3 addr=0x30e data=0x18eeebd3 op=0x8 R:163 W:0
# [11995] [PASS] LOAD lane=2 addr=0x2cc data=0x0 exp=0x0 op=0x1 R:164 W:0
# [12005] [PASS] STORE lane=2 addr=0xd94 data=0xeec92079 op=0xa R:165 W:0
# [12125] [PASS] LOAD lane=0 addr=0x4b data=0x0 exp=0x0 op=0x4 R:166 W:0
# [12135] [PASS] STORE lane=1 addr=0x261 data=0x25d5b842 op=0x8 R:167 W:0
# [12145] [PASS] STORE lane=2 addr=0x7d2 data=0x5ae95dc1 op=0x9 R:168 W:0
# [12245] [PASS] LOAD lane=0 addr=0x130 data=0x0 exp=0x0 op=0x1 R:169 W:0
# [12335] [PASS] LOAD lane=0 addr=0x64c data=0x0 exp=0x0 op=0x5 R:170 W:0
# [12345] [PASS] STORE lane=0 addr=0x25e data=0xe4ce8c5e op=0x8 R:171 W:0
# [12355] [PASS] STORE lane=2 addr=0x279 data=0x8a12ed58 op=0x8 R:172 W:0
# [12455] [PASS] LOAD lane=2 addr=0x260 data=0x4200 exp=0x4200 op=0x2 R:173 W:0
# [12465] [PASS] STORE lane=0 addr=0x1ac data=0x8df77f89 op=0xa R:174 W:0
# [12585] [PASS] LOAD lane=0 addr=0x17a data=0x0 exp=0x0 op=0x1 R:175 W:0
# [12735] [PASS] LOAD lane=1 addr=0x334 data=0x0 exp=0x0 op=0x5 R:176 W:0
# [12845] [PASS] LOAD lane=3 addr=0x374 data=0x0 exp=0x0 op=0x1 R:177 W:0
# [12855] [PASS] STORE lane=2 addr=0x12b data=0x6e71e76d op=0x8 R:178 W:0
# [12975] [PASS] LOAD lane=0 addr=0x3c6 data=0x0 exp=0x0 op=0x4 R:179 W:0
# [12985] [PASS] STORE lane=2 addr=0x2ec data=0x801c01d1 op=0x9 R:180 W:0
# [13085] [PASS] LOAD lane=2 addr=0x53c data=0x0 exp=0x0 op=0x2 R:181 W:0
# [13095] [PASS] STORE lane=0 addr=0x39c data=0x667178c6 op=0xa R:182 W:0
# [13175] [PASS] LOAD lane=3 addr=0x30c data=0x0 exp=0x0 op=0x1 R:183 W:0
# [13315] [PASS] LOAD lane=0 addr=0x7ee data=0x0 exp=0x0 op=0x1 R:184 W:0
# [13435] [PASS] LOAD lane=1 addr=0x114 data=0x0 exp=0x0 op=0x4 R:185 W:0
# [13445] [PASS] STORE lane=3 addr=0x23a data=0xcba8cae0 op=0x9 R:186 W:0
# [13455] [PASS] STORE lane=1 addr=0x136 data=0x6bf2e68 op=0x9 R:187 W:0
# [13575] [PASS] LOAD lane=3 addr=0xb88 data=0x0 exp=0x0 op=0x2 R:188 W:0
# [13585] [PASS] STORE lane=2 addr=0x7d4 data=0xadd74ffa op=0x9 R:189 W:0
# [13595] [PASS] STORE lane=1 addr=0x1c6 data=0x5bd40ce5 op=0x8 R:190 W:0
# [13615] [PASS] STORE lane=1 addr=0x3e data=0xdf014efd op=0x9 R:191 W:0
# [13755] [PASS] LOAD lane=1 addr=0x55a data=0x924e exp=0x924e op=0x5 R:192 W:0
# [13915] [PASS] LOAD lane=1 addr=0x5fe data=0x0 exp=0x0 op=0x1 R:193 W:0
# [14065] [PASS] LOAD lane=2 addr=0x5ba data=0x0 exp=0x0 op=0x5 R:194 W:0
# [14135] [PASS] LOAD lane=0 addr=0x90 data=0x6b exp=0x6b op=0x0 R:195 W:0
# [14205] [PASS] LOAD lane=3 addr=0x2b5 data=0x0 exp=0x0 op=0x0 R:196 W:0
# [14365] [PASS] LOAD lane=3 addr=0x1ce data=0x0 exp=0x0 op=0x1 R:197 W:0
# [14375] [PASS] STORE lane=1 addr=0x22b data=0xe3b259eb op=0x8 R:198 W:0
# [14465] [PASS] LOAD lane=2 addr=0x10b data=0x0 exp=0x0 op=0x4 R:199 W:0
# [14535] [PASS] LOAD lane=3 addr=0x138 data=0x0 exp=0x0 op=0x0 R:200 W:0
# [14615] [PASS] LOAD lane=0 addr=0x14c data=0x0 exp=0x0 op=0x5 R:201 W:0
# [14705] [PASS] LOAD lane=1 addr=0x440 data=0xe62c exp=0xe62c op=0x2 R:202 W:0
# [14795] [PASS] LOAD lane=1 addr=0x384 data=0x0 exp=0x0 op=0x1 R:203 W:0
# [14945] [PASS] LOAD lane=0 addr=0x2a2 data=0x0 exp=0x0 op=0x4 R:204 W:0
# [14955] [PASS] STORE lane=2 addr=0x1ba data=0x85ee64b op=0x8 R:205 W:0
# [14965] [PASS] STORE lane=0 addr=0x8a4 data=0x19848d1 op=0xa R:206 W:0
# [15125] [PASS] LOAD lane=2 addr=0x332 data=0x0 exp=0x0 op=0x5 R:207 W:0
# [15215] [PASS] LOAD lane=3 addr=0x27c data=0x0 exp=0x0 op=0x1 R:208 W:0
# [15335] [PASS] LOAD lane=0 addr=0x76a data=0x0 exp=0x0 op=0x5 R:209 W:0
# [15345] [PASS] STORE lane=3 addr=0xfe0 data=0xaafdf1ee op=0xa R:210 W:0
# [15465] [PASS] LOAD lane=3 addr=0x329 data=0x0 exp=0x0 op=0x4 R:211 W:0
# [15475] [PASS] STORE lane=2 addr=0x1d7 data=0xedf23a3a op=0x8 R:212 W:0
# [15555] [PASS] LOAD lane=3 addr=0x612 data=0x0 exp=0x0 op=0x5 R:213 W:0
# [15655] [PASS] LOAD lane=3 addr=0x504 data=0x5281 exp=0x5281 op=0x5 R:214 W:0
# [15765] [PASS] LOAD lane=0 addr=0x5fc data=0x0 exp=0x0 op=0x5 R:215 W:0
# [15875] [PASS] LOAD lane=3 addr=0x27e data=0x0 exp=0x0 op=0x5 R:216 W:0
# [15985] [PASS] LOAD lane=0 addr=0x3ee data=0x0 exp=0x0 op=0x1 R:217 W:0
# [16055] [PASS] STORE lane=1 addr=0x398 data=0xe353bcbb op=0x9 R:218 W:0
# [16065] [PASS] STORE lane=3 addr=0x17e data=0xef3f5543 op=0x8 R:219 W:0
# [16165] [PASS] LOAD lane=1 addr=0x694 data=0x0 exp=0x0 op=0x5 R:220 W:0
# [16275] [PASS] LOAD lane=3 addr=0x337 data=0x0 exp=0x0 op=0x4 R:221 W:0
# [16285] [PASS] STORE lane=2 addr=0x500 data=0xbbf74be7 op=0xa R:222 W:0
# [16295] [PASS] STORE lane=3 addr=0xc44 data=0x50fe9f63 op=0xa R:223 W:0
# [16315] [PASS] STORE lane=1 addr=0x454 data=0x89f89d1a op=0x9 R:224 W:0
# [16445] [PASS] LOAD lane=3 addr=0x66c data=0x0 exp=0x0 op=0x1 R:225 W:0
# [16595] [PASS] LOAD lane=3 addr=0x1fc data=0x0 exp=0x0 op=0x4 R:226 W:0
# [16695] [PASS] LOAD lane=0 addr=0xa data=0x0 exp=0x0 op=0x1 R:227 W:0
# [16745] [PASS] STORE lane=2 addr=0x3e2 data=0xb1710544 op=0x9 R:228 W:0
# [16755] [PASS] STORE lane=1 addr=0x67e data=0xe1a8c113 op=0x9 R:229 W:0
# [16875] [PASS] LOAD lane=1 addr=0x334 data=0x0 exp=0x0 op=0x1 R:230 W:0
# [16885] [PASS] STORE lane=0 addr=0x7c8 data=0x7917f232 op=0x9 R:231 W:0
# [16895] [PASS] STORE lane=3 addr=0x2be data=0x37e1c922 op=0x9 R:232 W:0
# [17015] [PASS] LOAD lane=2 addr=0x85c data=0x0 exp=0x0 op=0x2 R:233 W:0
# [17025] [PASS] STORE lane=1 addr=0x363 data=0xd089147 op=0x8 R:234 W:0
# [17165] [PASS] LOAD lane=2 addr=0x30c data=0xd30000 exp=0xd30000 op=0x2 R:235 W:0
# [17275] [PASS] LOAD lane=0 addr=0x5ca data=0x0 exp=0x0 op=0x1 R:236 W:0
# [17285] [PASS] STORE lane=0 addr=0x4b8 data=0xdba5fe8a op=0x9 R:237 W:0
# [17425] [PASS] LOAD lane=2 addr=0x9a data=0x0 exp=0x0 op=0x5 R:238 W:0
# [17505] [PASS] LOAD lane=3 addr=0x361 data=0x0 exp=0x0 op=0x0 R:239 W:0
# [17515] [PASS] STORE lane=2 addr=0x1ef data=0x2ccfc97f op=0x8 R:240 W:0
# [17745] [PASS] LOAD lane=1 addr=0xddc data=0x0 exp=0x0 op=0x2 R:241 W:0
# [17875] [PASS] LOAD lane=1 addr=0x25f data=0xffffffd9 exp=0xffffffd9 op=0x0 R:242 W:0
# [18005] [PASS] LOAD lane=1 addr=0x45e data=0x0 exp=0x0 op=0x1 R:243 W:0
# [18015] [PASS] STORE lane=0 addr=0xac4 data=0x33a11cf0 op=0xa R:244 W:0
# [18025] [PASS] STORE lane=3 addr=0x680 data=0x60cbd4aa op=0xa R:245 W:0
# [18135] [PASS] LOAD lane=0 addr=0x21e data=0x0 exp=0x0 op=0x5 R:246 W:0
# [18285] [PASS] LOAD lane=2 addr=0xcb8 data=0x0 exp=0x0 op=0x2 R:247 W:0
# [18375] [PASS] LOAD lane=2 addr=0x3e2 data=0x44 exp=0x44 op=0x4 R:248 W:0
# [18525] [PASS] LOAD lane=2 addr=0x46a data=0x0 exp=0x0 op=0x5 R:249 W:0
# [18635] [PASS] LOAD lane=0 addr=0x3d0 data=0x0 exp=0x0 op=0x1 R:250 W:0
# [18885] [PASS] LOAD lane=1 addr=0x49e data=0x0 exp=0x0 op=0x5 R:251 W:0
# [19005] [PASS] LOAD lane=1 addr=0x2d8 data=0x0 exp=0x0 op=0x0 R:252 W:0
# [19095] [PASS] LOAD lane=2 addr=0x281 data=0x0 exp=0x0 op=0x4 R:253 W:0
# [19225] [PASS] LOAD lane=2 addr=0x2da data=0x0 exp=0x0 op=0x0 R:254 W:0
# [19285] [PASS] STORE lane=1 addr=0x1ab data=0x2eae935a op=0x8 R:255 W:0
# [19295] [PASS] STORE lane=0 addr=0x438 data=0x57a1eead op=0xa R:256 W:0
# [19315] [PASS] STORE lane=0 addr=0x5e6 data=0x982112f0 op=0x9 R:257 W:0
# [19325] [PASS] STORE lane=2 addr=0x268 data=0x21c84a01 op=0x8 R:258 W:0
# [19335] [PASS] STORE lane=2 addr=0xbb4 data=0x722b4f3e op=0xa R:259 W:0
# [19465] [PASS] LOAD lane=3 addr=0x2f2 data=0x0 exp=0x0 op=0x4 R:260 W:0
# [19525] [PASS] LOAD lane=3 addr=0x280 data=0x0 exp=0x0 op=0x1 R:261 W:0
# [19635] [PASS] LOAD lane=1 addr=0x2a5 data=0x0 exp=0x0 op=0x0 R:262 W:0
# [19645] [PASS] STORE lane=0 addr=0x7ec data=0x152642d7 op=0x9 R:263 W:0
# [19715] [PASS] LOAD lane=0 addr=0xaa0 data=0x0 exp=0x0 op=0x2 R:264 W:0
# [19835] [PASS] LOAD lane=1 addr=0x3e5 data=0x0 exp=0x0 op=0x4 R:265 W:0
# [19925] [PASS] LOAD lane=1 addr=0x268 data=0x1 exp=0x1 op=0x2 R:266 W:0
# [19935] [PASS] STORE lane=1 addr=0x176 data=0xec80fe10 op=0x9 R:267 W:0
# [20035] [PASS] LOAD lane=2 addr=0x8ec data=0x0 exp=0x0 op=0x2 R:268 W:0
# [20045] [PASS] STORE lane=0 addr=0x848 data=0x5e5a1da7 op=0xa R:269 W:0
# [20115] [PASS] LOAD lane=3 addr=0x7e8 data=0x0 exp=0x0 op=0x2 R:270 W:0
# [20275] [PASS] LOAD lane=3 addr=0x85 data=0x0 exp=0x0 op=0x0 R:271 W:0
# [20285] [PASS] STORE lane=0 addr=0x39e data=0xec546732 op=0x9 R:272 W:0
# [20435] [PASS] LOAD lane=2 addr=0x2fa data=0x0 exp=0x0 op=0x4 R:273 W:0
# [20525] [PASS] LOAD lane=0 addr=0x6e0 data=0x0 exp=0x0 op=0x5 R:274 W:0
